OpenFPGA/Fabric/synthesizable_verilog/run001/k6_frac_N10_tileable_40nm/and2/MIN_ROUTE_CHAN_WIDTH/and2_formal.vcd
$date
	Tue Jun 17 02:39:30 2025
$end
$version
	Icarus Verilog
$end
$timescale
	1ps
$end
$scope module and2_autocheck_top_tb $end
$var wire 1 ! __config_all_done__ $end
$var wire 1 " __op_clock__ $end
$var wire 1 # __prog_clock__ $end
$var wire 1 $ clk $end
$var wire 32 % gfpga_pad_GPIO_PAD [0:31] $end
$var wire 1 & pReset $end
$var wire 1 ' prog_clk $end
$var wire 1 ( reset $end
$var wire 1 ) set $end
$var wire 1 * ccff_tail $end
$var wire 1 + c_fpga $end
$var wire 1 , c_benchmark $end
$var reg 1 - __config_done__ $end
$var reg 1 ( __greset__ $end
$var reg 1 ) __gset__ $end
$var reg 1 . __op_clock___reg__ $end
$var reg 1 / __prog_clock___reg__ $end
$var reg 1 0 __prog_reset__ $end
$var reg 1 1 __prog_set_ $end
$var reg 1 2 a_shared_input $end
$var reg 1 3 b_shared_input $end
$var reg 12 4 bit_index [11:0] $end
$var reg 1 5 c_flag $end
$var reg 1 6 ccff_head $end
$var reg 12 7 ibit [11:0] $end
$var reg 1 8 sim_start $end
$var reg 1 9 skip_bits $end
$var integer 32 : nb_error [31:0] $end
$upscope $end
$enddefinitions $end
#0
$dumpvars
b1 :
09
18
b10110110011 7
06
05
b0 4
13
02
11
10
0/
0.
0-
0,
1+
0*
0)
1(
0'
1&
bx1x0x0x0000xx0x0xx0x0xxxx00xx00x %
0$
0#
0"
0!
$end
#5000
1/
#10000
b1 4
0/
01
0&
00
#15000
1'
1#
1/
#20000
b10 4
0'
0#
0/
#25000
1'
1#
1/
#30000
b11 4
0'
0#
0/
#35000
1'
1#
1/
#40000
b100 4
0'
0#
0/
#45000
1'
1#
1/
#50000
b101 4
0'
0#
0/
#55000
1'
1#
1/
#60000
b110 4
0'
0#
0/
#65000
1'
1#
1/
#70000
b111 4
0'
0#
0/
#75000
1'
1#
1/
#80000
b1000 4
0'
0#
0/
#85000
1'
1#
1/
#90000
b1001 4
0'
0#
0/
#95000
1'
1#
1/
#100000
b1010 4
0'
0#
0/
#105000
1'
1#
1/
#110000
b1011 4
0'
0#
0/
#115000
1'
1#
1/
#120000
b1100 4
0'
0#
0/
#125000
1'
1#
1/
#130000
b1101 4
0'
0#
0/
#135000
1'
1#
1/
#140000
b1110 4
0'
0#
0/
#145000
1'
1#
1/
#150000
b1111 4
0'
0#
0/
#155000
1'
1#
1/
#160000
b10000 4
0'
0#
0/
#165000
1'
1#
1/
#170000
b10001 4
0'
0#
0/
#175000
1'
1#
1/
#180000
b10010 4
0'
0#
0/
#185000
1'
1#
1/
#190000
b10011 4
0'
0#
0/
#195000
1'
1#
1/
#200000
b10100 4
0'
0#
0/
#205000
1'
1#
1/
#210000
b10101 4
0'
0#
0/
#215000
1'
1#
1/
#220000
b10110 4
0'
0#
0/
#225000
1'
1#
1/
#230000
b10111 4
0'
0#
0/
#235000
1'
1#
1/
#240000
b11000 4
0'
0#
0/
#245000
1'
1#
1/
#250000
b11001 4
16
0'
0#
0/
#255000
1'
1#
1/
#260000
b11010 4
0'
0#
0/
#265000
1'
1#
1/
#270000
b11011 4
0'
0#
0/
#275000
1'
1#
1/
#280000
b11100 4
06
0'
0#
0/
#285000
1'
1#
1/
#290000
b11101 4
0'
0#
0/
#295000
1'
1#
1/
#300000
b11110 4
0'
0#
0/
#305000
1'
1#
1/
#310000
b11111 4
16
0'
0#
0/
#315000
1'
1#
1/
#320000
b100000 4
0'
0#
0/
#325000
1'
1#
1/
#330000
b100001 4
06
0'
0#
0/
#335000
1'
1#
1/
#340000
b100010 4
16
0'
0#
0/
#345000
1'
1#
1/
#350000
b100011 4
06
0'
0#
0/
#355000
1'
1#
1/
#360000
b100100 4
0'
0#
0/
#365000
1'
1#
1/
#370000
b100101 4
0'
0#
0/
#375000
1'
1#
1/
#380000
b100110 4
0'
0#
0/
#385000
1'
1#
1/
#390000
b100111 4
0'
0#
0/
#395000
1'
1#
1/
#400000
b101000 4
0'
0#
0/
#405000
1'
1#
1/
#410000
b101001 4
0'
0#
0/
#415000
1'
1#
1/
#420000
b101010 4
0'
0#
0/
#425000
1'
1#
1/
#430000
b101011 4
0'
0#
0/
#435000
1'
1#
1/
#440000
b101100 4
0'
0#
0/
#445000
1'
1#
1/
#450000
b101101 4
0'
0#
0/
#455000
1'
1#
1/
#460000
b101110 4
0'
0#
0/
#465000
1'
1#
1/
#470000
b101111 4
0'
0#
0/
#475000
1'
1#
1/
#480000
b110000 4
0'
0#
0/
#485000
1'
1#
1/
#490000
b110001 4
0'
0#
0/
#495000
1'
1#
1/
#500000
b110010 4
0'
0#
0/
#505000
1'
1#
1/
#510000
b110011 4
0'
0#
0/
#515000
1'
1#
1/
#520000
b110100 4
0'
0#
0/
#525000
1'
1#
1/
#530000
b110101 4
0'
0#
0/
#535000
1'
1#
1/
#540000
b110110 4
0'
0#
0/
#545000
1'
1#
1/
#550000
b110111 4
0'
0#
0/
#555000
1'
1#
1/
#560000
b111000 4
0'
0#
0/
#565000
1'
1#
1/
#570000
b111001 4
0'
0#
0/
#575000
1'
1#
1/
#580000
b111010 4
0'
0#
0/
#585000
1'
1#
1/
#590000
b111011 4
0'
0#
0/
#595000
1'
1#
1/
#600000
b111100 4
0'
0#
0/
#605000
1'
1#
1/
#610000
b111101 4
0'
0#
0/
#615000
1'
1#
1/
#620000
b111110 4
0'
0#
0/
#625000
1'
1#
1/
#630000
b111111 4
0'
0#
0/
#635000
1'
1#
1/
#640000
b1000000 4
0'
0#
0/
#645000
1'
1#
1/
#650000
b1000001 4
0'
0#
0/
#655000
1'
1#
1/
#660000
b1000010 4
0'
0#
0/
#665000
1'
1#
1/
#670000
b1000011 4
0'
0#
0/
#675000
1'
1#
1/
#680000
b1000100 4
0'
0#
0/
#685000
1'
1#
1/
#690000
b1000101 4
0'
0#
0/
#695000
1'
1#
1/
#700000
b1000110 4
0'
0#
0/
#705000
1'
1#
1/
#710000
b1000111 4
0'
0#
0/
#715000
1'
1#
1/
#720000
b1001000 4
0'
0#
0/
#725000
1'
1#
1/
#730000
b1001001 4
0'
0#
0/
#735000
1'
1#
1/
#740000
b1001010 4
0'
0#
0/
#745000
1'
1#
1/
#750000
b1001011 4
0'
0#
0/
#755000
1'
1#
1/
#760000
b1001100 4
0'
0#
0/
#765000
1'
1#
1/
#770000
b1001101 4
0'
0#
0/
#775000
1'
1#
1/
#780000
b1001110 4
0'
0#
0/
#785000
1'
1#
1/
#790000
b1001111 4
0'
0#
0/
#795000
1'
1#
1/
#800000
b1010000 4
0'
0#
0/
#805000
1'
1#
1/
#810000
b1010001 4
0'
0#
0/
#815000
1'
1#
1/
#820000
b1010010 4
0'
0#
0/
#825000
1'
1#
1/
#830000
b1010011 4
0'
0#
0/
#835000
1'
1#
1/
#840000
b1010100 4
0'
0#
0/
#845000
1'
1#
1/
#850000
b1010101 4
0'
0#
0/
#855000
1'
1#
1/
#860000
b1010110 4
0'
0#
0/
#865000
1'
1#
1/
#870000
b1010111 4
0'
0#
0/
#875000
1'
1#
1/
#880000
b1011000 4
0'
0#
0/
#885000
1'
1#
1/
#890000
b1011001 4
0'
0#
0/
#895000
1'
1#
1/
#900000
b1011010 4
0'
0#
0/
#905000
1'
1#
1/
#910000
b1011011 4
0'
0#
0/
#915000
1'
1#
1/
#920000
b1011100 4
0'
0#
0/
#925000
1'
1#
1/
#930000
b1011101 4
0'
0#
0/
#935000
1'
1#
1/
#940000
b1011110 4
0'
0#
0/
#945000
1'
1#
1/
#950000
b1011111 4
0'
0#
0/
#955000
1'
1#
1/
#960000
b1100000 4
0'
0#
0/
#965000
1'
1#
1/
#970000
b1100001 4
0'
0#
0/
#975000
1'
1#
1/
#980000
b1100010 4
0'
0#
0/
#985000
1'
1#
1/
#990000
b1100011 4
0'
0#
0/
#995000
1'
1#
1/
#1000000
b1100100 4
0'
0#
0/
#1005000
1'
1#
1/
#1010000
b1100101 4
0'
0#
0/
#1015000
1'
1#
1/
#1020000
b1100110 4
0'
0#
0/
#1025000
1'
1#
1/
#1030000
b1100111 4
0'
0#
0/
#1035000
1'
1#
1/
#1040000
b1101000 4
0'
0#
0/
#1045000
1'
1#
1/
#1050000
b1101001 4
0'
0#
0/
#1055000
1'
1#
1/
#1060000
b1101010 4
0'
0#
0/
#1065000
1'
1#
1/
#1070000
b1101011 4
0'
0#
0/
#1075000
1'
1#
1/
#1080000
b1101100 4
0'
0#
0/
#1085000
1'
1#
1/
#1090000
b1101101 4
0'
0#
0/
#1095000
1'
1#
1/
#1100000
b1101110 4
0'
0#
0/
#1105000
1'
1#
1/
#1110000
b1101111 4
0'
0#
0/
#1115000
1'
1#
1/
#1120000
b1110000 4
0'
0#
0/
#1125000
1'
1#
1/
#1130000
b1110001 4
0'
0#
0/
#1135000
1'
1#
1/
#1140000
b1110010 4
0'
0#
0/
#1145000
1'
1#
1/
#1150000
b1110011 4
0'
0#
0/
#1155000
1'
1#
1/
#1160000
b1110100 4
0'
0#
0/
#1165000
1'
1#
1/
#1170000
b1110101 4
0'
0#
0/
#1175000
1'
1#
1/
#1180000
b1110110 4
0'
0#
0/
#1185000
1'
1#
1/
#1190000
b1110111 4
0'
0#
0/
#1195000
1'
1#
1/
#1200000
b1111000 4
0'
0#
0/
#1205000
1'
1#
1/
#1210000
b1111001 4
0'
0#
0/
#1215000
1'
1#
1/
#1220000
b1111010 4
0'
0#
0/
#1225000
1'
1#
1/
#1230000
b1111011 4
0'
0#
0/
#1235000
1'
1#
1/
#1240000
b1111100 4
0'
0#
0/
#1245000
1'
1#
1/
#1250000
b1111101 4
0'
0#
0/
#1255000
1'
1#
1/
#1260000
b1111110 4
0'
0#
0/
#1265000
1'
1#
1/
#1270000
b1111111 4
0'
0#
0/
#1275000
1'
1#
1/
#1280000
b10000000 4
0'
0#
0/
#1285000
1'
1#
1/
#1290000
b10000001 4
0'
0#
0/
#1295000
1'
1#
1/
#1300000
b10000010 4
0'
0#
0/
#1305000
1'
1#
1/
#1310000
b10000011 4
0'
0#
0/
#1315000
bx1x0x0x0000xx0x00x0x0xxxx00xx00x %
1'
1#
1/
#1320000
b10000100 4
0'
0#
0/
#1325000
1'
1#
1/
#1330000
b10000101 4
0'
0#
0/
#1335000
bx1x0x0x0000xx0x0xx0x0xxxx00xx00x %
1'
1#
1/
#1340000
b10000110 4
0'
0#
0/
#1345000
1'
1#
1/
#1350000
b10000111 4
0'
0#
0/
#1355000
1'
1#
1/
#1360000
b10001000 4
0'
0#
0/
#1365000
1'
1#
1/
#1370000
b10001001 4
0'
0#
0/
#1375000
bx1x0x0x0000xx0x00xxx0xxxx00xx00x %
1'
1#
1/
#1380000
b10001010 4
0'
0#
0/
#1385000
bx1x0x0x0000xx0x0xxxx0xxxx00xx00x %
1'
1#
1/
#1390000
b10001011 4
0'
0#
0/
#1395000
bx1x0x0x0000xx0x0xx0x0xxxx00xx00x %
1'
1#
1/
#1400000
b10001100 4
0'
0#
0/
#1405000
bx1x0x0x0000xx0x00xxx0xxxx00xx00x %
1'
1#
1/
#1410000
b10001101 4
0'
0#
0/
#1415000
bx1x0x0x0000xx0x0xx000xxxx00xx00x %
1'
1#
1/
#1420000
b10001110 4
0'
0#
0/
#1425000
1'
1#
1/
#1430000
b10001111 4
0'
0#
0/
#1435000
bx1x0x0x0000xx0x0xxxx0xxxx00xx00x %
1'
1#
1/
#1440000
b10010000 4
0'
0#
0/
#1445000
bx1x0x0x0000xx0x0xx0xxxxxx00xx00x %
1'
1#
1/
#1450000
b10010001 4
0'
0#
0/
#1455000
bx1x0x0x0000xx0x0xxxxxxxxx00xx00x %
1'
1#
1/
#1460000
b10010010 4
0'
0#
0/
#1465000
bx1x0x0x0000xx0x0xxxxx0xxx00xx00x %
1'
1#
1/
#1470000
b10010011 4
0'
0#
0/
#1475000
bx1x0x0x0000xx0x0xxx000xxx00xx00x %
1'
1#
1/
#1480000
b10010100 4
0'
0#
0/
#1485000
bx1x0x0x0000xx0x0xx0x0xxxx00xx00x %
1'
1#
1/
#1490000
b10010101 4
0'
0#
0/
#1495000
1'
1#
1/
#1500000
b10010110 4
0'
0#
0/
#1505000
bx1x0x0x0000xx0x0xx0xxxxxx00xx00x %
1'
1#
1/
#1510000
b10010111 4
0'
0#
0/
#1515000
1'
1#
1/
#1520000
b10011000 4
0'
0#
0/
#1525000
bx1x0x0x0000xx0x0xx0x00xxx00xx00x %
1'
1#
1/
#1530000
b10011001 4
0'
0#
0/
#1535000
bx1x0x0x0000xx0x0xx0xxxxxx00xx00x %
1'
1#
1/
#1540000
b10011010 4
0'
0#
0/
#1545000
bx1x0x0x0000xx0x00x0x0xx0x00xx00x %
1'
1#
1/
#1550000
b10011011 4
0'
0#
0/
#1555000
bx1x0x0x0000xx0x0000x00xxx00xx00x %
1'
1#
1/
#1560000
b10011100 4
0'
0#
0/
#1565000
bx1x0x0x0000xx0x0000x0xxxx00xx00x %
1'
1#
1/
#1570000
b10011101 4
0'
0#
0/
#1575000
bx1x0x0x0000xx0x0x0000xxxx00xx00x %
1'
1#
1/
#1580000
b10011110 4
0'
0#
0/
#1585000
bx1x0x0x0000xx0x0xx000xxxx00xx00x %
1'
1#
1/
#1590000
b10011111 4
0'
0#
0/
#1595000
bx1x0x0x0000xx0x0xx0000x0x00xx00x %
1'
1#
1/
#1600000
b10100000 4
0'
0#
0/
#1605000
bx1x0x0x0000xx0x00x0x000xx00xx00x %
1'
1#
1/
#1610000
b10100001 4
0'
0#
0/
#1615000
bx1x0x0x0000xx0x0000x0000x00xx00x %
1'
1#
1/
#1620000
b10100010 4
0'
0#
0/
#1625000
bx1x0x0x0000xx0x0x00x0x00x00xx00x %
1'
1#
1/
#1630000
b10100011 4
0'
0#
0/
#1635000
bx1x0x0x0000xx0x00x000xx0x00xx00x %
1'
1#
1/
#1640000
b10100100 4
0'
0#
0/
#1645000
bx1x0x0x0000xx0x0x0000xxxx00xx00x %
1'
1#
1/
#1650000
b10100101 4
0'
0#
0/
#1655000
bx1x0x0x00000x0x0xx0x00xxx00xx00x %
1'
1#
1/
#1660000
b10100110 4
0'
0#
0/
#1665000
bx1x0x0x0000000x0xx00000xx00xx00x %
1'
1#
1/
#1670000
b10100111 4
0'
0#
0/
#1675000
bx1x0x0x0000000x0xx0x0x00x00xx00x %
1'
1#
1/
#1680000
b10101000 4
0'
0#
0/
#1685000
bx1x0x0x0000x0000xx0x00x0x00xx00x %
1'
1#
1/
#1690000
b10101001 4
0'
0#
0/
#1695000
bx1x0x0x0000xx000xx0x0x0xx00xx00x %
1'
1#
1/
#1700000
b10101010 4
0'
0#
0/
#1705000
b1x0x0x0000xx000xx0x0xx0x00xx00x %
1'
1#
1/
#1710000
b10101011 4
0'
0#
0/
#1715000
z+
b0zx0x0x00000x0x0xx0x0xxxx00xx00x %
1'
1#
1/
#1720000
b10101100 4
0'
0#
0/
#1725000
b0z00x0x0000000x0xx0x0xxxx00xx00x %
1'
1#
1/
#1730000
b10101101 4
0'
0#
0/
#1735000
bxz00x0x0000x00x0xx0x0xxxx00xx00x %
1'
1#
1/
#1740000
b10101110 4
0'
0#
0/
#1745000
1+
bx10000x00000x000xx0x0xxxx00xx00x %
1'
1#
1/
#1750000
b10101111 4
0'
0#
0/
#1755000
bx1x000x0000x0000xx0x0xxxx00xx00x %
1'
1#
1/
#1760000
b10110000 4
0'
0#
0/
#1765000
b1x00000000xx0x0xx0x0xxxx00xx00x %
1'
1#
1/
#1770000
b10110001 4
0'
0#
0/
#1775000
z+
b0zx0x000000xx000xx0x0xxxx00xx00x %
1'
1#
1/
#1780000
b10110010 4
0'
0#
0/
#1785000
bxz00x000000xx0x0xx0x0xxxx00xx00x %
1'
1#
1/
#1790000
b10110011 4
0'
0#
0/
#1795000
1+
b100x0x0000xx0x0xx0x0xxxx00xx00x %
1'
1#
1/
#1800000
b10110100 4
0'
0#
0/
#1805000
z+
bxzx000x0000xx0x0xx0x0xxxx00xx00x %
1'
1#
1/
#1810000
b10110101 4
0'
0#
0/
#1815000
1+
bx10000x0000xx0x0xx0x0xxxx00xx00x %
1'
1#
1/
#1820000
b10110110 4
0'
0#
0/
#1825000
bx1x0x000000xx0x0xx0x0xxxx00xx00x %
1'
1#
1/
#1830000
b10110111 4
0'
0#
0/
#1835000
bx1x00000000xx0x0xx0x0xxxx00xx00x %
1'
1#
1/
#1840000
b10111000 4
0'
0#
0/
#1845000
bx1x0x0x0000xx0x0xx0x0xxxx00xx00x %
1'
1#
1/
#1850000
b10111001 4
0'
0#
0/
#1855000
bx1x0x000000xx0x0xx0x0xxxx00xx00x %
1'
1#
1/
#1860000
b10111010 4
0'
0#
0/
#1865000
bx1x0x0x0000xx0x0xx0x0xxxx00xx00x %
1'
1#
1/
#1870000
b10111011 4
0'
0#
0/
#1875000
1'
1#
1/
#1880000
b10111100 4
0'
0#
0/
#1885000
1'
1#
1/
#1890000
b10111101 4
0'
0#
0/
#1895000
1'
1#
1/
#1900000
b10111110 4
0'
0#
0/
#1905000
1'
1#
1/
#1910000
b10111111 4
0'
0#
0/
#1915000
1'
1#
1/
#1920000
b11000000 4
0'
0#
0/
#1925000
1'
1#
1/
#1930000
b11000001 4
0'
0#
0/
#1935000
1'
1#
1/
#1940000
b11000010 4
0'
0#
0/
#1945000
1'
1#
1/
#1950000
b11000011 4
0'
0#
0/
#1955000
1'
1#
1/
#1960000
b11000100 4
0'
0#
0/
#1965000
1'
1#
1/
#1970000
b11000101 4
0'
0#
0/
#1975000
1'
1#
1/
#1980000
b11000110 4
0'
0#
0/
#1985000
1'
1#
1/
#1990000
b11000111 4
0'
0#
0/
#1995000
1'
1#
1/
#2000000
b11001000 4
0'
0#
0/
#2005000
1'
1#
1/
#2010000
b11001001 4
0'
0#
0/
#2015000
1'
1#
1/
#2020000
b11001010 4
0'
0#
0/
#2025000
1'
1#
1/
#2030000
b11001011 4
0'
0#
0/
#2035000
1'
1#
1/
#2040000
b11001100 4
0'
0#
0/
#2045000
1'
1#
1/
#2050000
b11001101 4
0'
0#
0/
#2055000
1'
1#
1/
#2060000
b11001110 4
0'
0#
0/
#2065000
1'
1#
1/
#2070000
b11001111 4
0'
0#
0/
#2075000
1'
1#
1/
#2080000
b11010000 4
0'
0#
0/
#2085000
1'
1#
1/
#2090000
b11010001 4
0'
0#
0/
#2095000
1'
1#
1/
#2100000
b11010010 4
0'
0#
0/
#2105000
1'
1#
1/
#2110000
b11010011 4
0'
0#
0/
#2115000
1'
1#
1/
#2120000
b11010100 4
0'
0#
0/
#2125000
1'
1#
1/
#2130000
b11010101 4
0'
0#
0/
#2135000
1'
1#
1/
#2140000
b11010110 4
0'
0#
0/
#2145000
1'
1#
1/
#2150000
b11010111 4
0'
0#
0/
#2155000
1'
1#
1/
#2160000
b11011000 4
0'
0#
0/
#2165000
1'
1#
1/
#2170000
b11011001 4
0'
0#
0/
#2175000
1'
1#
1/
#2180000
b11011010 4
0'
0#
0/
#2185000
1'
1#
1/
#2190000
b11011011 4
0'
0#
0/
#2195000
1'
1#
1/
#2200000
b11011100 4
0'
0#
0/
#2205000
1'
1#
1/
#2210000
b11011101 4
0'
0#
0/
#2215000
1'
1#
1/
#2220000
b11011110 4
0'
0#
0/
#2225000
1'
1#
1/
#2230000
b11011111 4
0'
0#
0/
#2235000
1'
1#
1/
#2240000
b11100000 4
0'
0#
0/
#2245000
1'
1#
1/
#2250000
b11100001 4
0'
0#
0/
#2255000
1'
1#
1/
#2260000
b11100010 4
0'
0#
0/
#2265000
1'
1#
1/
#2270000
b11100011 4
0'
0#
0/
#2275000
1'
1#
1/
#2280000
b11100100 4
0'
0#
0/
#2285000
1'
1#
1/
#2290000
b11100101 4
0'
0#
0/
#2295000
1'
1#
1/
#2300000
b11100110 4
0'
0#
0/
#2305000
1'
1#
1/
#2310000
b11100111 4
0'
0#
0/
#2315000
1'
1#
1/
#2320000
b11101000 4
0'
0#
0/
#2325000
1'
1#
1/
#2330000
b11101001 4
0'
0#
0/
#2335000
1'
1#
1/
#2340000
b11101010 4
0'
0#
0/
#2345000
1'
1#
1/
#2350000
b11101011 4
0'
0#
0/
#2355000
1'
1#
1/
#2360000
b11101100 4
0'
0#
0/
#2365000
1'
1#
1/
#2370000
b11101101 4
0'
0#
0/
#2375000
1'
1#
1/
#2380000
b11101110 4
0'
0#
0/
#2385000
1'
1#
1/
#2390000
b11101111 4
0'
0#
0/
#2395000
1'
1#
1/
#2400000
b11110000 4
0'
0#
0/
#2405000
1'
1#
1/
#2410000
b11110001 4
0'
0#
0/
#2415000
1'
1#
1/
#2420000
b11110010 4
0'
0#
0/
#2425000
1'
1#
1/
#2430000
b11110011 4
0'
0#
0/
#2435000
1'
1#
1/
#2440000
b11110100 4
0'
0#
0/
#2445000
bx1x0x0x0000xx0x0xx0x0xxx000xx00x %
1'
1#
1/
#2450000
b11110101 4
0'
0#
0/
#2455000
bx1x0x0x0000xx0x0xx0x0xxxx00xx00x %
1'
1#
1/
#2460000
b11110110 4
0'
0#
0/
#2465000
1'
1#
1/
#2470000
b11110111 4
0'
0#
0/
#2475000
bx1x0x0x0000xx0x0xx0x0xxx0x0xx00x %
1'
1#
1/
#2480000
b11111000 4
0'
0#
0/
#2485000
bx1x0x0x0000xx0x0xx0x0xxxx00xx00x %
1'
1#
1/
#2490000
b11111001 4
0'
0#
0/
#2495000
1'
1#
1/
#2500000
b11111010 4
0'
0#
0/
#2505000
bx1x0x0x0000xx0x0xx0x0xxx0xxxx00x %
1'
1#
1/
#2510000
b11111011 4
0'
0#
0/
#2515000
bx1x0x0x0000xx0x0xx0x0xxxx0xxx00x %
1'
1#
1/
#2520000
b11111100 4
0'
0#
0/
#2525000
bx1x0x0x0000xx0x0xx0x0xxx000xx00x %
1'
1#
1/
#2530000
b11111101 4
0'
0#
0/
#2535000
bx1x0x0x0000xx0x0xx0x0xxx0x00x00x %
1'
1#
1/
#2540000
b11111110 4
0'
0#
0/
#2545000
bx1x0x0x0000xx0x0xx0x0xxx000xx00x %
1'
1#
1/
#2550000
b11111111 4
0'
0#
0/
#2555000
bx1x0x0x0000xx0x0xx0x0xxxxx00x00x %
1'
1#
1/
#2560000
b100000000 4
0'
0#
0/
#2565000
bx1x0x0x0000xx0x0xx0x0xxxxxx0000x %
1'
1#
1/
#2570000
b100000001 4
0'
0#
0/
#2575000
bx1x0x0x0000xx0x0xx0x0xxxxx0x000x %
1'
1#
1/
#2580000
b100000010 4
0'
0#
0/
#2585000
bx1x0x0x0000xx0x0xx0x0xxxx00xx00x %
1'
1#
1/
#2590000
b100000011 4
0'
0#
0/
#2595000
bx1x0x0x0000xx0x0xx0x0xxxx0x0000x %
1'
1#
1/
#2600000
b100000100 4
0'
0#
0/
#2605000
bx1x0x0x0000xx0x0xx0x0xxxx000xx0x %
1'
1#
1/
#2610000
b100000101 4
0'
0#
0/
#2615000
1'
1#
1/
#2620000
b100000110 4
0'
0#
0/
#2625000
bx1x0x0x0000xx0x0xx0x0xxxx00000xx %
1'
1#
1/
#2630000
b100000111 4
0'
0#
0/
#2635000
bx1x0x0x0000xx0x0xx0x0xxxx000x00x %
1'
1#
1/
#2640000
b100001000 4
0'
0#
0/
#2645000
bx1x0x0x0000xx0x0xx0x0xxxx00x000x %
1'
1#
1/
#2650000
b100001001 4
0'
0#
0/
#2655000
bx1x0x0x0000xx0x0xx0x0xxxx00x00x1 %
1'
1#
1/
#2660000
b100001010 4
0'
0#
0/
#2665000
bx1x0x0x0000xx0x0xx0x0xxxx00x0x01 %
1'
1#
1/
#2670000
b100001011 4
0'
0#
0/
#2675000
bx1x0x0x0000xx0x0xx0x0xxx000xx00x %
1'
1#
1/
#2680000
b100001100 4
0'
0#
0/
#2685000
bx1x0x0x0000xx0x0xx0x0xxx000xx0xx %
1'
1#
1/
#2690000
b100001101 4
0'
0#
0/
#2695000
bx1x0x0x0000xx0x0xx0x0xxx000xx00x %
1'
1#
1/
#2700000
b100001110 4
0'
0#
0/
#2705000
bx1x0x0x0000xx0x0xx0x0xxxx000x0xx %
1'
1#
1/
#2710000
b100001111 4
0'
0#
0/
#2715000
bx1x0x0x0000xx0x0xx0x0xxxx00000x1 %
1'
1#
1/
#2720000
b100010000 4
0'
0#
0/
#2725000
bx1x0x0x0000xx0x0xx0x0xxxx00000xx %
1'
1#
1/
#2730000
b100010001 4
0'
0#
0/
#2735000
bx1x0x0x0000xx0x0xx0x0xxx000x000x %
1'
1#
1/
#2740000
b100010010 4
0'
0#
0/
#2745000
bx1x0x0x0000xx0x0xx0x0xxx000xx001 %
1'
1#
1/
#2750000
b100010011 4
0'
0#
0/
#2755000
bx1x0x0x0000xx0x0xx0x0xxxx00xx001 %
1'
1#
1/
#2760000
b100010100 4
0'
0#
0/
#2765000
bx1x0x0x0000xx0x0xx0x0xxx0000x001 %
1'
1#
1/
#2770000
b100010101 4
0'
0#
0/
#2775000
bx1x0x0x0000xx0x0xx0x0xxxx000000x %
1'
1#
1/
#2780000
b100010110 4
0'
0#
0/
#2785000
bx1x0x0x0000xx0x0xx0x0xxxx00x000x %
1'
1#
1/
#2790000
b100010111 4
0'
0#
0/
#2795000
bx1x0x0x0000xx0x0xx0x0xxxx000x00x %
1'
1#
1/
#2800000
b100011000 4
0'
0#
0/
#2805000
bx1x0x0x0000xx0x0xx0x0xxxx00x0001 %
1'
1#
1/
#2810000
b100011001 4
0'
0#
0/
#2815000
bx1x0x0x0000xx0x0xx0x0xxxx00xx001 %
1'
1#
1/
#2820000
b100011010 4
0'
0#
0/
#2825000
bx1x0x0x0000xx0x0xx0x0xxxx00xx00x %
1'
1#
1/
#2830000
b100011011 4
0'
0#
0/
#2835000
bx1x0x0x0000xx0x0xx0x0xxxx00xx001 %
1'
1#
1/
#2840000
b100011100 4
0'
0#
0/
#2845000
bx1x0x0x0000xx0x0xx0x0xxxx00xx00x %
1'
1#
1/
#2850000
b100011101 4
0'
0#
0/
#2855000
1'
1#
1/
#2860000
b100011110 4
0'
0#
0/
#2865000
1'
1#
1/
#2870000
b100011111 4
0'
0#
0/
#2875000
1'
1#
1/
#2880000
b100100000 4
0'
0#
0/
#2885000
1'
1#
1/
#2890000
b100100001 4
0'
0#
0/
#2895000
1'
1#
1/
#2900000
b100100010 4
0'
0#
0/
#2905000
1'
1#
1/
#2910000
b100100011 4
0'
0#
0/
#2915000
1'
1#
1/
#2920000
b100100100 4
0'
0#
0/
#2925000
1'
1#
1/
#2930000
b100100101 4
0'
0#
0/
#2935000
1'
1#
1/
#2940000
b100100110 4
0'
0#
0/
#2945000
1'
1#
1/
#2950000
b100100111 4
0'
0#
0/
#2955000
1'
1#
1/
#2960000
b100101000 4
0'
0#
0/
#2965000
1'
1#
1/
#2970000
b100101001 4
0'
0#
0/
#2975000
1'
1#
1/
#2980000
b100101010 4
0'
0#
0/
#2985000
1'
1#
1/
#2990000
b100101011 4
0'
0#
0/
#2995000
1'
1#
1/
#3000000
b100101100 4
0'
0#
0/
#3005000
1'
1#
1/
#3010000
b100101101 4
0'
0#
0/
#3015000
1'
1#
1/
#3020000
b100101110 4
0'
0#
0/
#3025000
1'
1#
1/
#3030000
b100101111 4
0'
0#
0/
#3035000
1'
1#
1/
#3040000
b100110000 4
0'
0#
0/
#3045000
1'
1#
1/
#3050000
b100110001 4
0'
0#
0/
#3055000
1'
1#
1/
#3060000
b100110010 4
0'
0#
0/
#3065000
1'
1#
1/
#3070000
b100110011 4
0'
0#
0/
#3075000
1'
1#
1/
#3080000
b100110100 4
0'
0#
0/
#3085000
1'
1#
1/
#3090000
b100110101 4
0'
0#
0/
#3095000
1'
1#
1/
#3100000
b100110110 4
0'
0#
0/
#3105000
1'
1#
1/
#3110000
b100110111 4
0'
0#
0/
#3115000
1'
1#
1/
#3120000
b100111000 4
0'
0#
0/
#3125000
1'
1#
1/
#3130000
b100111001 4
0'
0#
0/
#3135000
1'
1#
1/
#3140000
b100111010 4
0'
0#
0/
#3145000
1'
1#
1/
#3150000
b100111011 4
0'
0#
0/
#3155000
1'
1#
1/
#3160000
b100111100 4
0'
0#
0/
#3165000
1'
1#
1/
#3170000
b100111101 4
0'
0#
0/
#3175000
1'
1#
1/
#3180000
b100111110 4
0'
0#
0/
#3185000
1'
1#
1/
#3190000
b100111111 4
0'
0#
0/
#3195000
1'
1#
1/
#3200000
b101000000 4
0'
0#
0/
#3205000
0+
bx0x0x0x0000xx0x0xx0x0xxxx00xx00x %
1'
1#
1/
#3210000
b101000001 4
0'
0#
0/
#3215000
1+
bx1x0x0x0000xx0x0xx0x0xxxx00xx00x %
1'
1#
1/
#3220000
b101000010 4
0'
0#
0/
#3225000
1'
1#
1/
#3230000
b101000011 4
0'
0#
0/
#3235000
1'
1#
1/
#3240000
b101000100 4
0'
0#
0/
#3245000
1'
1#
1/
#3250000
b101000101 4
0'
0#
0/
#3255000
bx100x0x0000xx0x0xx0x0xxxx00xx00x %
1'
1#
1/
#3260000
b101000110 4
0'
0#
0/
#3265000
1+
bx1xxx0x0000xx0x0xx0x0xxxx00xx00x %
1'
1#
1/
#3270000
b101000111 4
0'
0#
0/
#3275000
bx1x0x0x0000xx0x0xx0x0xxxx00xx00x %
1'
1#
1/
#3280000
b101001000 4
0'
0#
0/
#3285000
1'
1#
1/
#3290000
b101001001 4
0'
0#
0/
#3295000
1'
1#
1/
#3300000
b101001010 4
0'
0#
0/
#3305000
bx100x0x0000xx0x0xx0x0xxxx00xx00x %
1'
1#
1/
#3310000
b101001011 4
0'
0#
0/
#3315000
bx1x0xxx0000xx0x0xx0x0xxxx00xx00x %
1'
1#
1/
#3320000
b101001100 4
0'
0#
0/
