OpenFPGA/Fabric/synthesizable_verilog/run001/k6_frac_N10_tileable_40nm/and2/MIN_ROUTE_CHAN_WIDTH/and2_formal.vcd
$date
	Wed Jul  2 18:47:26 2025
$end
$version
	Icarus Verilog
$end
$timescale
	1ps
$end
$scope module and2_autocheck_top_tb $end
$var wire 1 ! __config_all_done__ $end
$var wire 1 " __op_clock__ $end
$var wire 1 # __prog_clock__ $end
$var wire 1 $ clk $end
$var wire 64 % gfpga_pad_GPIO_PAD [0:63] $end
$var wire 1 & pReset $end
$var wire 1 ' prog_clk $end
$var wire 1 ( reset $end
$var wire 1 ) set $end
$var wire 1 * ccff_tail $end
$var wire 1 + c_fpga $end
$var wire 1 , c_benchmark $end
$var reg 1 - __config_done__ $end
$var reg 1 ( __greset__ $end
$var reg 1 ) __gset__ $end
$var reg 1 . __op_clock___reg__ $end
$var reg 1 / __prog_clock___reg__ $end
$var reg 1 0 __prog_reset__ $end
$var reg 1 1 __prog_set_ $end
$var reg 1 2 a_shared_input $end
$var reg 1 3 b_shared_input $end
$var reg 14 4 bit_index [13:0] $end
$var reg 1 5 c_flag $end
$var reg 1 6 ccff_head $end
$var reg 14 7 ibit [13:0] $end
$var reg 1 8 sim_start $end
$var reg 1 9 skip_bits $end
$var integer 32 : nb_error [31:0] $end
$upscope $end
$enddefinitions $end
#0
$dumpvars
b1 :
09
18
b1010011000110 7
06
05
b0 4
03
02
11
10
0/
0.
0-
0,
x+
x*
0)
1(
0'
1&
bx %
0$
0#
0"
0!
$end
#500
1/
#1000
b1 4
0/
01
0&
00
#1500
1'
1#
1/
#2000
b10 4
0'
0#
0/
#2500
1'
1#
1/
#3000
b11 4
0'
0#
0/
#3500
1'
1#
1/
#4000
b100 4
0'
0#
0/
#4500
1'
1#
1/
#5000
b101 4
0'
0#
0/
#5500
1'
1#
1/
#6000
b110 4
0'
0#
0/
#6500
1'
1#
1/
#7000
b111 4
0'
0#
0/
#7500
1'
1#
1/
#8000
b1000 4
0'
0#
0/
#8500
1'
1#
1/
#9000
b1001 4
0'
0#
0/
#9500
1'
1#
1/
#10000
b1010 4
0'
0#
0/
#10500
1'
1#
1/
#11000
b1011 4
0'
0#
0/
#11500
1'
1#
1/
#12000
b1100 4
0'
0#
0/
#12500
1'
1#
1/
#13000
b1101 4
0'
0#
0/
#13500
1'
1#
1/
#14000
b1110 4
0'
0#
0/
#14500
1'
1#
1/
#15000
b1111 4
0'
0#
0/
#15500
1'
1#
1/
#16000
b10000 4
0'
0#
0/
#16500
1'
1#
1/
#17000
b10001 4
0'
0#
0/
#17500
1'
1#
1/
#18000
b10010 4
0'
0#
0/
#18500
1'
1#
1/
#19000
b10011 4
0'
0#
0/
#19500
1'
1#
1/
#20000
b10100 4
0'
0#
0/
#20500
1'
1#
1/
#21000
b10101 4
0'
0#
0/
#21500
1'
1#
1/
#22000
b10110 4
0'
0#
0/
#22500
1'
1#
1/
#23000
b10111 4
0'
0#
0/
#23500
1'
1#
1/
#24000
b11000 4
0'
0#
0/
#24500
1'
1#
1/
#25000
b11001 4
0'
0#
0/
#25500
1'
1#
1/
#26000
b11010 4
0'
0#
0/
#26500
1'
1#
1/
#27000
b11011 4
0'
0#
0/
#27500
1'
1#
1/
#28000
b11100 4
0'
0#
0/
#28500
1'
1#
1/
#29000
b11101 4
0'
0#
0/
#29500
1'
1#
1/
#30000
b11110 4
0'
0#
0/
#30500
1'
1#
1/
#31000
b11111 4
0'
0#
0/
#31500
1'
1#
1/
#32000
b100000 4
0'
0#
0/
#32500
1'
1#
1/
#33000
b100001 4
0'
0#
0/
#33500
1'
1#
1/
#34000
b100010 4
0'
0#
0/
#34500
1'
1#
1/
#35000
b100011 4
0'
0#
0/
#35500
1'
1#
1/
#36000
b100100 4
0'
0#
0/
#36500
1'
1#
1/
#37000
b100101 4
0'
0#
0/
#37500
1'
1#
1/
#38000
b100110 4
0'
0#
0/
#38500
1'
1#
1/
#39000
b100111 4
0'
0#
0/
#39500
1'
1#
1/
#40000
b101000 4
0'
0#
0/
#40500
1'
1#
1/
#41000
b101001 4
0'
0#
0/
#41500
1'
1#
1/
#42000
b101010 4
0'
0#
0/
#42500
1'
1#
1/
#43000
b101011 4
0'
0#
0/
#43500
1'
1#
1/
#44000
b101100 4
0'
0#
0/
#44500
1'
1#
1/
#45000
b101101 4
0'
0#
0/
#45500
1'
1#
1/
#46000
b101110 4
0'
0#
0/
#46500
1'
1#
1/
#47000
b101111 4
0'
0#
0/
#47500
1'
1#
1/
#48000
b110000 4
0'
0#
0/
#48500
1'
1#
1/
#49000
b110001 4
0'
0#
0/
#49500
1'
1#
1/
#50000
b110010 4
0'
0#
0/
#50500
1'
1#
1/
#51000
b110011 4
0'
0#
0/
#51500
1'
1#
1/
#52000
b110100 4
0'
0#
0/
#52500
1'
1#
1/
#53000
b110101 4
0'
0#
0/
#53500
1'
1#
1/
#54000
b110110 4
0'
0#
0/
#54500
1'
1#
1/
#55000
b110111 4
0'
0#
0/
#55500
1'
1#
1/
#56000
b111000 4
0'
0#
0/
#56500
1'
1#
1/
#57000
b111001 4
0'
0#
0/
#57500
1'
1#
1/
#58000
b111010 4
0'
0#
0/
#58500
1'
1#
1/
#59000
b111011 4
0'
0#
0/
#59500
1'
1#
1/
#60000
b111100 4
0'
0#
0/
#60500
1'
1#
1/
#61000
b111101 4
0'
0#
0/
#61500
1'
1#
1/
#62000
b111110 4
0'
0#
0/
#62500
1'
1#
1/
#63000
b111111 4
0'
0#
0/
#63500
1'
1#
1/
#64000
b1000000 4
0'
0#
0/
#64500
1'
1#
1/
#65000
b1000001 4
0'
0#
0/
#65500
1'
1#
1/
#66000
b1000010 4
0'
0#
0/
#66500
1'
1#
1/
#67000
b1000011 4
0'
0#
0/
#67500
1'
1#
1/
#68000
b1000100 4
0'
0#
0/
#68500
1'
1#
1/
#69000
b1000101 4
0'
0#
0/
#69500
1'
1#
1/
#70000
b1000110 4
0'
0#
0/
#70500
1'
1#
1/
#71000
b1000111 4
0'
0#
0/
#71500
1'
1#
1/
#72000
b1001000 4
0'
0#
0/
#72500
1'
1#
1/
#73000
b1001001 4
0'
0#
0/
#73500
1'
1#
1/
#74000
b1001010 4
0'
0#
0/
#74500
1'
1#
1/
#75000
b1001011 4
0'
0#
0/
#75500
1'
1#
1/
#76000
b1001100 4
0'
0#
0/
#76500
1'
1#
1/
#77000
b1001101 4
0'
0#
0/
#77500
1'
1#
1/
#78000
b1001110 4
0'
0#
0/
#78500
1'
1#
1/
#79000
b1001111 4
0'
0#
0/
#79500
1'
1#
1/
#80000
b1010000 4
0'
0#
0/
#80500
1'
1#
1/
#81000
b1010001 4
0'
0#
0/
#81500
1'
1#
1/
#82000
b1010010 4
0'
0#
0/
#82500
1'
1#
1/
#83000
b1010011 4
0'
0#
0/
#83500
1'
1#
1/
#84000
b1010100 4
0'
0#
0/
#84500
1'
1#
1/
#85000
b1010101 4
0'
0#
0/
#85500
1'
1#
1/
#86000
b1010110 4
0'
0#
0/
#86500
1'
1#
1/
#87000
b1010111 4
0'
0#
0/
#87500
1'
1#
1/
#88000
b1011000 4
0'
0#
0/
#88500
1'
1#
1/
#89000
b1011001 4
0'
0#
0/
#89500
1'
1#
1/
#90000
b1011010 4
0'
0#
0/
#90500
1'
1#
1/
#91000
b1011011 4
0'
0#
0/
#91500
1'
1#
1/
#92000
b1011100 4
0'
0#
0/
#92500
1'
1#
1/
#93000
b1011101 4
0'
0#
0/
#93500
1'
1#
1/
#94000
b1011110 4
0'
0#
0/
#94500
1'
1#
1/
#95000
b1011111 4
0'
0#
0/
#95500
1'
1#
1/
#96000
b1100000 4
0'
0#
0/
#96500
1'
1#
1/
#97000
b1100001 4
0'
0#
0/
#97500
1'
1#
1/
#98000
b1100010 4
0'
0#
0/
#98500
1'
1#
1/
#99000
b1100011 4
0'
0#
0/
#99500
1'
1#
1/
#100000
b1100100 4
0'
0#
0/
#100500
1'
1#
1/
#101000
b1100101 4
0'
0#
0/
#101500
1'
1#
1/
#102000
b1100110 4
0'
0#
0/
#102500
1'
1#
1/
#103000
b1100111 4
0'
0#
0/
#103500
1'
1#
1/
#104000
b1101000 4
0'
0#
0/
#104500
1'
1#
1/
#105000
b1101001 4
0'
0#
0/
#105500
1'
1#
1/
#106000
b1101010 4
0'
0#
0/
#106500
1'
1#
1/
#107000
b1101011 4
0'
0#
0/
#107500
1'
1#
1/
#108000
b1101100 4
0'
0#
0/
#108500
1'
1#
1/
#109000
b1101101 4
0'
0#
0/
#109500
1'
1#
1/
#110000
b1101110 4
0'
0#
0/
#110500
1'
1#
1/
#111000
b1101111 4
0'
0#
0/
#111500
1'
1#
1/
#112000
b1110000 4
0'
0#
0/
#112500
1'
1#
1/
#113000
b1110001 4
0'
0#
0/
#113500
1'
1#
1/
#114000
b1110010 4
0'
0#
0/
#114500
1'
1#
1/
#115000
b1110011 4
0'
0#
0/
#115500
1'
1#
1/
#116000
b1110100 4
0'
0#
0/
#116500
1'
1#
1/
#117000
b1110101 4
0'
0#
0/
#117500
1'
1#
1/
#118000
b1110110 4
0'
0#
0/
#118500
1'
1#
1/
#119000
b1110111 4
0'
0#
0/
#119500
1'
1#
1/
#120000
b1111000 4
0'
0#
0/
#120500
1'
1#
1/
#121000
b1111001 4
0'
0#
0/
#121500
1'
1#
1/
#122000
b1111010 4
0'
0#
0/
#122500
1'
1#
1/
#123000
b1111011 4
0'
0#
0/
#123500
1'
1#
1/
#124000
b1111100 4
0'
0#
0/
#124500
1'
1#
1/
#125000
b1111101 4
0'
0#
0/
#125500
1'
1#
1/
#126000
b1111110 4
0'
0#
0/
#126500
1'
1#
1/
#127000
b1111111 4
0'
0#
0/
#127500
1'
1#
1/
#128000
b10000000 4
0'
0#
0/
#128500
1'
1#
1/
#129000
b10000001 4
0'
0#
0/
#129500
1'
1#
1/
#130000
b10000010 4
0'
0#
0/
#130500
1'
1#
1/
#131000
b10000011 4
0'
0#
0/
#131500
1'
1#
1/
#132000
b10000100 4
0'
0#
0/
#132500
1'
1#
1/
#133000
b10000101 4
0'
0#
0/
#133500
1'
1#
1/
#134000
b10000110 4
0'
0#
0/
#134500
1'
1#
1/
#135000
b10000111 4
0'
0#
0/
#135500
1'
1#
1/
#136000
b10001000 4
0'
0#
0/
#136500
1'
1#
1/
#137000
b10001001 4
0'
0#
0/
#137500
1'
1#
1/
#138000
b10001010 4
0'
0#
0/
#138500
1'
1#
1/
#139000
b10001011 4
0'
0#
0/
#139500
1'
1#
1/
#140000
b10001100 4
0'
0#
0/
#140500
1'
1#
1/
#141000
b10001101 4
0'
0#
0/
#141500
1'
1#
1/
#142000
b10001110 4
0'
0#
0/
#142500
1'
1#
1/
#143000
b10001111 4
0'
0#
0/
#143500
1'
1#
1/
#144000
b10010000 4
0'
0#
0/
#144500
1'
1#
1/
#145000
b10010001 4
0'
0#
0/
#145500
1'
1#
1/
#146000
b10010010 4
0'
0#
0/
#146500
1'
1#
1/
#147000
b10010011 4
0'
0#
0/
#147500
1'
1#
1/
#148000
b10010100 4
0'
0#
0/
#148500
1'
1#
1/
#149000
b10010101 4
0'
0#
0/
#149500
1'
1#
1/
#150000
b10010110 4
0'
0#
0/
#150500
1'
1#
1/
#151000
b10010111 4
0'
0#
0/
#151500
1'
1#
1/
#152000
b10011000 4
0'
0#
0/
#152500
1'
1#
1/
#153000
b10011001 4
0'
0#
0/
#153500
1'
1#
1/
#154000
b10011010 4
0'
0#
0/
#154500
1'
1#
1/
#155000
b10011011 4
0'
0#
0/
#155500
1'
1#
1/
#156000
b10011100 4
0'
0#
0/
#156500
1'
1#
1/
#157000
b10011101 4
0'
0#
0/
#157500
1'
1#
1/
#158000
b10011110 4
0'
0#
0/
#158500
1'
1#
1/
#159000
b10011111 4
0'
0#
0/
#159500
1'
1#
1/
#160000
b10100000 4
0'
0#
0/
#160500
1'
1#
1/
#161000
b10100001 4
0'
0#
0/
#161500
1'
1#
1/
#162000
b10100010 4
0'
0#
0/
#162500
1'
1#
1/
#163000
b10100011 4
0'
0#
0/
#163500
1'
1#
1/
#164000
b10100100 4
0'
0#
0/
#164500
1'
1#
1/
#165000
b10100101 4
0'
0#
0/
#165500
1'
1#
1/
#166000
b10100110 4
0'
0#
0/
#166500
1'
1#
1/
#167000
b10100111 4
0'
0#
0/
#167500
1'
1#
1/
#168000
b10101000 4
0'
0#
0/
#168500
1'
1#
1/
#169000
b10101001 4
0'
0#
0/
#169500
1'
1#
1/
#170000
b10101010 4
0'
0#
0/
#170500
1'
1#
1/
#171000
b10101011 4
0'
0#
0/
#171500
1'
1#
1/
#172000
b10101100 4
0'
0#
0/
#172500
1'
1#
1/
#173000
b10101101 4
0'
0#
0/
#173500
1'
1#
1/
#174000
b10101110 4
0'
0#
0/
#174500
1'
1#
1/
#175000
b10101111 4
0'
0#
0/
#175500
1'
1#
1/
#176000
b10110000 4
0'
0#
0/
#176500
1'
1#
1/
#177000
b10110001 4
0'
0#
0/
#177500
1'
1#
1/
#178000
b10110010 4
0'
0#
0/
#178500
1'
1#
1/
#179000
b10110011 4
0'
0#
0/
#179500
1'
1#
1/
#180000
b10110100 4
0'
0#
0/
#180500
1'
1#
1/
#181000
b10110101 4
0'
0#
0/
#181500
1'
1#
1/
#182000
b10110110 4
0'
0#
0/
#182500
1'
1#
1/
#183000
b10110111 4
0'
0#
0/
#183500
1'
1#
1/
#184000
b10111000 4
0'
0#
0/
#184500
1'
1#
1/
#185000
b10111001 4
0'
0#
0/
#185500
1'
1#
1/
#186000
b10111010 4
0'
0#
0/
#186500
1'
1#
1/
#187000
b10111011 4
0'
0#
0/
#187500
1'
1#
1/
#188000
b10111100 4
0'
0#
0/
#188500
1'
1#
1/
#189000
b10111101 4
0'
0#
0/
#189500
1'
1#
1/
#190000
b10111110 4
0'
0#
0/
#190500
1'
1#
1/
#191000
b10111111 4
0'
0#
0/
#191500
1'
1#
1/
#192000
b11000000 4
0'
0#
0/
#192500
1'
1#
1/
#193000
b11000001 4
0'
0#
0/
#193500
1'
1#
1/
#194000
b11000010 4
0'
0#
0/
#194500
1'
1#
1/
#195000
b11000011 4
0'
0#
0/
#195500
1'
1#
1/
#196000
b11000100 4
0'
0#
0/
#196500
1'
1#
1/
#197000
b11000101 4
0'
0#
0/
#197500
1'
1#
1/
#198000
b11000110 4
0'
0#
0/
#198500
1'
1#
1/
#199000
b11000111 4
0'
0#
0/
#199500
1'
1#
1/
#200000
b11001000 4
0'
0#
0/
#200500
1'
1#
1/
#201000
b11001001 4
0'
0#
0/
#201500
1'
1#
1/
#202000
b11001010 4
0'
0#
0/
#202500
1'
1#
1/
#203000
b11001011 4
0'
0#
0/
#203500
1'
1#
1/
#204000
b11001100 4
0'
0#
0/
#204500
1'
1#
1/
#205000
b11001101 4
0'
0#
0/
#205500
1'
1#
1/
#206000
b11001110 4
0'
0#
0/
#206500
1'
1#
1/
#207000
b11001111 4
0'
0#
0/
#207500
1'
1#
1/
#208000
b11010000 4
0'
0#
0/
#208500
1'
1#
1/
#209000
b11010001 4
0'
0#
0/
#209500
1'
1#
1/
#210000
b11010010 4
0'
0#
0/
#210500
1'
1#
1/
#211000
b11010011 4
0'
0#
0/
#211500
1'
1#
1/
#212000
b11010100 4
0'
0#
0/
#212500
1'
1#
1/
#213000
b11010101 4
0'
0#
0/
#213500
1'
1#
1/
#214000
b11010110 4
0'
0#
0/
#214500
1'
1#
1/
#215000
b11010111 4
0'
0#
0/
#215500
1'
1#
1/
#216000
b11011000 4
0'
0#
0/
#216500
1'
1#
1/
#217000
b11011001 4
0'
0#
0/
#217500
1'
1#
1/
#218000
b11011010 4
0'
0#
0/
#218500
1'
1#
1/
#219000
b11011011 4
0'
0#
0/
#219500
1'
1#
1/
#220000
b11011100 4
0'
0#
0/
#220500
1'
1#
1/
#221000
b11011101 4
0'
0#
0/
#221500
1'
1#
1/
#222000
b11011110 4
0'
0#
0/
#222500
1'
1#
1/
#223000
b11011111 4
0'
0#
0/
#223500
1'
1#
1/
#224000
b11100000 4
0'
0#
0/
#224500
1'
1#
1/
#225000
b11100001 4
0'
0#
0/
#225500
1'
1#
1/
#226000
b11100010 4
0'
0#
0/
#226500
1'
1#
1/
#227000
b11100011 4
0'
0#
0/
#227500
1'
1#
1/
#228000
b11100100 4
0'
0#
0/
#228500
1'
1#
1/
#229000
b11100101 4
0'
0#
0/
#229500
1'
1#
1/
#230000
b11100110 4
0'
0#
0/
#230500
1'
1#
1/
#231000
b11100111 4
0'
0#
0/
#231500
1'
1#
1/
#232000
b11101000 4
0'
0#
0/
#232500
1'
1#
1/
#233000
b11101001 4
0'
0#
0/
#233500
1'
1#
1/
#234000
b11101010 4
0'
0#
0/
#234500
1'
1#
1/
#235000
b11101011 4
0'
0#
0/
#235500
1'
1#
1/
#236000
b11101100 4
0'
0#
0/
#236500
1'
1#
1/
#237000
b11101101 4
0'
0#
0/
#237500
1'
1#
1/
#238000
b11101110 4
0'
0#
0/
#238500
1'
1#
1/
#239000
b11101111 4
0'
0#
0/
#239500
1'
1#
1/
#240000
b11110000 4
0'
0#
0/
#240500
1'
1#
1/
#241000
b11110001 4
0'
0#
0/
#241500
1'
1#
1/
#242000
b11110010 4
0'
0#
0/
#242500
1'
1#
1/
#243000
b11110011 4
0'
0#
0/
#243500
1'
1#
1/
#244000
b11110100 4
0'
0#
0/
#244500
1'
1#
1/
#245000
b11110101 4
0'
0#
0/
#245500
1'
1#
1/
#246000
b11110110 4
0'
0#
0/
#246500
1'
1#
1/
#247000
b11110111 4
0'
0#
0/
#247500
1'
1#
1/
#248000
b11111000 4
0'
0#
0/
#248500
1'
1#
1/
#249000
b11111001 4
0'
0#
0/
#249500
1'
1#
1/
#250000
b11111010 4
0'
0#
0/
#250500
1'
1#
1/
#251000
b11111011 4
0'
0#
0/
#251500
1'
1#
1/
#252000
b11111100 4
0'
0#
0/
#252500
1'
1#
1/
#253000
b11111101 4
0'
0#
0/
#253500
1'
1#
1/
#254000
b11111110 4
0'
0#
0/
#254500
1'
1#
1/
#255000
b11111111 4
0'
0#
0/
#255500
1'
1#
1/
#256000
b100000000 4
0'
0#
0/
#256500
1'
1#
1/
#257000
b100000001 4
0'
0#
0/
#257500
1'
1#
1/
#258000
b100000010 4
0'
0#
0/
#258500
1'
1#
1/
#259000
b100000011 4
0'
0#
0/
#259500
1'
1#
1/
#260000
b100000100 4
0'
0#
0/
#260500
1'
1#
1/
#261000
b100000101 4
0'
0#
0/
#261500
1'
1#
1/
#262000
b100000110 4
0'
0#
0/
#262500
1'
1#
1/
#263000
b100000111 4
0'
0#
0/
#263500
1'
1#
1/
#264000
b100001000 4
0'
0#
0/
#264500
1'
1#
1/
#265000
b100001001 4
0'
0#
0/
#265500
1'
1#
1/
#266000
b100001010 4
0'
0#
0/
#266500
1'
1#
1/
#267000
b100001011 4
0'
0#
0/
#267500
1'
1#
1/
#268000
b100001100 4
0'
0#
0/
#268500
1'
1#
1/
#269000
b100001101 4
0'
0#
0/
#269500
1'
1#
1/
#270000
b100001110 4
0'
0#
0/
#270500
1'
1#
1/
#271000
b100001111 4
0'
0#
0/
#271500
1'
1#
1/
#272000
b100010000 4
0'
0#
0/
#272500
1'
1#
1/
#273000
b100010001 4
0'
0#
0/
#273500
1'
1#
1/
#274000
b100010010 4
0'
0#
0/
#274500
1'
1#
1/
#275000
b100010011 4
0'
0#
0/
#275500
1'
1#
1/
#276000
b100010100 4
0'
0#
0/
#276500
1'
1#
1/
#277000
b100010101 4
0'
0#
0/
#277500
1'
1#
1/
#278000
b100010110 4
0'
0#
0/
#278500
1'
1#
1/
#279000
b100010111 4
0'
0#
0/
#279500
1'
1#
1/
#280000
b100011000 4
0'
0#
0/
#280500
1'
1#
1/
#281000
b100011001 4
0'
0#
0/
#281500
1'
1#
1/
#282000
b100011010 4
0'
0#
0/
#282500
1'
1#
1/
#283000
b100011011 4
0'
0#
0/
#283500
1'
1#
1/
#284000
b100011100 4
0'
0#
0/
#284500
1'
1#
1/
#285000
b100011101 4
0'
0#
0/
#285500
1'
1#
1/
#286000
b100011110 4
0'
0#
0/
#286500
1'
1#
1/
#287000
b100011111 4
0'
0#
0/
#287500
1'
1#
1/
#288000
b100100000 4
0'
0#
0/
#288500
1'
1#
1/
#289000
b100100001 4
0'
0#
0/
#289500
1'
1#
1/
#290000
b100100010 4
0'
0#
0/
#290500
1'
1#
1/
#291000
b100100011 4
0'
0#
0/
#291500
1'
1#
1/
#292000
b100100100 4
0'
0#
0/
#292500
1'
1#
1/
#293000
b100100101 4
0'
0#
0/
#293500
1'
1#
1/
#294000
b100100110 4
0'
0#
0/
#294500
1'
1#
1/
#295000
b100100111 4
0'
0#
0/
#295500
1'
1#
1/
#296000
b100101000 4
0'
0#
0/
#296500
1'
1#
1/
#297000
b100101001 4
0'
0#
0/
#297500
1'
1#
1/
#298000
b100101010 4
0'
0#
0/
#298500
1'
1#
1/
#299000
b100101011 4
0'
0#
0/
#299500
1'
1#
1/
#300000
b100101100 4
0'
0#
0/
#300500
1'
1#
1/
#301000
b100101101 4
0'
0#
0/
#301500
1'
1#
1/
#302000
b100101110 4
0'
0#
0/
#302500
1'
1#
1/
#303000
b100101111 4
0'
0#
0/
#303500
1'
1#
1/
#304000
b100110000 4
0'
0#
0/
#304500
1'
1#
1/
#305000
b100110001 4
0'
0#
0/
#305500
1'
1#
1/
#306000
b100110010 4
0'
0#
0/
#306500
1'
1#
1/
#307000
b100110011 4
0'
0#
0/
#307500
1'
1#
1/
#308000
b100110100 4
0'
0#
0/
#308500
1'
1#
1/
#309000
b100110101 4
0'
0#
0/
#309500
1'
1#
1/
#310000
b100110110 4
0'
0#
0/
#310500
1'
1#
1/
#311000
b100110111 4
0'
0#
0/
#311500
1'
1#
1/
#312000
b100111000 4
0'
0#
0/
#312500
1'
1#
1/
#313000
b100111001 4
0'
0#
0/
#313500
1'
1#
1/
#314000
b100111010 4
0'
0#
0/
#314500
1'
1#
1/
#315000
b100111011 4
0'
0#
0/
#315500
1'
1#
1/
#316000
b100111100 4
0'
0#
0/
#316500
1'
1#
1/
#317000
b100111101 4
0'
0#
0/
#317500
1'
1#
1/
#318000
b100111110 4
0'
0#
0/
#318500
1'
1#
1/
#319000
b100111111 4
0'
0#
0/
#319500
1'
1#
1/
#320000
b101000000 4
0'
0#
0/
#320500
1'
1#
1/
#321000
b101000001 4
0'
0#
0/
#321500
1'
1#
1/
#322000
b101000010 4
0'
0#
0/
#322500
1'
1#
1/
#323000
b101000011 4
0'
0#
0/
#323500
1'
1#
1/
#324000
b101000100 4
0'
0#
0/
#324500
1'
1#
1/
#325000
b101000101 4
0'
0#
0/
#325500
1'
1#
1/
#326000
b101000110 4
0'
0#
0/
#326500
1'
1#
1/
#327000
b101000111 4
0'
0#
0/
#327500
1'
1#
1/
#328000
b101001000 4
0'
0#
0/
#328500
1'
1#
1/
#329000
b101001001 4
0'
0#
0/
#329500
1'
1#
1/
#330000
b101001010 4
0'
0#
0/
#330500
1'
1#
1/
#331000
b101001011 4
0'
0#
0/
#331500
1'
1#
1/
#332000
b101001100 4
0'
0#
0/
#332500
1'
1#
1/
#333000
b101001101 4
0'
0#
0/
#333500
1'
1#
1/
#334000
b101001110 4
0'
0#
0/
#334500
1'
1#
1/
#335000
b101001111 4
0'
0#
0/
#335500
1'
1#
1/
#336000
b101010000 4
0'
0#
0/
#336500
1'
1#
1/
#337000
b101010001 4
0'
0#
0/
#337500
1'
1#
1/
#338000
b101010010 4
0'
0#
0/
#338500
1'
1#
1/
#339000
b101010011 4
0'
0#
0/
#339500
1'
1#
1/
#340000
b101010100 4
0'
0#
0/
#340500
1'
1#
1/
#341000
b101010101 4
0'
0#
0/
#341500
1'
1#
1/
#342000
b101010110 4
0'
0#
0/
#342500
1'
1#
1/
#343000
b101010111 4
0'
0#
0/
#343500
1'
1#
1/
#344000
b101011000 4
0'
0#
0/
#344500
1'
1#
1/
#345000
b101011001 4
0'
0#
0/
#345500
1'
1#
1/
#346000
b101011010 4
0'
0#
0/
#346500
1'
1#
1/
#347000
b101011011 4
0'
0#
0/
#347500
1'
1#
1/
#348000
b101011100 4
0'
0#
0/
#348500
1'
1#
1/
#349000
b101011101 4
0'
0#
0/
#349500
1'
1#
1/
#350000
b101011110 4
0'
0#
0/
#350500
1'
1#
1/
#351000
b101011111 4
0'
0#
0/
#351500
1'
1#
1/
#352000
b101100000 4
0'
0#
0/
#352500
1'
1#
1/
#353000
b101100001 4
0'
0#
0/
#353500
1'
1#
1/
#354000
b101100010 4
0'
0#
0/
#354500
1'
1#
1/
#355000
b101100011 4
0'
0#
0/
#355500
1'
1#
1/
#356000
b101100100 4
0'
0#
0/
#356500
1'
1#
1/
#357000
b101100101 4
0'
0#
0/
#357500
1'
1#
1/
#358000
b101100110 4
0'
0#
0/
#358500
1'
1#
1/
#359000
b101100111 4
0'
0#
0/
#359500
1'
1#
1/
#360000
b101101000 4
0'
0#
0/
#360500
1'
1#
1/
#361000
b101101001 4
0'
0#
0/
#361500
1'
1#
1/
#362000
b101101010 4
0'
0#
0/
#362500
1'
1#
1/
#363000
b101101011 4
0'
0#
0/
#363500
1'
1#
1/
#364000
b101101100 4
0'
0#
0/
#364500
1'
1#
1/
#365000
b101101101 4
0'
0#
0/
#365500
1'
1#
1/
#366000
b101101110 4
0'
0#
0/
#366500
1'
1#
1/
#367000
b101101111 4
0'
0#
0/
#367500
1'
1#
1/
#368000
b101110000 4
0'
0#
0/
#368500
1'
1#
1/
#369000
b101110001 4
0'
0#
0/
#369500
1'
1#
1/
#370000
b101110010 4
0'
0#
0/
#370500
1'
1#
1/
#371000
b101110011 4
0'
0#
0/
#371500
1'
1#
1/
#372000
b101110100 4
0'
0#
0/
#372500
1'
1#
1/
#373000
b101110101 4
0'
0#
0/
#373500
1'
1#
1/
#374000
b101110110 4
0'
0#
0/
#374500
1'
1#
1/
#375000
b101110111 4
0'
0#
0/
#375500
1'
1#
1/
#376000
b101111000 4
0'
0#
0/
#376500
1'
1#
1/
#377000
b101111001 4
0'
0#
0/
#377500
1'
1#
1/
#378000
b101111010 4
0'
0#
0/
#378500
1'
1#
1/
#379000
b101111011 4
0'
0#
0/
#379500
1'
1#
1/
#380000
b101111100 4
0'
0#
0/
#380500
1'
1#
1/
#381000
b101111101 4
0'
0#
0/
#381500
1'
1#
1/
#382000
b101111110 4
0'
0#
0/
#382500
1'
1#
1/
#383000
b101111111 4
0'
0#
0/
#383500
1'
1#
1/
#384000
b110000000 4
0'
0#
0/
#384500
1'
1#
1/
#385000
b110000001 4
0'
0#
0/
#385500
1'
1#
1/
#386000
b110000010 4
0'
0#
0/
#386500
1'
1#
1/
#387000
b110000011 4
0'
0#
0/
#387500
1'
1#
1/
#388000
b110000100 4
0'
0#
0/
#388500
1'
1#
1/
#389000
b110000101 4
0'
0#
0/
#389500
1'
1#
1/
#390000
b110000110 4
0'
0#
0/
#390500
1'
1#
1/
#391000
b110000111 4
0'
0#
0/
#391500
1'
1#
1/
#392000
b110001000 4
0'
0#
0/
#392500
1'
1#
1/
#393000
b110001001 4
0'
0#
0/
#393500
1'
1#
1/
#394000
b110001010 4
0'
0#
0/
#394500
1'
1#
1/
#395000
b110001011 4
0'
0#
0/
#395500
1'
1#
1/
#396000
b110001100 4
0'
0#
0/
#396500
1'
1#
1/
#397000
b110001101 4
0'
0#
0/
#397500
1'
1#
1/
#398000
b110001110 4
0'
0#
0/
#398500
1'
1#
1/
#399000
b110001111 4
0'
0#
0/
#399500
1'
1#
1/
#400000
b110010000 4
0'
0#
0/
#400500
1'
1#
1/
#401000
b110010001 4
0'
0#
0/
#401500
1'
1#
1/
#402000
b110010010 4
0'
0#
0/
#402500
1'
1#
1/
#403000
b110010011 4
0'
0#
0/
#403500
1'
1#
1/
#404000
b110010100 4
0'
0#
0/
#404500
1'
1#
1/
#405000
b110010101 4
0'
0#
0/
#405500
1'
1#
1/
#406000
b110010110 4
0'
0#
0/
#406500
1'
1#
1/
#407000
b110010111 4
0'
0#
0/
#407500
1'
1#
1/
#408000
b110011000 4
0'
0#
0/
#408500
1'
1#
1/
#409000
b110011001 4
0'
0#
0/
#409500
1'
1#
1/
#410000
b110011010 4
0'
0#
0/
#410500
1'
1#
1/
#411000
b110011011 4
0'
0#
0/
#411500
1'
1#
1/
#412000
b110011100 4
0'
0#
0/
#412500
1'
1#
1/
#413000
b110011101 4
0'
0#
0/
#413500
1'
1#
1/
#414000
b110011110 4
0'
0#
0/
#414500
1'
1#
1/
#415000
b110011111 4
0'
0#
0/
#415500
1'
1#
1/
#416000
b110100000 4
0'
0#
0/
#416500
1'
1#
1/
#417000
b110100001 4
0'
0#
0/
#417500
1'
1#
1/
#418000
b110100010 4
0'
0#
0/
#418500
1'
1#
1/
#419000
b110100011 4
0'
0#
0/
#419500
1'
1#
1/
#420000
b110100100 4
0'
0#
0/
#420500
1'
1#
1/
#421000
b110100101 4
0'
0#
0/
#421500
1'
1#
1/
#422000
b110100110 4
0'
0#
0/
#422500
1'
1#
1/
#423000
b110100111 4
0'
0#
0/
#423500
1'
1#
1/
#424000
b110101000 4
0'
0#
0/
#424500
1'
1#
1/
#425000
b110101001 4
0'
0#
0/
#425500
1'
1#
1/
#426000
b110101010 4
0'
0#
0/
#426500
1'
1#
1/
#427000
b110101011 4
0'
0#
0/
#427500
1'
1#
1/
#428000
b110101100 4
0'
0#
0/
#428500
1'
1#
1/
#429000
b110101101 4
0'
0#
0/
#429500
1'
1#
1/
#430000
b110101110 4
0'
0#
0/
#430500
1'
1#
1/
#431000
b110101111 4
0'
0#
0/
#431500
1'
1#
1/
#432000
b110110000 4
0'
0#
0/
#432500
1'
1#
1/
#433000
b110110001 4
0'
0#
0/
#433500
1'
1#
1/
