OpenFPGA/Fabric/full_testbench_implicit_mapping/run001/k6_frac_N10_tileable_adder_chain_dpram8K_dsp36_fracff_40nm/counter/MIN_ROUTE_CHAN_WIDTH/counter_formal.vcd
$date
	Wed Jun 25 22:57:43 2025
$end
$version
	Icarus Verilog
$end
$timescale
	1ps
$end
$scope module counter_autocheck_top_tb $end
$var wire 1 ! __config_all_done__ $end
$var wire 1 " __op_clock__ $end
$var wire 1 # __prog_clock__ $end
$var wire 1 $ clk $end
$var wire 32 % gfpga_pad_GPIO_PAD [0:31] $end
$var wire 1 & op_clk $end
$var wire 1 ' op_reset $end
$var wire 1 ( op_set $end
$var wire 1 ) pReset $end
$var wire 1 * prog_clk $end
$var wire 1 + reset_shared_input $end
$var wire 1 , result_7__fpga $end
$var wire 1 - result_7__benchmark $end
$var wire 1 . result_6__fpga $end
$var wire 1 / result_6__benchmark $end
$var wire 1 0 result_5__fpga $end
$var wire 1 1 result_5__benchmark $end
$var wire 1 2 result_4__fpga $end
$var wire 1 3 result_4__benchmark $end
$var wire 1 4 result_3__fpga $end
$var wire 1 5 result_3__benchmark $end
$var wire 1 6 result_2__fpga $end
$var wire 1 7 result_2__benchmark $end
$var wire 1 8 result_1__fpga $end
$var wire 1 9 result_1__benchmark $end
$var wire 1 : result_0__fpga $end
$var wire 1 ; result_0__benchmark $end
$var wire 1 < ccff_tail $end
$var reg 1 = __config_done__ $end
$var reg 1 + __greset__ $end
$var reg 1 ( __gset__ $end
$var reg 1 > __op_clock___reg__ $end
$var reg 1 ? __prog_clock___reg__ $end
$var reg 1 @ __prog_reset__ $end
$var reg 1 A __prog_set_ $end
$var reg 13 B bit_index [12:0] $end
$var reg 1 C ccff_head $end
$var reg 13 D ibit [12:0] $end
$var reg 1 E result_0__flag $end
$var reg 1 F result_1__flag $end
$var reg 1 G result_2__flag $end
$var reg 1 H result_3__flag $end
$var reg 1 I result_4__flag $end
$var reg 1 J result_5__flag $end
$var reg 1 K result_6__flag $end
$var reg 1 L result_7__flag $end
$var reg 1 M sim_start $end
$var reg 1 N skip_bits $end
$var integer 32 O nb_error [31:0] $end
$upscope $end
$enddefinitions $end
#0
$dumpvars
b1 O
0N
1M
0L
0K
0J
0I
0H
0G
0F
0E
b100100101111 D
0C
b0 B
1A
1@
0?
0>
0=
0<
0;
0:
09
08
07
06
05
04
03
12
01
10
0/
0.
0-
1,
1+
0*
1)
0(
1'
0&
b10011000000x0x000x00000xx1xx0xxx %
0$
0#
0"
0!
$end
#1667
1?
#3333
1*
1#
0A
0)
0@
#3334
b1 B
1C
0*
0#
0?
#5001
1*
1#
1?
#6668
b10 B
0C
0*
0#
0?
#8335
1*
1#
1?
#10002
b11 B
0*
0#
0?
#11669
1*
1#
1?
#13336
b100 B
0*
0#
0?
#15003
1*
1#
1?
#16670
b101 B
0*
0#
0?
#18337
1*
1#
1?
#20004
b110 B
0*
0#
0?
#21671
1*
1#
1?
#23338
b111 B
0*
0#
0?
#25005
1*
1#
1?
#26672
b1000 B
0*
0#
0?
#28339
1*
1#
1?
#30006
b1001 B
0*
0#
0?
#31673
1*
1#
1?
#33340
b1010 B
0*
0#
0?
#35007
1*
1#
1?
#36674
b1011 B
0*
0#
0?
#38341
1*
1#
1?
#40008
b1100 B
1C
0*
0#
0?
#41675
1*
1#
1?
#43342
b1101 B
0C
0*
0#
0?
#45009
1*
1#
1?
#46676
b1110 B
0*
0#
0?
#48343
1*
1#
1?
#50010
b1111 B
0*
0#
0?
#51677
1*
1#
1?
#53344
b10000 B
0*
0#
0?
#55011
1*
1#
1?
#56678
b10001 B
1C
0*
0#
0?
#58345
1*
1#
1?
#60012
b10010 B
0C
0*
0#
0?
#61679
1*
1#
1?
#63346
b10011 B
0*
0#
0?
#65013
1*
1#
1?
#66680
b10100 B
0*
0#
0?
#68347
1*
1#
1?
#70014
b10101 B
0*
0#
0?
#71681
1*
1#
1?
#73348
b10110 B
0*
0#
0?
#75015
1*
1#
1?
#76682
b10111 B
0*
0#
0?
#78349
1*
1#
1?
#80016
b11000 B
0*
0#
0?
#81683
1*
1#
1?
#83350
b11001 B
0*
0#
0?
#85017
1*
1#
1?
#86684
b11010 B
0*
0#
0?
#88351
1*
1#
1?
#90018
b11011 B
0*
0#
0?
#91685
1*
1#
1?
#93352
b11100 B
1C
0*
0#
0?
#95019
1*
1#
1?
#96686
b11101 B
0C
0*
0#
0?
#98353
1*
1#
1?
#100020
b11110 B
0*
0#
0?
#101687
1*
1#
1?
#103354
b11111 B
0*
0#
0?
#105021
1*
1#
1?
#106688
b100000 B
0*
0#
0?
#108355
1*
1#
1?
#110022
b100001 B
1C
0*
0#
0?
#111689
1*
1#
1?
#113356
b100010 B
0C
0*
0#
0?
#115023
1*
1#
1?
#116690
b100011 B
0*
0#
0?
#118357
1*
1#
1?
#120024
b100100 B
0*
0#
0?
#121691
1*
1#
1?
#123358
b100101 B
0*
0#
0?
#125025
1*
1#
1?
#126692
b100110 B
0*
0#
0?
#128359
1*
1#
1?
#130026
b100111 B
0*
0#
0?
#131693
1*
1#
1?
#133360
b101000 B
0*
0#
0?
#135027
1*
1#
1?
#136694
b101001 B
0*
0#
0?
#138361
1*
1#
1?
#140028
b101010 B
0*
0#
0?
#141695
1*
1#
1?
#143362
b101011 B
0*
0#
0?
#145029
1*
1#
1?
#146696
b101100 B
1C
0*
0#
0?
#148363
1*
1#
1?
#150030
b101101 B
0C
0*
0#
0?
#151697
1*
1#
1?
#153364
b101110 B
0*
0#
0?
#155031
1*
1#
1?
#156698
b101111 B
0*
0#
0?
#158365
1*
1#
1?
#160032
b110000 B
0*
0#
0?
#161699
1*
1#
1?
#163366
b110001 B
1C
0*
0#
0?
#165033
1*
1#
1?
#166700
b110010 B
0C
0*
0#
0?
#168367
1*
1#
1?
#170034
b110011 B
0*
0#
0?
#171701
1*
1#
1?
#173368
b110100 B
0*
0#
0?
#175035
1*
1#
1?
#176702
b110101 B
0*
0#
0?
#178369
1*
1#
1?
#180036
b110110 B
0*
0#
0?
#181703
1*
1#
1?
#183370
b110111 B
0*
0#
0?
#185037
1*
1#
1?
#186704
b111000 B
0*
0#
0?
#188371
1*
1#
1?
#190038
b111001 B
0*
0#
0?
#191705
1*
1#
1?
#193372
b111010 B
0*
0#
0?
#195039
1*
1#
1?
#196706
b111011 B
0*
0#
0?
#198373
1*
1#
1?
#200040
b111100 B
0*
0#
0?
#201707
1*
1#
1?
#203374
b111101 B
1C
0*
0#
0?
#205041
1*
1#
1?
#206708
b111110 B
0C
0*
0#
0?
#208375
1*
1#
1?
#210042
b111111 B
0*
0#
0?
#211709
1*
1#
1?
#213376
b1000000 B
0*
0#
0?
#215043
1*
1#
1?
#216710
b1000001 B
1C
0*
0#
0?
#218377
1*
1#
1?
#220044
b1000010 B
0C
0*
0#
0?
#221711
1*
1#
1?
#223378
b1000011 B
0*
0#
0?
#225045
1*
1#
1?
#226712
b1000100 B
0*
0#
0?
#228379
1*
1#
1?
#230046
b1000101 B
0*
0#
0?
#231713
1*
1#
1?
#233380
b1000110 B
0*
0#
0?
#235047
1*
1#
1?
#236714
b1000111 B
0*
0#
0?
#238381
1*
1#
1?
#240048
b1001000 B
0*
0#
0?
#241715
1*
1#
1?
#243382
b1001001 B
0*
0#
0?
#245049
1*
1#
1?
#246716
b1001010 B
0*
0#
0?
#248383
1*
1#
1?
#250050
b1001011 B
0*
0#
0?
#251717
1*
1#
1?
#253384
b1001100 B
0*
0#
0?
#255051
1*
1#
1?
#256718
b1001101 B
0*
0#
0?
#258385
1*
1#
1?
#260052
b1001110 B
1C
0*
0#
0?
#261719
1*
1#
1?
#263386
b1001111 B
0C
0*
0#
0?
#265053
1*
1#
1?
#266720
b1010000 B
0*
0#
0?
#268387
1*
1#
1?
#270054
b1010001 B
1C
0*
0#
0?
#271721
1*
1#
1?
#273388
b1010010 B
0C
0*
0#
0?
#275055
1*
1#
1?
#276722
b1010011 B
0*
0#
0?
#278389
1*
1#
1?
#280056
b1010100 B
0*
0#
0?
#281723
1*
1#
1?
#283390
b1010101 B
0*
0#
0?
#285057
1*
1#
1?
#286724
b1010110 B
0*
0#
0?
#288391
1*
1#
1?
#290058
b1010111 B
0*
0#
0?
#291725
1*
1#
1?
#293392
b1011000 B
0*
0#
0?
#295059
1*
1#
1?
#296726
b1011001 B
0*
0#
0?
#298393
1*
1#
1?
#300060
b1011010 B
0*
0#
0?
#301727
1*
1#
1?
#303394
b1011011 B
0*
0#
0?
#305061
1*
1#
1?
#306728
b1011100 B
1C
0*
0#
0?
#308395
1*
1#
1?
#310062
b1011101 B
0C
0*
0#
0?
#311729
1*
1#
1?
#313396
b1011110 B
0*
0#
0?
#315063
1*
1#
1?
#316730
b1011111 B
0*
0#
0?
#318397
1*
1#
1?
#320064
b1100000 B
0*
0#
0?
#321731
1*
1#
1?
#323398
b1100001 B
1C
0*
0#
0?
#325065
1*
1#
1?
#326732
b1100010 B
0C
0*
0#
0?
#328399
1*
1#
1?
#330066
b1100011 B
0*
0#
0?
#331733
1*
1#
1?
#333400
b1100100 B
0*
0#
0?
#335067
1*
1#
1?
#336734
b1100101 B
0*
0#
0?
#338401
1*
1#
1?
#340068
b1100110 B
0*
0#
0?
#341735
1*
1#
1?
#343402
b1100111 B
0*
0#
0?
#345069
1*
1#
1?
#346736
b1101000 B
0*
0#
0?
#348403
1*
1#
1?
#350070
b1101001 B
0*
0#
0?
#351737
1*
1#
1?
#353404
b1101010 B
0*
0#
0?
#355071
1*
1#
1?
#356738
b1101011 B
0*
0#
0?
#358405
1*
1#
1?
#360072
b1101100 B
1C
0*
0#
0?
#361739
1*
1#
1?
#363406
b1101101 B
0C
0*
0#
0?
#365073
1*
1#
1?
#366740
b1101110 B
0*
0#
0?
#368407
1*
1#
1?
#370074
b1101111 B
0*
0#
0?
#371741
1*
1#
1?
#373408
b1110000 B
0*
0#
0?
#375075
1*
1#
1?
#376742
b1110001 B
1C
0*
0#
0?
#378409
1*
1#
1?
#380076
b1110010 B
0C
0*
0#
0?
#381743
1*
1#
1?
#383410
b1110011 B
0*
0#
0?
#385077
1*
1#
1?
#386744
b1110100 B
0*
0#
0?
#388411
1*
1#
1?
#390078
b1110101 B
0*
0#
0?
#391745
1*
1#
1?
#393412
b1110110 B
0*
0#
0?
#395079
1*
1#
1?
#396746
b1110111 B
0*
0#
0?
#398413
1*
1#
1?
#400080
b1111000 B
0*
0#
0?
#401747
1*
1#
1?
#403414
b1111001 B
0*
0#
0?
#405081
1*
1#
1?
#406748
b1111010 B
0*
0#
0?
#408415
1*
1#
1?
#410082
b1111011 B
0*
0#
0?
#411749
1*
1#
1?
#413416
b1111100 B
0*
0#
0?
#415083
1*
1#
1?
#416750
b1111101 B
0*
0#
0?
#418417
1*
1#
1?
#420084
b1111110 B
0*
0#
0?
#421751
1*
1#
1?
#423418
b1111111 B
1C
0*
0#
0?
#425085
1*
1#
1?
#426752
b10000000 B
0C
0*
0#
0?
#428419
1*
1#
1?
#430086
b10000001 B
1C
0*
0#
0?
#431753
1*
1#
1?
#433420
b10000010 B
0C
0*
0#
0?
#435087
1*
1#
1?
#436754
b10000011 B
0*
0#
0?
#438421
1*
1#
1?
#440088
b10000100 B
0*
0#
0?
#441755
1*
1#
1?
#443422
b10000101 B
0*
0#
0?
#445089
1*
1#
1?
#446756
b10000110 B
0*
0#
0?
#448423
1*
1#
1?
#450090
b10000111 B
0*
0#
0?
#451757
1*
1#
1?
#453424
b10001000 B
0*
0#
0?
#455091
1*
1#
1?
#456758
b10001001 B
0*
0#
0?
#458425
1*
1#
1?
#460092
b10001010 B
0*
0#
0?
#461759
1*
1#
1?
#463426
b10001011 B
0*
0#
0?
#465093
1*
1#
1?
#466760
b10001100 B
0*
0#
0?
#468427
1*
1#
1?
#470094
b10001101 B
1C
0*
0#
0?
#471761
1*
1#
1?
#473428
b10001110 B
0C
0*
0#
0?
#475095
1*
1#
1?
#476762
b10001111 B
0*
0#
0?
#478429
1*
1#
1?
#480096
b10010000 B
0*
0#
0?
#481763
1*
1#
1?
#483430
b10010001 B
1C
0*
0#
0?
#485097
1*
1#
1?
#486764
b10010010 B
0C
0*
0#
0?
#488431
1*
1#
1?
#490098
b10010011 B
0*
0#
0?
#491765
1*
1#
1?
#493432
b10010100 B
0*
0#
0?
#495099
1*
1#
1?
#496766
b10010101 B
0*
0#
0?
#498433
1*
1#
1?
#500100
b10010110 B
0*
0#
0?
#501767
1*
1#
1?
#503434
b10010111 B
0*
0#
0?
#505101
1*
1#
1?
#506768
b10011000 B
0*
0#
0?
#508435
1*
1#
1?
#510102
b10011001 B
0*
0#
0?
#511769
1*
1#
1?
#513436
b10011010 B
0*
0#
0?
#515103
1*
1#
1?
#516770
b10011011 B
0*
0#
0?
#518437
1*
1#
1?
#520104
b10011100 B
0*
0#
0?
#521771
1*
1#
1?
#523438
b10011101 B
0*
0#
0?
#525105
1*
1#
1?
#526772
b10011110 B
0*
0#
0?
#528439
1*
1#
1?
#530106
b10011111 B
0*
0#
0?
#531773
1*
1#
1?
#533440
b10100000 B
1C
0*
0#
0?
#535107
1*
1#
1?
#536774
b10100001 B
0*
0#
0?
#538441
1*
1#
1?
#540108
b10100010 B
0C
0*
0#
0?
#541775
b10011000000x0x00xx00000xx1xx0xxx %
1*
1#
1?
#543442
b10100011 B
0*
0#
0?
#545109
1*
1#
1?
#546776
b10100100 B
0*
0#
0?
#548443
b10011000000x0x000x00000xx1xx0xxx %
1*
1#
1?
#550110
b10100101 B
0*
0#
0?
#551777
b10011000000x0x00xx00000xx1xx0xxx %
1*
1#
1?
#553444
b10100110 B
0*
0#
0?
#555111
1*
1#
1?
#556778
b10100111 B
0*
0#
0?
#558445
1*
1#
1?
#560112
b10101000 B
0*
0#
0?
#561779
b10011000000x0x00xx00000xx1xx0xxx %
1*
1#
1?
#563446
b10101001 B
0*
0#
0?
#565113
1*
1#
1?
#566780
b10101010 B
0*
0#
0?
#568447
b10011000000x0x00x000000xx1xx0xxx %
1*
1#
1?
#570114
b10101011 B
0*
0#
0?
#571781
b10011000000x0x00x000000xx1xx0xxx %
1*
1#
1?
#573448
b10101100 B
0*
0#
0?
#575115
1*
1#
1?
#576782
b10101101 B
0*
0#
0?
#578449
b10011000000x0x000000000xx1xx0xxx %
1*
1#
1?
#580116
b10101110 B
1C
0*
0#
0?
#581783
14
b10011000000x0x000010000xx1xx0xxx %
1*
1#
1?
#583450
b10101111 B
0C
0*
0#
0?
#585117
1*
1#
1?
#586784
b10110000 B
0*
0#
0?
#588451
04
b10011000000x0x00x000000xx1xx0xxx %
1*
1#
1?
#590118
b10110001 B
1C
0*
0#
0?
#591785
04
b10011000000x0x00x000000xx1xx0xxx %
1*
1#
1?
#593452
b10110010 B
0C
0*
0#
0?
#595119
b10011000000x0x000000000xx1xx0xxx %
1*
1#
1?
#596786
b10110011 B
0*
0#
0?
#598453
b10011000000x0x000x00000xx1xx0xxx %
1*
1#
1?
#600120
b10110100 B
0*
0#
0?
#601787
16
b10011000000x0x000x01000xx1xx0xxx %
1*
1#
1?
#603454
b10110101 B
0*
0#
0?
#605121
b10011000000x0x000001000xx1xx0xxx %
1*
1#
1?
#606788
b10110110 B
0*
0#
0?
#608455
06
b10011000000x0x000x00000xx1xx0xxx %
1*
1#
1?
#610122
b10110111 B
0*
0#
0?
#611789
1*
1#
1?
#613456
b10111000 B
0*
0#
0?
#615123
b10011000000x0x000x00000xx1xx0xxx %
1*
1#
1?
#616790
b10111001 B
0*
0#
0?
#618457
04
b10011000000x0x000x00000xx1xx0xxx %
1*
1#
1?
#620124
b10111010 B
0*
0#
0?
#621791
b10011000000x0x000000000xx1xx0xxx %
1*
1#
1?
#623458
b10111011 B
0*
0#
0?
#625125
1*
1#
1?
#626792
b10111100 B
1C
0*
0#
0?
#628459
14
b10011000000x0x000010000xx1xx0xxx %
1*
1#
1?
#630126
b10111101 B
0C
0*
0#
0?
#631793
b10011000000x0x00x010x00xx1xx0xxx %
1*
1#
1?
#633460
b10111110 B
0*
0#
0?
#635127
14
b10011000000x0x00x010x00xx1xx0xxx %
1*
1#
1?
#636794
b10111111 B
0*
0#
0?
#638461
06
b10011000000x0x000010x00xx1xx0xxx %
1*
1#
1?
#640128
b11000000 B
0*
0#
0?
#641795
04
b10011000000x0x000000x00xx1xx0xxx %
1*
1#
1?
#643462
b11000001 B
1C
0*
0#
0?
#645129
14
b10011000000x0x000010x00xx1xx0xxx %
1*
1#
1?
#646796
b11000010 B
0C
0*
0#
0?
#648463
16
b10011000000x0x00x011x00xx1xx0xxx %
1*
1#
1?
#650130
b11000011 B
0*
0#
0?
#651797
b10011000000x0x00xx11xx0xx1xx0xxx %
1*
1#
1?
#653464
b11000100 B
0*
0#
0?
#655131
06
b10011000000x0x000x10xx0xx1xx0xxx %
1*
1#
1?
#656798
b11000101 B
0*
0#
0?
#658465
b10011000000x0x00x010xx0xx1xx0xxx %
1*
1#
1?
#660132
b11000110 B
0*
0#
0?
#661799
b10011000000x0x00x010xx0xx1xx0xxx %
1*
1#
1?
#663466
b11000111 B
0*
0#
0?
#665133
16
b10011000000x0x00x0110x0xx1xx0xxx %
1*
1#
1?
#666800
b11001000 B
0*
0#
0?
#668467
b10011000000x0x00xx11xx0xx1xx0xxx %
1*
1#
1?
#670134
b11001001 B
0*
0#
0?
#671801
04
1.
b10011000000x0x00xx01xx1xx1xx0xxx %
1*
1#
1?
#673468
b11001010 B
0*
0#
0?
#675135
b10011000000x0x00x0010x1xx1xx0xxx %
1*
1#
1?
#676802
b11001011 B
0*
0#
0?
#678469
b10011000000x0x00xx010x1xx1xx0xxx %
1*
1#
1?
#680136
b11001100 B
0*
0#
0?
#681803
04
b10011000000x0x00xx010x10x1xx0xxx %
1*
1#
1?
#683470
b11001101 B
0*
0#
0?
#685137
b10011000000x0x00xx01x010x1xx0xxx %
1*
1#
1?
#686804
b11001110 B
0*
0#
0?
#688471
b10011000000x0x00xx01x010x1xx0xxx %
1*
1#
1?
#690138
b11001111 B
1C
0*
0#
0?
#691805
16
b10011000000x0x000x01x010x1xx0xxx %
1*
1#
1?
#693472
b11010000 B
0C
0*
0#
0?
#695139
b10011000000x0x00x001x010x1xx0xxx %
1*
1#
1?
#696806
b11010001 B
1C
0*
0#
0?
#698473
06
0.
z4
b10011000000x0x00xxz0x000x1xx0xxx %
1*
1#
1?
#700140
b11010010 B
0C
0*
0#
0?
#701807
z6
14
b10011000000x0x00xx1zx000x1xx0xxx %
1*
1#
1?
#703474
b11010011 B
0*
0#
0?
#705141
06
b10011000000x0x00x0100000x1xx0xxx %
1*
1#
1?
#706808
b11010100 B
0*
0#
0?
#708475
16
0.
b10011000000x0x000011x000x1xx0xxx %
1*
1#
1?
#710142
b11010101 B
0*
0#
0?
#711809
z.
b10011000000x0x00x01100z0x1xx0xxx %
1*
1#
1?
#713476
b11010110 B
0*
0#
0?
#715143
06
0.
b10011000000x0x00xx100000x1xx0xxx %
1*
1#
1?
#716810
b11010111 B
0*
0#
0?
#718477
06
b10011000000x0x00xx100000x1xx0xxx %
1*
1#
1?
#720144
b11011000 B
0*
0#
0?
#721811
b10011000000x0x00xx100000x1xx0xxx %
1*
1#
1?
#723478
b11011001 B
0*
0#
0?
#725145
14
0.
b10011000000x0x00xx100000x1xx0xxx %
1*
1#
1?
#726812
b11011010 B
0*
0#
0?
#728479
b1001100000000x000010000xx1xx0xxx %
1*
1#
1?
#730146
b11011011 B
0*
0#
0?
#731813
04
b10011000000x0x00x000000xx1xx0xxx %
1*
1#
1?
#733480
b11011100 B
0*
0#
0?
#735147
z4
b10011000000x0000x0z00000x1xx0xxx %
1*
1#
1?
#736814
b11011101 B
0*
0#
0?
#738481
z6
14
b10011000000x0x00x01z0000x1xx0xxx %
1*
1#
1?
#740148
b11011110 B
1C
0*
0#
0?
#741815
14
06
b10011000000x0x00x0100x00x1xx0xxx %
1*
1#
1?
#743482
b11011111 B
0C
0*
0#
0?
#745149
16
z,
bz0011000000x0x0000110000x1xx0xxx %
1*
1#
1?
#746816
b11100000 B
0*
0#
0?
#748483
04
z:
z.
1,
b1z011000000x0x0000010xz0x1xx0xxx %
1*
1#
1?
#750150
b11100001 B
0*
0#
0?
#751817
06
0:
z4
1.
b10011000000x0x00x0z00x10x1xx0xxx %
1*
1#
1?
#753484
b11100010 B
1C
0*
0#
0?
#755151
z6
04
z0
b100z1000000x0x00x00z0010x1xx0xxx %
1*
1#
1?
#756818
b11100011 B
0C
0*
0#
0?
#758485
0.
06
z2
10
b1001z000000x0x00x0000000x1xx0xxx %
1*
1#
1?
#760152
b11100100 B
0*
0#
0?
#761819
06
12
b10011000000x0x0000000000x1xx0xxx %
1*
1#
1?
#763486
b11100101 B
0*
0#
0?
#765153
z8
z.
b100110z000000x00x000x0z0x1xx0xxx %
1*
1#
1?
#766820
b11100110 B
0*
0#
0?
#768487
08
0.
b10011000000x0x00x000x000x1xx0xxx %
1*
1#
1?
#770154
b11100111 B
0*
0#
0?
#771821
16
b10011000000x0000x001000xx1xx0xxx %
1*
1#
1?
#773488
b11101000 B
0*
0#
0?
#775155
b10011000000x0x00x001x00xx1xx0xxx %
1*
1#
1?
#776822
b11101001 B
0*
0#
0?
#778489
1.
b10011000000x0x00x001x010x1xx0xxx %
1*
1#
1?
#780156
b11101010 B
0*
0#
0?
#781823
14
z,
bz001100000000x000011x01xx1xx0xxx %
1*
1#
1?
#783490
b11101011 B
1C
0*
0#
0?
#785157
04
z:
1,
b1z011000000x0x00x001x01xx1xx0xxx %
1*
1#
1?
#786824
b11101100 B
0C
0*
0#
0?
#788491
0:
z4
b10011000000x0000xxz10010x1xx0xxx %
1*
1#
1?
#790158
b11101101 B
0*
0#
0?
#791825
z6
14
z0
b100z1000000x0x00xx1zx010x1xx0xxx %
1*
1#
1?
#793492
b11101110 B
0*
0#
0?
#795159
14
16
z2
10
b1001z000000x0x00xx110x10x1xx0xxx %
1*
1#
1?
#796826
b11101111 B
0*
0#
0?
#798493
12
z,
bz0011000000x0x000x11x010x1xx0xxx %
1*
1#
1?
#800160
b11110000 B
0*
0#
0?
#801827
16
04
z:
z8
z.
1,
b1z0110z0000x0x000001x0z0x1xx0xxx %
1*
1#
1?
#803494
b11110001 B
0*
0#
0?
#805161
06
0:
08
z4
0.
b10011000000x0x000xz0x000x1xx0xxx %
1*
1#
1?
#806828
b11110010 B
1C
0*
0#
0?
#808495
z6
04
z0
b100z1000000x0x000x0zx000x1xx0xxx %
1*
1#
1?
#810162
b11110011 B
0C
0*
0#
0?
#811829
16
z2
10
b1001z000000x0x000x010x00x1xx0xxx %
1*
1#
1?
#813496
b11110100 B
0*
0#
0?
#815163
06
1.
12
b10011000000x0x000x00x010x1xx0xxx %
1*
1#
1?
#816830
b11110101 B
0*
0#
0?
#818497
z8
z.
b100110z000000x000000xxz0x1xx0xxx %
1*
1#
1?
#820164
b11110110 B
0*
0#
0?
#821831
08
1.
b10011000000x0x000x000x10x1xx0xxx %
1*
1#
1?
#823498
b11110111 B
0*
0#
0?
#825165
16
b10011000000x000000010x1xx1xx0xxx %
1*
1#
1?
#826832
b11111000 B
0*
0#
0?
#828499
0.
b10011000000x0x000x010x0xx1xx0xxx %
1*
1#
1?
#830166
b11111001 B
0*
0#
0?
#831833
1.
b10011000000x0x000x01xx10x1xx0xxx %
1*
1#
1?
#833500
b11111010 B
0*
0#
0?
#835167
z,
bz001100000000x000001xx1xx1xx0xxx %
1*
1#
1?
#836834
b11111011 B
0*
0#
0?
#838501
z:
1,
b1z011000000x0x000001xx1xx1xx0xxx %
1*
1#
1?
#840168
b11111100 B
1C
0*
0#
0?
#841835
0:
z4
b10011000000x00000xz1001xx1xx0xxx %
1*
1#
1?
#843502
b11111101 B
0C
0*
0#
0?
#845169
z6
04
z0
b100z1000000x0x000x0z0x1xx1xx0xxx %
1*
1#
1?
#846836
b11111110 B
0*
0#
0?
#848503
14
16
z2
10
b1001z000000x0x000x110010x1xx0xxx %
1*
1#
1?
#850170
b11111111 B
0*
0#
0?
#851837
12
z,
bz0011000000x0x000x110010x1xx0xxx %
1*
1#
1?
#853504
b100000000 B
0*
0#
0?
#855171
04
z:
z8
z.
1,
b1z0110z0000x0x00x00100z0x1xx0xxx %
1*
1#
1?
#856838
b100000001 B
1C
0*
0#
0?
#858505
06
0:
08
z4
1.
b10011000000x0x00xxz00010x1xx0xxx %
1*
1#
1?
#860172
b100000010 B
0C
0*
0#
0?
#861839
0.
z6
04
z0
b100z1000000x0x000x0z0000x1xx0xxx %
1*
1#
1?
#863506
b100000011 B
0*
0#
0?
#865173
0.
06
z2
10
b1001z000000x0x0000000000x1xx0xxx %
1*
1#
1?
#866840
b100000100 B
0*
0#
0?
#868507
16
12
b10011000000x0x0000010000x1xx0xxx %
1*
1#
1?
#870174
b100000101 B
0*
0#
0?
#871841
z8
z.
b100110z000000x00000100z0x1xx0xxx %
1*
1#
1?
#873508
b100000110 B
0*
0#
0?
#875175
06
08
1.
b10011000000x0x0000000010x1xx0xxx %
1*
1#
1?
#876842
b100000111 B
0*
0#
0?
#878509
16
b10011000000x000000010010x1xx0xxx %
1*
1#
1?
#880176
b100001000 B
0*
0#
0?
#881843
0.
b10011000000x0x000001000xx1xx0xxx %
1*
1#
1?
#883510
b100001001 B
0*
0#
0?
#885177
14
1.
b10011000000x0x0000110010x1xx0xxx %
1*
1#
1?
#886844
b100001010 B
0*
0#
0?
#888511
z,
bz001100000000x0000110010x1xx0xxx %
1*
1#
1?
#890178
b100001011 B
0*
0#
0?
#891845
04
z:
1,
b1z011000000x0x000x010010x1xx0xxx %
1*
1#
1?
#893512
b100001100 B
0*
0#
0?
#895179
14
0:
b10011000000x00000011001x01xx0xxx %
1*
1#
1?
#896846
b100001101 B
0*
0#
0?
#898513
z4
z0
b100z1000000x0x00xxz1001xx1xx0xxx %
1*
1#
1?
#900180
b100001110 B
0*
0#
0?
#901847
z6
04
z2
10
b1001z000000x0x00xx0z0010x1xx0xxx %
1*
1#
1?
#903514
b100001111 B
0*
0#
0?
#905181
16
12
z,
bz0011000000x0x000x01001xx1xx0xxx %
1*
1#
1?
#906848
b100010000 B
1C
0*
0#
0?
#908515
z:
z8
1,
b1z0110z0000x0x00x001001xxxxx0xxx %
1*
1#
1?
#910182
b100010001 B
0*
0#
0?
#911849
06
0:
08
z4
z.
b10011000000x0x00xxz00xzxxxxx0xxx %
1*
1#
1?
#913516
b100010010 B
0C
0*
0#
0?
#915183
z6
04
z0
1.
b100z1000000x0x000x0z0010xxxx0xxx %
1*
1#
1?
#916850
b100010011 B
0*
0#
0?
#918517
1.
16
z2
10
b1001z000000x0x0000010x1xxxxx0xxx %
1*
1#
1?
#920184
b100010100 B
0*
0#
0?
#921851
0.
12
b10011000000x0x000001000xxxxx0xxx %
1*
1#
1?
#923518
b100010101 B
0*
0#
0?
#925185
z8
z.
b100110z0000x0x00x0010xzxxxxx0xxx %
1*
1#
1?
#926852
b100010110 B
0*
0#
0?
#928519
06
08
0.
b1001100000000x00x0000x00xx0x0xxx %
1*
1#
1?
#930186
b100010111 B
0*
0#
0?
#931853
b10011000000x0x00x0000x0x0x0x0xxx %
1*
1#
1?
#933520
b100011000 B
0*
0#
0?
#935187
b10011000000x0000xx000x0x0x0x0xxx %
1*
1#
1?
#936854
b100011001 B
0*
0#
0?
#938521
1.
b10011000000x0x00xx000x1x0xxx0xxx %
1*
1#
1?
#940188
b100011010 B
0*
0#
0?
#941855
b1001100000000x00x000xx10xxxx0xxx %
1*
1#
1?
#943522
b100011011 B
0*
0#
0?
#945189
z,
bz0011000000x0x00x000x010xxxx0xxx %
1*
1#
1?
#946856
b100011100 B
0*
0#
0?
#948523
z:
1,
b1z011000000x0000000000100xxx0xxx %
1*
1#
1?
#950190
b100011101 B
1C
0*
0#
0?
#951857
0:
b10011000000x0x00x000x010xxxx0xxx %
1*
1#
1?
#953524
b100011110 B
0C
0*
0#
0?
#955191
z4
z0
b100z1000000x0x00x0z0x010xxx00xxx %
1*
1#
1?
#956858
b100011111 B
0*
0#
0?
#958525
z6
04
z2
10
z,
bz001z000000x0x00000zx01xxxxx0xxx %
1*
1#
1?
#960192
b100100000 B
0*
0#
0?
#961859
z:
16
12
1,
b1z011000000x0x00x0010x1xx1xx0xxx %
1*
1#
1?
#963526
b100100001 B
1C
0*
0#
0?
#965193
06
1.
0:
z8
z4
b100110z0000x0x0000z0x01xx1xx0xxx %
1*
1#
1?
#966860
b100100010 B
0C
0*
0#
0?
#968527
08
z6
14
z0
z.
b100z1000000x0x00001zx0zxxxxx0xxx %
1*
1#
1?
#970194
b100100011 B
0*
0#
0?
#971861
16
z2
10
0.
b1001z000000x0x0000110x00x10x0xxx %
1*
1#
1?
#973528
b100100100 B
0*
0#
0?
#975195
1.
06
12
b10011000000x0x000010x01xx1xx0xxx %
1*
1#
1?
#976862
b100100101 B
0*
0#
0?
#978529
z8
z.
b100110z0000x0x00x0100xzx01xxxxxx %
1*
1#
1?
#980196
b100100110 B
0*
0#
0?
#981863
08
1.
b10011000000x0x00x0100x10010xxxxx %
1*
1#
1?
#983530
b100100111 B
0*
0#
0?
#985197
16
b1001100000000x00x0110x1x0100xxxx %
1*
1#
1?
#986864
b100101000 B
0*
0#
0?
#988531
0.
b10011000000x0x00x011xx0x0100x0xx %
1*
1#
1?
#990198
b100101001 B
0*
0#
0?
#991865
1.
b10011000000x0000x011xx100100x0xx %
1*
1#
1?
#993532
b100101010 B
0*
0#
0?
#995199
b1001100000000x0000110x1xx100x0xx %
1*
1#
1?
#996866
b100101011 B
0*
0#
0?
#998533
b10011000000x0x00x0110x1xxx00xxxx %
1*
1#
1?
#1000200
b100101100 B
1C
0*
0#
0?
