OpenFPGA/Fabric/full_testbench_implicit_mapping/run001/k6_frac_N10_tileable_adder_chain_dpram8K_dsp36_fracff_40nm/counter/MIN_ROUTE_CHAN_WIDTH/counter_formal.vcd
$date
	Thu Jun 26 22:30:19 2025
$end
$version
	Icarus Verilog
$end
$timescale
	10ps
$end
$scope module counter_autocheck_top_tb $end
$var wire 1 ! __config_all_done__ $end
$var wire 1 " __op_clock__ $end
$var wire 1 # __prog_clock__ $end
$var wire 1 $ clk $end
$var wire 32 % gfpga_pad_GPIO_PAD [0:31] $end
$var wire 1 & op_clk $end
$var wire 1 ' op_reset $end
$var wire 1 ( op_set $end
$var wire 1 ) pReset $end
$var wire 1 * prog_clk $end
$var wire 1 + reset_shared_input $end
$var wire 1 , result_7__fpga $end
$var wire 1 - result_7__benchmark $end
$var wire 1 . result_6__fpga $end
$var wire 1 / result_6__benchmark $end
$var wire 1 0 result_5__fpga $end
$var wire 1 1 result_5__benchmark $end
$var wire 1 2 result_4__fpga $end
$var wire 1 3 result_4__benchmark $end
$var wire 1 4 result_3__fpga $end
$var wire 1 5 result_3__benchmark $end
$var wire 1 6 result_2__fpga $end
$var wire 1 7 result_2__benchmark $end
$var wire 1 8 result_1__fpga $end
$var wire 1 9 result_1__benchmark $end
$var wire 1 : result_0__fpga $end
$var wire 1 ; result_0__benchmark $end
$var wire 1 < ccff_tail $end
$var reg 1 = __config_done__ $end
$var reg 1 + __greset__ $end
$var reg 1 ( __gset__ $end
$var reg 1 > __op_clock___reg__ $end
$var reg 1 ? __prog_clock___reg__ $end
$var reg 1 @ __prog_reset__ $end
$var reg 1 A __prog_set_ $end
$var reg 13 B bit_index [12:0] $end
$var reg 1 C ccff_head $end
$var reg 13 D ibit [12:0] $end
$var reg 1 E result_0__flag $end
$var reg 1 F result_1__flag $end
$var reg 1 G result_2__flag $end
$var reg 1 H result_3__flag $end
$var reg 1 I result_4__flag $end
$var reg 1 J result_5__flag $end
$var reg 1 K result_6__flag $end
$var reg 1 L result_7__flag $end
$var reg 1 M sim_start $end
$var reg 1 N skip_bits $end
$var integer 32 O nb_error [31:0] $end
$upscope $end
$enddefinitions $end
#0
$dumpvars
b1 O
0N
1M
0L
0K
0J
0I
0H
0G
0F
0E
b100100101111 D
0C
b0 B
1A
1@
0?
0>
0=
0<
0;
1:
09
18
07
16
05
04
03
12
01
10
0/
1.
0-
1,
1+
0*
1)
0(
1'
0&
b1101101x00xxx00x0x01001x01x0xxxx %
0$
0#
0"
0!
$end
#167
1?
#333
1*
1#
0A
0)
0@
#334
b1 B
1C
0*
0#
0?
#501
1*
1#
1?
#668
b10 B
0C
0*
0#
0?
#835
1*
1#
1?
#1002
b11 B
0*
0#
0?
#1169
1*
1#
1?
#1336
b100 B
0*
0#
0?
#1503
1*
1#
1?
#1670
b101 B
0*
0#
0?
#1837
1*
1#
1?
#2004
b110 B
0*
0#
0?
#2171
1*
1#
1?
#2338
b111 B
0*
0#
0?
#2505
1*
1#
1?
#2672
b1000 B
0*
0#
0?
#2839
1*
1#
1?
#3006
b1001 B
0*
0#
0?
#3173
1*
1#
1?
#3340
b1010 B
0*
0#
0?
#3507
1*
1#
1?
#3674
b1011 B
0*
0#
0?
#3841
1*
1#
1?
#4008
b1100 B
1C
0*
0#
0?
#4175
1*
1#
1?
#4342
b1101 B
0C
0*
0#
0?
#4509
1*
1#
1?
#4676
b1110 B
0*
0#
0?
#4843
1*
1#
1?
#5010
b1111 B
0*
0#
0?
#5177
1*
1#
1?
#5344
b10000 B
0*
0#
0?
#5511
1*
1#
1?
#5678
b10001 B
1C
0*
0#
0?
#5845
1*
1#
1?
#6012
b10010 B
0C
0*
0#
0?
#6179
1*
1#
1?
#6346
b10011 B
0*
0#
0?
#6513
1*
1#
1?
#6680
b10100 B
0*
0#
0?
#6847
1*
1#
1?
#7014
b10101 B
0*
0#
0?
#7181
1*
1#
1?
#7348
b10110 B
0*
0#
0?
#7515
1*
1#
1?
#7682
b10111 B
0*
0#
0?
#7849
1*
1#
1?
#8016
b11000 B
0*
0#
0?
#8183
1*
1#
1?
#8350
b11001 B
0*
0#
0?
#8517
1*
1#
1?
#8684
b11010 B
0*
0#
0?
#8851
1*
1#
1?
#9018
b11011 B
0*
0#
0?
#9185
1*
1#
1?
#9352
b11100 B
1C
0*
0#
0?
#9519
1*
1#
1?
#9686
b11101 B
0C
0*
0#
0?
#9853
1*
1#
1?
#10020
b11110 B
0*
0#
0?
#10187
1*
1#
1?
#10354
b11111 B
0*
0#
0?
#10521
1*
1#
1?
#10688
b100000 B
0*
0#
0?
#10855
1*
1#
1?
#11022
b100001 B
1C
0*
0#
0?
#11189
1*
1#
1?
#11356
b100010 B
0C
0*
0#
0?
#11523
1*
1#
1?
#11690
b100011 B
0*
0#
0?
#11857
1*
1#
1?
#12024
b100100 B
0*
0#
0?
#12191
1*
1#
1?
#12358
b100101 B
0*
0#
0?
#12525
1*
1#
1?
#12692
b100110 B
0*
0#
0?
#12859
1*
1#
1?
#13026
b100111 B
0*
0#
0?
#13193
1*
1#
1?
#13360
b101000 B
0*
0#
0?
#13527
1*
1#
1?
#13694
b101001 B
0*
0#
0?
#13861
1*
1#
1?
#14028
b101010 B
0*
0#
0?
#14195
1*
1#
1?
#14362
b101011 B
0*
0#
0?
#14529
1*
1#
1?
#14696
b101100 B
1C
0*
0#
0?
#14863
1*
1#
1?
#15030
b101101 B
0C
0*
0#
0?
#15197
1*
1#
1?
#15364
b101110 B
0*
0#
0?
#15531
1*
1#
1?
#15698
b101111 B
0*
0#
0?
#15865
1*
1#
1?
#16032
b110000 B
0*
0#
0?
#16199
1*
1#
1?
#16366
b110001 B
1C
0*
0#
0?
#16533
1*
1#
1?
#16700
b110010 B
0C
0*
0#
0?
#16867
1*
1#
1?
#17034
b110011 B
0*
0#
0?
#17201
1*
1#
1?
#17368
b110100 B
0*
0#
0?
#17535
1*
1#
1?
#17702
b110101 B
0*
0#
0?
#17869
1*
1#
1?
#18036
b110110 B
0*
0#
0?
#18203
1*
1#
1?
#18370
b110111 B
0*
0#
0?
#18537
1*
1#
1?
#18704
b111000 B
0*
0#
0?
#18871
1*
1#
1?
#19038
b111001 B
0*
0#
0?
#19205
1*
1#
1?
#19372
b111010 B
0*
0#
0?
#19539
1*
1#
1?
#19706
b111011 B
0*
0#
0?
#19873
1*
1#
1?
#20040
b111100 B
0*
0#
0?
#20207
1*
1#
1?
#20374
b111101 B
1C
0*
0#
0?
#20541
1*
1#
1?
#20708
b111110 B
0C
0*
0#
0?
#20875
1*
1#
1?
#21042
b111111 B
0*
0#
0?
#21209
1*
1#
1?
#21376
b1000000 B
0*
0#
0?
#21543
1*
1#
1?
#21710
b1000001 B
1C
0*
0#
0?
#21877
1*
1#
1?
#22044
b1000010 B
0C
0*
0#
0?
#22211
1*
1#
1?
#22378
b1000011 B
0*
0#
0?
#22545
1*
1#
1?
#22712
b1000100 B
0*
0#
0?
#22879
1*
1#
1?
#23046
b1000101 B
0*
0#
0?
#23213
1*
1#
1?
#23380
b1000110 B
0*
0#
0?
#23547
1*
1#
1?
#23714
b1000111 B
0*
0#
0?
#23881
1*
1#
1?
#24048
b1001000 B
0*
0#
0?
#24215
1*
1#
1?
#24382
b1001001 B
0*
0#
0?
#24549
1*
1#
1?
#24716
b1001010 B
0*
0#
0?
#24883
1*
1#
1?
#25050
b1001011 B
0*
0#
0?
#25217
1*
1#
1?
#25384
b1001100 B
0*
0#
0?
#25551
1*
1#
1?
#25718
b1001101 B
0*
0#
0?
#25885
1*
1#
1?
#26052
b1001110 B
1C
0*
0#
0?
#26219
1*
1#
1?
#26386
b1001111 B
0C
0*
0#
0?
#26553
1*
1#
1?
#26720
b1010000 B
0*
0#
0?
#26887
1*
1#
1?
#27054
b1010001 B
1C
0*
0#
0?
#27221
1*
1#
1?
#27388
b1010010 B
0C
0*
0#
0?
#27555
1*
1#
1?
#27722
b1010011 B
0*
0#
0?
#27889
1*
1#
1?
#28056
b1010100 B
0*
0#
0?
#28223
1*
1#
1?
#28390
b1010101 B
0*
0#
0?
#28557
1*
1#
1?
#28724
b1010110 B
0*
0#
0?
#28891
1*
1#
1?
#29058
b1010111 B
0*
0#
0?
#29225
1*
1#
1?
#29392
b1011000 B
0*
0#
0?
#29559
1*
1#
1?
#29726
b1011001 B
0*
0#
0?
#29893
1*
1#
1?
#30060
b1011010 B
0*
0#
0?
#30227
1*
1#
1?
#30394
b1011011 B
0*
0#
0?
#30561
1*
1#
1?
#30728
b1011100 B
1C
0*
0#
0?
#30895
1*
1#
1?
#31062
b1011101 B
0C
0*
0#
0?
#31229
1*
1#
1?
#31396
b1011110 B
0*
0#
0?
#31563
1*
1#
1?
#31730
b1011111 B
0*
0#
0?
#31897
1*
1#
1?
#32064
b1100000 B
0*
0#
0?
#32231
1*
1#
1?
#32398
b1100001 B
1C
0*
0#
0?
#32565
1*
1#
1?
#32732
b1100010 B
0C
0*
0#
0?
#32899
1*
1#
1?
#33066
b1100011 B
0*
0#
0?
#33233
1*
1#
1?
#33400
b1100100 B
0*
0#
0?
#33567
1*
1#
1?
#33734
b1100101 B
0*
0#
0?
#33901
1*
1#
1?
#34068
b1100110 B
0*
0#
0?
#34235
1*
1#
1?
#34402
b1100111 B
0*
0#
0?
#34569
1*
1#
1?
#34736
b1101000 B
0*
0#
0?
#34903
1*
1#
1?
#35070
b1101001 B
0*
0#
0?
#35237
1*
1#
1?
#35404
b1101010 B
0*
0#
0?
#35571
1*
1#
1?
#35738
b1101011 B
0*
0#
0?
#35905
1*
1#
1?
#36072
b1101100 B
1C
0*
0#
0?
#36239
1*
1#
1?
#36406
b1101101 B
0C
0*
0#
0?
#36573
1*
1#
1?
#36740
b1101110 B
0*
0#
0?
#36907
1*
1#
1?
#37074
b1101111 B
0*
0#
0?
#37241
1*
1#
1?
#37408
b1110000 B
0*
0#
0?
#37575
1*
1#
1?
#37742
b1110001 B
1C
0*
0#
0?
#37909
1*
1#
1?
#38076
b1110010 B
0C
0*
0#
0?
#38243
1*
1#
1?
#38410
b1110011 B
0*
0#
0?
#38577
1*
1#
1?
#38744
b1110100 B
0*
0#
0?
#38911
1*
1#
1?
#39078
b1110101 B
0*
0#
0?
#39245
1*
1#
1?
#39412
b1110110 B
0*
0#
0?
#39579
1*
1#
1?
#39746
b1110111 B
0*
0#
0?
#39913
1*
1#
1?
#40080
b1111000 B
0*
0#
0?
#40247
1*
1#
1?
#40414
b1111001 B
0*
0#
0?
#40581
1*
1#
1?
#40748
b1111010 B
0*
0#
0?
#40915
1*
1#
1?
#41082
b1111011 B
0*
0#
0?
#41249
1*
1#
1?
#41416
b1111100 B
0*
0#
0?
#41583
1*
1#
1?
#41750
b1111101 B
0*
0#
0?
#41917
1*
1#
1?
#42084
b1111110 B
0*
0#
0?
#42251
1*
1#
1?
#42418
b1111111 B
1C
0*
0#
0?
#42585
1*
1#
1?
#42752
b10000000 B
0C
0*
0#
0?
#42919
1*
1#
1?
#43086
b10000001 B
1C
0*
0#
0?
#43253
1*
1#
1?
#43420
b10000010 B
0C
0*
0#
0?
#43587
1*
1#
1?
#43754
b10000011 B
0*
0#
0?
#43921
1*
1#
1?
#44088
b10000100 B
0*
0#
0?
#44255
1*
1#
1?
#44422
b10000101 B
0*
0#
0?
#44589
1*
1#
1?
#44756
b10000110 B
0*
0#
0?
#44923
1*
1#
1?
#45090
b10000111 B
0*
0#
0?
#45257
1*
1#
1?
#45424
b10001000 B
0*
0#
0?
#45591
1*
1#
1?
#45758
b10001001 B
0*
0#
0?
#45925
1*
1#
1?
#46092
b10001010 B
0*
0#
0?
#46259
1*
1#
1?
#46426
b10001011 B
0*
0#
0?
#46593
1*
1#
1?
#46760
b10001100 B
0*
0#
0?
#46927
1*
1#
1?
#47094
b10001101 B
1C
0*
0#
0?
#47261
1*
1#
1?
#47428
b10001110 B
0C
0*
0#
0?
#47595
1*
1#
1?
#47762
b10001111 B
0*
0#
0?
#47929
1*
1#
1?
#48096
b10010000 B
0*
0#
0?
#48263
1*
1#
1?
#48430
b10010001 B
1C
0*
0#
0?
#48597
1*
1#
1?
#48764
b10010010 B
0C
0*
0#
0?
#48931
1*
1#
1?
#49098
b10010011 B
0*
0#
0?
#49265
1*
1#
1?
#49432
b10010100 B
0*
0#
0?
#49599
1*
1#
1?
#49766
b10010101 B
0*
0#
0?
#49933
1*
1#
1?
#50100
b10010110 B
0*
0#
0?
#50267
1*
1#
1?
#50434
b10010111 B
0*
0#
0?
#50601
1*
1#
1?
#50768
b10011000 B
0*
0#
0?
#50935
1*
1#
1?
#51102
b10011001 B
0*
0#
0?
#51269
1*
1#
1?
#51436
b10011010 B
0*
0#
0?
#51603
1*
1#
1?
#51770
b10011011 B
0*
0#
0?
#51937
1*
1#
1?
#52104
b10011100 B
0*
0#
0?
#52271
1*
1#
1?
#52438
b10011101 B
0*
0#
0?
#52605
1*
1#
1?
#52772
b10011110 B
0*
0#
0?
#52939
1*
1#
1?
#53106
b10011111 B
0*
0#
0?
#53273
1*
1#
1?
#53440
b10100000 B
1C
0*
0#
0?
#53607
1*
1#
1?
#53774
b10100001 B
0*
0#
0?
#53941
1*
1#
1?
#54108
b10100010 B
0C
0*
0#
0?
#54275
b1101101x00xxx00xxx01001x01x0xxxx %
1*
1#
1?
#54442
b10100011 B
0*
0#
0?
#54609
b1101101x00xxx00xxx01001x01x0xxxx %
1*
1#
1?
#54776
b10100100 B
0*
0#
0?
#54943
b1101101x00xxx00x0x01001x01x0xxxx %
1*
1#
1?
#55110
b10100101 B
0*
0#
0?
#55277
b1101101x00xxx00xxx01001x01x0xxxx %
1*
1#
1?
#55444
b10100110 B
0*
0#
0?
#55611
1*
1#
1?
#55778
b10100111 B
0*
0#
0?
#55945
1*
1#
1?
#56112
b10101000 B
0*
0#
0?
#56279
1*
1#
1?
#56446
b10101001 B
0*
0#
0?
#56613
1*
1#
1?
#56780
b10101010 B
0*
0#
0?
#56947
b1101101x00xxx00xx001001x01x0xxxx %
1*
1#
1?
#57114
b10101011 B
0*
0#
0?
#57281
b1101101x00xxx00xxx01001x01x0xxxx %
1*
1#
1?
#57448
b10101100 B
0*
0#
0?
#57615
1*
1#
1?
#57782
b10101101 B
0*
0#
0?
#57949
1*
1#
1?
#58116
b10101110 B
1C
0*
0#
0?
#58283
x4
b1101101x00xxx00xxxx1001x01x0xxxx %
1*
1#
1?
#58450
b10101111 B
0C
0*
0#
0?
#58617
x4
b1101101x00xxx00x0xx1001x01x0xxxx %
1*
1#
1?
#58784
b10110000 B
0*
0#
0?
#58951
04
b1101101x00xxx00x0x01001x01x0xxxx %
1*
1#
1?
#59118
b10110001 B
1C
0*
0#
0?
#59285
1*
1#
1?
#59452
b10110010 B
0C
0*
0#
0?
#59619
b1101101x00xxx00xxx01001x01x0xxxx %
1*
1#
1?
#59786
b10110011 B
0*
0#
0?
#59953
b1101101x00xxx00xxx01001x01x0xxxx %
1*
1#
1?
#60120
b10110100 B
0*
0#
0?
#60287
x6
b1101101x00xxx00x0x0x001x01x0xxxx %
1*
1#
1?
#60454
b10110101 B
0*
0#
0?
#60621
x6
b1101101x00xxx00x000x001x01x0xxxx %
1*
1#
1?
#60788
b10110110 B
0*
0#
0?
#60955
06
b1101101x00xxx00x0x00001x01x0xxxx %
1*
1#
1?
#61122
b10110111 B
0*
0#
0?
#61289
1*
1#
1?
#61456
b10111000 B
0*
0#
0?
#61623
1*
1#
1?
#61790
b10111001 B
0*
0#
0?
#61957
x4
b1101101x00xxx00x0xx0001x01x0xxxx %
1*
1#
1?
#62124
b10111010 B
0*
0#
0?
#62291
x4
b1101101x00xxx00x00x0x01x01x0xxxx %
1*
1#
1?
#62458
b10111011 B
0*
0#
0?
#62625
04
b1101101x00xxx00x0x00x01x01x0xxxx %
1*
1#
1?
#62792
b10111100 B
1C
0*
0#
0?
#62959
14
b1101101x00xxx00x0x10001x01x0xxxx %
1*
1#
1?
#63126
b10111101 B
0C
0*
0#
0?
#63293
b1101101x00xxx00xxx10x01x01x0xxxx %
1*
1#
1?
#63460
b10111110 B
0*
0#
0?
#63627
x4
b1101101x00xxx00xxxx0x01x01x0xxxx %
1*
1#
1?
#63794
b10111111 B
0*
0#
0?
#63961
x6
x4
b1101101x00xxx00x0xxxx01x01x0xxxx %
1*
1#
1?
#64128
b11000000 B
0*
0#
0?
#64295
x6
04
b1101101x00xxx00xxx0xxx1x01x0xxxx %
1*
1#
1?
#64462
b11000001 B
1C
0*
0#
0?
#64629
06
14
b1101101x00xxx00xxx10xx1x01x0xxxx %
1*
1#
1?
#64796
b11000010 B
0C
0*
0#
0?
#64963
06
b1101101x00xxx00xxx10x01x01x0xxxx %
1*
1#
1?
#65130
b11000011 B
0*
0#
0?
#65297
b1101101x00xxx00xxx10xx1x01x0xxxx %
1*
1#
1?
#65464
b11000100 B
0*
0#
0?
#65631
x6
b1101101x00xxx00x0x1xxx1x01x0xxxx %
1*
1#
1?
#65798
b11000101 B
0*
0#
0?
#65965
x6
b1101101x00xxx00xx01xxx1x01x0xxxx %
1*
1#
1?
#66132
b11000110 B
0*
0#
0?
#66299
x.
06
b1101101x00xxx00xxx10xxxx01x0xxxx %
1*
1#
1?
#66466
b11000111 B
0*
0#
0?
#66633
x.
b1101101x00xxx00xxx100xxx01x0xxxx %
1*
1#
1?
#66800
b11001000 B
0*
0#
0?
#66967
0.
b1101101x00xxx00xxx10xx0x01x0xxxx %
1*
1#
1?
#67134
b11001001 B
0*
0#
0?
#67301
x4
1.
b1101101x00xxx00xxxx0xx1x01x0xxxx %
1*
1#
1?
#67468
b11001010 B
0*
0#
0?
#67635
x4
b1101101x00xxx00xx0x0xx1x01x0xxxx %
1*
1#
1?
#67802
b11001011 B
0*
0#
0?
#67969
04
b1101101x00xxx00xxx00xx1x01x0xxxx %
1*
1#
1?
#68136
b11001100 B
0*
0#
0?
#68303
04
b1101101x00xxx00xxx000x1x01x0xxxx %
1*
1#
1?
#68470
b11001101 B
0*
0#
0?
#68637
b1101101x00xxx00xxx00x01x01x0xxxx %
1*
1#
1?
#68804
b11001110 B
0*
0#
0?
#68971
x4
b1101101x00xxx00xxxx0x01001x0xxxx %
1*
1#
1?
#69138
b11001111 B
1C
0*
0#
0?
#69305
x6
x4
b1101101x00xxx00x0xxxx01x01x0xxxx %
1*
1#
1?
#69472
b11010000 B
0C
0*
0#
0?
#69639
x6
04
b1101101x00xxx00xx00xxx1x01x0xxxx %
1*
1#
1?
#69806
b11010001 B
1C
0*
0#
0?
#69973
x.
06
z4
b1101101x00xxx00xxxz0xxxx01x0xxxx %
1*
1#
1?
#70140
b11010010 B
0C
0*
0#
0?
#70307
x.
z6
14
b1101101x00xxx00xxx1zx0xx01x0xxxx %
1*
1#
1?
#70474
b11010011 B
0*
0#
0?
#70641
0.
16
b1101101x00xxx00xxx110x0x01x0xxxx %
1*
1#
1?
#70808
b11010100 B
0*
0#
0?
#70975
x6
0.
b1101101x00xxx00x0x1xx00x01x0xxxx %
1*
1#
1?
#71142
b11010101 B
0*
0#
0?
#71309
x6
z.
b1101101x00xxx00x001xxxzx01x0xxxx %
1*
1#
1?
#71476
b11010110 B
0*
0#
0?
#71643
06
x.
b1101101x00xxx00x0010xxx001x0xxxx %
1*
1#
1?
#71810
b11010111 B
0*
0#
0?
#71977
16
x.
b1101101x00xxx00x00110xxx01x0xxxx %
1*
1#
1?
#72144
b11011000 B
0*
0#
0?
#72311
0.
b1101101x00xxx00x0x11xx0x01x0xxxx %
1*
1#
1?
#72478
b11011001 B
0*
0#
0?
#72645
x4
0.
b1101101x000xx00x0xx1xx0001x0xxxx %
1*
1#
1?
#72812
b11011010 B
0*
0#
0?
#72979
x4
b1101101x00x0x00x00x1xx0x01x0xxxx %
1*
1#
1?
#73146
b11011011 B
0*
0#
0?
#73313
04
b1101101x00xx000x0001xx0x01x0xxxx %
1*
1#
1?
#73480
b11011100 B
0*
0#
0?
#73647
z4
b1101101x00xxx00x00z10x0x01x0xxxx %
1*
1#
1?
#73814
b11011101 B
0*
0#
0?
#73981
z6
14
b1101101x00xxx00x001zx00x01x0xxxx %
1*
1#
1?
#74148
b11011110 B
1C
0*
0#
0?
#74315
x4
16
b1101101x00xxx000x0x1000001x0xxxx %
1*
1#
1?
#74482
b11011111 B
0C
0*
0#
0?
#74649
x6
x4
z,
bz101101x00xxx00x00xxx00x01x0xxxx %
1*
1#
1?
#74816
b11100000 B
0*
0#
0?
#74983
x6
04
z:
z.
1,
b1z01101x00xxx00x000xxxzx01x0xxxx %
1*
1#
1?
#75150
b11100001 B
0*
0#
0?
#75317
06
1:
z4
x.
b1101101x00xxx00xx0z0xxx001x0xxxx %
1*
1#
1?
#75484
b11100010 B
1C
0*
0#
0?
#75651
x.
z6
04
z0
b110z101x00xxx00xx00zx0xx01x0xxxx %
1*
1#
1?
#75818
b11100011 B
0C
0*
0#
0?
#75985
0.
16
z2
10
b1101z01x00xxx00xx001000x01x0xxxx %
1*
1#
1?
#76152
b11100100 B
0*
0#
0?
#76319
x6
1.
12
b1101101x000xx00x0x0xx01x01x0xxxx %
1*
1#
1?
#76486
b11100101 B
0*
0#
0?
#76653
x6
z8
z.
b110110zx00x0x00x000xx0zx01x0xxxx %
1*
1#
1?
#76820
b11100110 B
0*
0#
0?
#76987
06
18
x.
b1101101000xx000x0000x0x001x0xxxx %
1*
1#
1?
#77154
b11100111 B
0*
0#
0?
#77321
06
x.
b1101101x00xxx00x0x0000xx01x0xxxx %
1*
1#
1?
#77488
b11101000 B
0*
0#
0?
#77655
0.
b1101101x00xxx00x0x00000x01x0xxxx %
1*
1#
1?
#77822
b11101001 B
0*
0#
0?
#77989
1.
b1101101x000xx0000x00001001x0xxxx %
1*
1#
1?
#78156
b11101010 B
0*
0#
0?
#78323
x4
z,
bz101101x00x0x00x00x0x01x01x0xxxx %
1*
1#
1?
#78490
b11101011 B
1C
0*
0#
0?
#78657
04
z:
1,
b1z01101x00xx000x0000xx1x01x0xxxx %
1*
1#
1?
#78824
b11101100 B
0C
0*
0#
0?
#78991
1:
z4
b1101101x00xxx00x0xz00x1x01x0xxxx %
1*
1#
1?
#79158
b11101101 B
0*
0#
0?
#79325
z6
14
z0
b110z101x00xxx00x0x1z001x01x0xxxx %
1*
1#
1?
#79492
b11101110 B
0*
0#
0?
#79659
x4
06
z2
10
b1101z01x00xxx0000xx0001001x0xxxx %
1*
1#
1?
#79826
b11101111 B
0*
0#
0?
#79993
x4
12
z,
bz101101x00xxx00x0xx0001x01x0xxxx %
1*
1#
1?
#80160
b11110000 B
0*
0#
0?
#80327
x6
04
z:
z8
z.
1,
b1z0110zx00xxx00x000x0xzx01x0xxxx %
1*
1#
1?
#80494
b11110001 B
0*
0#
0?
#80661
06
1:
18
z4
x.
b1101101000xxx00x0xz00xx001x0xxxx %
1*
1#
1?
#80828
b11110010 B
1C
0*
0#
0?
#80995
x.
z6
14
z0
b110z101x00xxx00xxx1z00xx01x0xxxx %
1*
1#
1?
#81162
b11110011 B
0C
0*
0#
0?
#81329
0.
16
z2
10
b1101z01x00xxx00xxx11000x01x0xxxx %
1*
1#
1?
#81496
b11110100 B
0*
0#
0?
#81663
x6
1.
12
b1101101x000xx00x0x1x001x01x0xxxx %
1*
1#
1?
#81830
b11110101 B
0*
0#
0?
#81997
x6
z8
z.
b110110zx00x0x00xx01x00zx01x0xxxx %
1*
1#
1?
#82164
b11110110 B
0*
0#
0?
#82331
06
18
x.
b1101101000xx000xxx10x0x001x0xxxx %
1*
1#
1?
#82498
b11110111 B
0*
0#
0?
#82665
16
x.
b1101101x00xxx00xx01100xx01x0xxxx %
1*
1#
1?
#82832
b11111000 B
0*
0#
0?
#82999
0.
b1101101x00xxx00xxx11000x01x0xxxx %
1*
1#
1?
#83166
b11111001 B
0*
0#
0?
#83333
0.
b1101101x000xx000xx11000001x0xxxx %
1*
1#
1?
#83500
b11111010 B
0*
0#
0?
#83667
z,
bz101101x00x0x00x0011x00x01x0xxxx %
1*
1#
1?
#83834
b11111011 B
0*
0#
0?
#84001
04
z:
1,
b1z01101x00xx000xx001x00x01x0xxxx %
1*
1#
1?
#84168
b11111100 B
1C
0*
0#
0?
#84335
1:
z4
b1101101x00xxx00xx0z10x0x01x0xxxx %
1*
1#
1?
#84502
b11111101 B
0C
0*
0#
0?
#84669
z6
04
z0
b110z101x00xxx00xx00z000x01x0xxxx %
1*
1#
1?
#84836
b11111110 B
0*
0#
0?
#85003
x4
16
z2
10
b1101z01x00xxx000x0x1000001x0xxxx %
1*
1#
1?
#85170
b11111111 B
0*
0#
0?
#85337
x4
12
z,
bz101101x00xxx00x00x1000x01x0xxxx %
1*
1#
1?
#85504
b100000000 B
0*
0#
0?
#85671
04
z:
z8
z.
1,
b1z0110zx00xxx00x00010xzx01x0xxxx %
1*
1#
1?
#85838
b100000001 B
1C
0*
0#
0?
#86005
06
1:
18
z4
0.
b1101101000xxx00x00z00x0001x0xxxx %
1*
1#
1?
#86172
b100000010 B
0C
0*
0#
0?
#86339
x.
z6
04
z0
b110z101x00xxx00xx00z00xx01x0xxxx %
1*
1#
1?
#86506
b100000011 B
0*
0#
0?
#86673
0.
06
z2
10
b1101z01x00xxx00xxx00000x01x0xxxx %
1*
1#
1?
#86840
b100000100 B
0*
0#
0?
#87007
x6
12
b1101101x000xx00x0x0x000x01x0xxxx %
1*
1#
1?
#87174
b100000101 B
0*
0#
0?
#87341
x6
z8
z.
b110110zx00x0x00xx00x00zx01x0xxxx %
1*
1#
1?
#87508
b100000110 B
0*
0#
0?
#87675
06
18
x.
b1101101000xx000xx00000x001x0xxxx %
1*
1#
1?
#87842
b100000111 B
0*
0#
0?
#88009
16
x.
b1101101x00xxx00xx00100xx01x0xxxx %
1*
1#
1?
#88176
b100001000 B
0*
0#
0?
#88343
0.
b1101101x00xxx00xxx01000x01x0xxxx %
1*
1#
1?
#88510
b100001001 B
0*
0#
0?
#88677
x4
b1101101x000xx000xxx1000001x0xxxx %
1*
1#
1?
#88844
b100001010 B
0*
0#
0?
#89011
x4
z,
bz101101x00x0x00xx0x1x000x1x0xxxx %
1*
1#
1?
#89178
b100001011 B
0*
0#
0?
#89345
04
z:
1,
b1z01101x00xx000x0x01x00xx1x0xxxx %
1*
1#
1?
#89512
b100001100 B
0*
0#
0?
#89679
14
1:
b1101101x00xxx00xx011000x01x0xxxx %
1*
1#
1?
#89846
b100001101 B
0*
0#
0?
#90013
z4
z0
b110z101x00xxx00xxxz1x00xx1x0xxxx %
1*
1#
1?
#90180
b100001110 B
0*
0#
0?
#90347
z6
x4
z2
10
b1101z01x00xxx000xxxzx000x1x0xxxx %
1*
1#
1?
#90514
b100001111 B
0*
0#
0?
#90681
x4
x6
12
z,
bz101101x00xxx00x0xxx0000x1x0xxxx %
1*
1#
1?
#90848
b100010000 B
1C
0*
0#
0?
#91015
x6
04
z:
z8
1,
b1z0110zx00xxx00xx00xx000xxx0xxxx %
1*
1#
1?
#91182
b100010001 B
0*
0#
0?
#91349
06
1:
18
z4
z.
b1101101000xxx00xxxz0xxz0xxx0xxxx %
1*
1#
1?
#91516
b100010010 B
0C
0*
0#
0?
#91683
z6
14
z0
0.
b110z101x00xxx00xxx1zx000xxx0xxxx %
1*
1#
1?
#91850
b100010011 B
0*
0#
0?
#92017
0.
16
z2
10
b1101z01x00xxx00xxx110000xxx0xxxx %
1*
1#
1?
#92184
b100010100 B
0*
0#
0?
#92351
x6
0.
12
b1101101x00xxx00x0x1xx000xxx0xxxx %
1*
1#
1?
#92518
b100010101 B
0*
0#
0?
#92685
x6
z8
z.
b110110zx000xx00x001xx0z0xxx0xxxx %
1*
1#
1?
#92852
b100010110 B
0*
0#
0?
#93019
06
18
x.
b1101101000x0x00x0x10x0x0xxx0xxxx %
1*
1#
1?
#93186
b100010111 B
0*
0#
0?
#93353
16
x.
b1101101x00xx000x0x1100x00xx0xxxx %
1*
1#
1?
#93520
b100011000 B
0*
0#
0?
#93687
0.
b1101101x00xxx00x0x110000xx00xxxx %
1*
1#
1?
#93854
b100011001 B
0*
0#
0?
#94021
x4
0.
b1101101x000xx00x0xx1000xxx00xxxx %
1*
1#
1?
#94188
b100011010 B
0*
0#
0?
#94355
x4
b1101101x00x0x00000x1x000xx00xxxx %
1*
1#
1?
#94522
b100011011 B
0*
0#
0?
#94689
04
z,
bz101101x00xx000x0001xx00xx00xxxx %
1*
1#
1?
#94856
b100011100 B
0*
0#
0?
#95023
14
z:
1,
b1z01101x00xxx00x00110x0x0x0xxxxx %
1*
1#
1?
#95190
b100011101 B
1C
0*
0#
0?
#95357
1:
b1101101x00xxx00x0011000x0x0xxxxx %
1*
1#
1?
#95524
b100011110 B
0C
0*
0#
0?
#95691
z4
z0
b110z101x00xxx00000z100000100xxxx %
1*
1#
1?
#95858
b100011111 B
0*
0#
0?
#96025
z6
x4
z2
10
z,
bz101z01x00xxx00x00xz0000010xxxxx %
1*
1#
1?
#96192
b100100000 B
0*
0#
0?
#96359
04
z:
x6
12
1,
b1z01101x00xxx00x000x0x000x0xxxxx %
1*
1#
1?
#96526
b100100001 B
1C
0*
0#
0?
#96693
x.
06
1:
z8
z4
b110110zx00xxx00x00z000x00xxxxxxx %
1*
1#
1?
#96860
b100100010 B
0C
0*
0#
0?
#97027
18
z6
14
z0
z.
b110z101000xxx00xx01z00z00xxxxxxx %
1*
1#
1?
#97194
b100100011 B
0*
0#
0?
#97361
16
z2
10
0.
b1101z01x00xxx00xx01100000x0xxxxx %
1*
1#
1?
#97528
b100100100 B
0*
0#
0?
#97695
x6
0.
12
b1101101x00xxx00x001x00000xxx0xxx %
1*
1#
1?
#97862
b100100101 B
0*
0#
0?
