OpenFPGA/Fabric/synthesizable_verilog/run001/k6_frac_N10_tileable_I_O_IO_40nm/and2/MIN_ROUTE_CHAN_WIDTH/and2_formal.vcd
$date
	Thu Jun 19 13:12:45 2025
$end
$version
	Icarus Verilog
$end
$timescale
	1ps
$end
$scope module and2_autocheck_top_tb $end
$var wire 1 ! __config_all_done__ $end
$var wire 1 " __op_clock__ $end
$var wire 1 # __prog_clock__ $end
$var wire 1 $ clk $end
$var wire 16 % gfpga_pad_GPIN_PAD [0:15] $end
$var wire 32 & gfpga_pad_GPIO_PAD [0:31] $end
$var wire 16 ' gfpga_pad_GPOUT_PAD [0:15] $end
$var wire 1 ( pReset $end
$var wire 1 ) prog_clk $end
$var wire 1 * reset $end
$var wire 1 + set $end
$var wire 1 , ccff_tail $end
$var wire 1 - c_fpga $end
$var wire 1 . c_benchmark $end
$var reg 1 / __config_done__ $end
$var reg 1 * __greset__ $end
$var reg 1 + __gset__ $end
$var reg 1 0 __op_clock___reg__ $end
$var reg 1 1 __prog_clock___reg__ $end
$var reg 1 2 __prog_reset__ $end
$var reg 1 3 __prog_set_ $end
$var reg 1 4 a_shared_input $end
$var reg 1 5 b_shared_input $end
$var reg 14 6 bit_index [13:0] $end
$var reg 1 7 c_flag $end
$var reg 1 8 ccff_head $end
$var reg 14 9 ibit [13:0] $end
$var reg 1 : sim_start $end
$var reg 1 ; skip_bits $end
$var integer 32 < nb_error [31:0] $end
$upscope $end
$enddefinitions $end
#0
$dumpvars
b1 <
0;
1:
b1010001011111 9
08
07
b0 6
05
14
13
12
01
00
0/
0.
x-
x,
0+
1*
0)
1(
bx '
b0 &
b1000000000000000 %
0$
0#
0"
0!
$end
#5000
11
#10000
b1 6
01
03
0(
02
#15000
1)
1#
11
#20000
b10 6
0)
0#
01
#25000
1)
1#
11
#30000
b11 6
0)
0#
01
#35000
1)
1#
11
#40000
b100 6
0)
0#
01
#45000
1)
1#
11
#50000
b101 6
0)
0#
01
#55000
1)
1#
11
#60000
b110 6
0)
0#
01
#65000
1)
1#
11
#70000
b111 6
0)
0#
01
#75000
1)
1#
11
#80000
b1000 6
0)
0#
01
#85000
1)
1#
11
#90000
b1001 6
0)
0#
01
#95000
1)
1#
11
#100000
b1010 6
0)
0#
01
#105000
1)
1#
11
#110000
b1011 6
0)
0#
01
#115000
1)
1#
11
#120000
b1100 6
0)
0#
01
#125000
1)
1#
11
#130000
b1101 6
0)
0#
01
#135000
1)
1#
11
#140000
b1110 6
0)
0#
01
#145000
1)
1#
11
#150000
b1111 6
0)
0#
01
#155000
1)
1#
11
#160000
b10000 6
0)
0#
01
#165000
1)
1#
11
#170000
b10001 6
0)
0#
01
#175000
1)
1#
11
#180000
b10010 6
0)
0#
01
#185000
1)
1#
11
#190000
b10011 6
0)
0#
01
#195000
1)
1#
11
#200000
b10100 6
0)
0#
01
#205000
1)
1#
11
#210000
b10101 6
0)
0#
01
#215000
1)
1#
11
#220000
b10110 6
0)
0#
01
#225000
1)
1#
11
#230000
b10111 6
0)
0#
01
#235000
1)
1#
11
#240000
b11000 6
0)
0#
01
#245000
1)
1#
11
#250000
b11001 6
0)
0#
01
#255000
1)
1#
11
#260000
b11010 6
0)
0#
01
#265000
1)
1#
11
#270000
b11011 6
0)
0#
01
#275000
1)
1#
11
#280000
b11100 6
0)
0#
01
#285000
1)
1#
11
#290000
b11101 6
0)
0#
01
#295000
1)
1#
11
#300000
b11110 6
0)
0#
01
#305000
1)
1#
11
#310000
b11111 6
0)
0#
01
#315000
1)
1#
11
#320000
b100000 6
0)
0#
01
#325000
1)
1#
11
#330000
b100001 6
0)
0#
01
#335000
1)
1#
11
#340000
b100010 6
0)
0#
01
#345000
1)
1#
11
#350000
b100011 6
0)
0#
01
#355000
1)
1#
11
#360000
b100100 6
0)
0#
01
#365000
1)
1#
11
#370000
b100101 6
0)
0#
01
#375000
1)
1#
11
#380000
b100110 6
0)
0#
01
#385000
1)
1#
11
#390000
b100111 6
0)
0#
01
#395000
1)
1#
11
#400000
b101000 6
0)
0#
01
#405000
1)
1#
11
#410000
b101001 6
0)
0#
01
#415000
1)
1#
11
#420000
b101010 6
0)
0#
01
#425000
1)
1#
11
#430000
b101011 6
0)
0#
01
#435000
1)
1#
11
#440000
b101100 6
0)
0#
01
#445000
1)
1#
11
#450000
b101101 6
0)
0#
01
#455000
1)
1#
11
#460000
b101110 6
0)
0#
01
#465000
1)
1#
11
#470000
b101111 6
0)
0#
01
#475000
1)
1#
11
#480000
b110000 6
0)
0#
01
#485000
1)
1#
11
#490000
b110001 6
0)
0#
01
#495000
1)
1#
11
#500000
b110010 6
0)
0#
01
#505000
1)
1#
11
#510000
b110011 6
0)
0#
01
#515000
1)
1#
11
#520000
b110100 6
0)
0#
01
#525000
1)
1#
11
#530000
b110101 6
0)
0#
01
#535000
1)
1#
11
#540000
b110110 6
0)
0#
01
#545000
1)
1#
11
#550000
b110111 6
0)
0#
01
#555000
1)
1#
11
#560000
b111000 6
0)
0#
01
#565000
1)
1#
11
#570000
b111001 6
0)
0#
01
#575000
1)
1#
11
#580000
b111010 6
0)
0#
01
#585000
1)
1#
11
#590000
b111011 6
0)
0#
01
#595000
1)
1#
11
#600000
b111100 6
0)
0#
01
#605000
1)
1#
11
#610000
b111101 6
0)
0#
01
#615000
1)
1#
11
#620000
b111110 6
0)
0#
01
#625000
1)
1#
11
#630000
b111111 6
0)
0#
01
#635000
1)
1#
11
#640000
b1000000 6
0)
0#
01
#645000
1)
1#
11
#650000
b1000001 6
0)
0#
01
#655000
1)
1#
11
#660000
b1000010 6
0)
0#
01
#665000
1)
1#
11
#670000
b1000011 6
0)
0#
01
#675000
1)
1#
11
#680000
b1000100 6
0)
0#
01
#685000
1)
1#
11
#690000
b1000101 6
0)
0#
01
#695000
1)
1#
11
#700000
b1000110 6
0)
0#
01
#705000
1)
1#
11
#710000
b1000111 6
0)
0#
01
#715000
1)
1#
11
#720000
b1001000 6
0)
0#
01
#725000
1)
1#
11
#730000
b1001001 6
0)
0#
01
#735000
1)
1#
11
#740000
b1001010 6
0)
0#
01
#745000
1)
1#
11
#750000
b1001011 6
0)
0#
01
#755000
1)
1#
11
#760000
b1001100 6
0)
0#
01
#765000
1)
1#
11
#770000
b1001101 6
0)
0#
01
#775000
1)
1#
11
#780000
b1001110 6
0)
0#
01
#785000
1)
1#
11
#790000
b1001111 6
0)
0#
01
#795000
1)
1#
11
#800000
b1010000 6
0)
0#
01
#805000
1)
1#
11
#810000
b1010001 6
0)
0#
01
#815000
1)
1#
11
#820000
b1010010 6
0)
0#
01
#825000
1)
1#
11
#830000
b1010011 6
0)
0#
01
#835000
1)
1#
11
#840000
b1010100 6
0)
0#
01
#845000
1)
1#
11
#850000
b1010101 6
0)
0#
01
#855000
1)
1#
11
#860000
b1010110 6
0)
0#
01
#865000
1)
1#
11
#870000
b1010111 6
0)
0#
01
#875000
1)
1#
11
#880000
b1011000 6
0)
0#
01
#885000
1)
1#
11
#890000
b1011001 6
0)
0#
01
#895000
1)
1#
11
#900000
b1011010 6
0)
0#
01
#905000
1)
1#
11
#910000
b1011011 6
0)
0#
01
#915000
1)
1#
11
#920000
b1011100 6
0)
0#
01
#925000
1)
1#
11
#930000
b1011101 6
0)
0#
01
#935000
1)
1#
11
#940000
b1011110 6
0)
0#
01
#945000
1)
1#
11
#950000
b1011111 6
0)
0#
01
#955000
1)
1#
11
#960000
b1100000 6
0)
0#
01
#965000
1)
1#
11
#970000
b1100001 6
0)
0#
01
#975000
1)
1#
11
#980000
b1100010 6
0)
0#
01
#985000
1)
1#
11
#990000
b1100011 6
0)
0#
01
#995000
1)
1#
11
#1000000
b1100100 6
0)
0#
01
#1005000
1)
1#
11
#1010000
b1100101 6
0)
0#
01
#1015000
1)
1#
11
#1020000
b1100110 6
0)
0#
01
#1025000
1)
1#
11
#1030000
b1100111 6
0)
0#
01
#1035000
1)
1#
11
#1040000
b1101000 6
0)
0#
01
#1045000
1)
1#
11
#1050000
b1101001 6
0)
0#
01
#1055000
1)
1#
11
#1060000
b1101010 6
0)
0#
01
#1065000
1)
1#
11
#1070000
b1101011 6
0)
0#
01
#1075000
1)
1#
11
#1080000
b1101100 6
0)
0#
01
#1085000
1)
1#
11
#1090000
b1101101 6
0)
0#
01
#1095000
1)
1#
11
#1100000
b1101110 6
0)
0#
01
#1105000
1)
1#
11
#1110000
b1101111 6
0)
0#
01
#1115000
1)
1#
11
#1120000
b1110000 6
0)
0#
01
#1125000
1)
1#
11
#1130000
b1110001 6
0)
0#
01
#1135000
1)
1#
11
#1140000
b1110010 6
0)
0#
01
#1145000
1)
1#
11
#1150000
b1110011 6
0)
0#
01
#1155000
1)
1#
11
#1160000
b1110100 6
0)
0#
01
#1165000
1)
1#
11
#1170000
b1110101 6
0)
0#
01
#1175000
1)
1#
11
#1180000
b1110110 6
0)
0#
01
#1185000
1)
1#
11
#1190000
b1110111 6
0)
0#
01
#1195000
1)
1#
11
#1200000
b1111000 6
0)
0#
01
#1205000
1)
1#
11
#1210000
b1111001 6
0)
0#
01
#1215000
1)
1#
11
#1220000
b1111010 6
0)
0#
01
#1225000
1)
1#
11
#1230000
b1111011 6
0)
0#
01
#1235000
1)
1#
11
#1240000
b1111100 6
0)
0#
01
#1245000
1)
1#
11
#1250000
b1111101 6
0)
0#
01
#1255000
1)
1#
11
#1260000
b1111110 6
0)
0#
01
#1265000
1)
1#
11
#1270000
b1111111 6
0)
0#
01
#1275000
1)
1#
11
#1280000
b10000000 6
0)
0#
01
#1285000
1)
1#
11
#1290000
b10000001 6
0)
0#
01
#1295000
1)
1#
11
#1300000
b10000010 6
0)
0#
01
#1305000
1)
1#
11
#1310000
b10000011 6
0)
0#
01
#1315000
1)
1#
11
#1320000
b10000100 6
0)
0#
01
#1325000
1)
1#
11
#1330000
b10000101 6
0)
0#
01
#1335000
1)
1#
11
#1340000
b10000110 6
0)
0#
01
#1345000
1)
1#
11
#1350000
b10000111 6
0)
0#
01
#1355000
1)
1#
11
#1360000
b10001000 6
0)
0#
01
#1365000
1)
1#
11
#1370000
b10001001 6
0)
0#
01
#1375000
1)
1#
11
#1380000
b10001010 6
0)
0#
01
#1385000
1)
1#
11
#1390000
b10001011 6
0)
0#
01
#1395000
1)
1#
11
#1400000
b10001100 6
0)
0#
01
#1405000
1)
1#
11
#1410000
b10001101 6
0)
0#
01
#1415000
1)
1#
11
#1420000
b10001110 6
0)
0#
01
#1425000
1)
1#
11
#1430000
b10001111 6
0)
0#
01
#1435000
1)
1#
11
#1440000
b10010000 6
0)
0#
01
#1445000
1)
1#
11
#1450000
b10010001 6
0)
0#
01
#1455000
1)
1#
11
#1460000
b10010010 6
0)
0#
01
#1465000
1)
1#
11
#1470000
b10010011 6
0)
0#
01
#1475000
1)
1#
11
#1480000
b10010100 6
0)
0#
01
#1485000
1)
1#
11
#1490000
b10010101 6
0)
0#
01
#1495000
1)
1#
11
#1500000
b10010110 6
0)
0#
01
#1505000
1)
1#
11
#1510000
b10010111 6
0)
0#
01
#1515000
1)
1#
11
#1520000
b10011000 6
0)
0#
01
#1525000
1)
1#
11
#1530000
b10011001 6
0)
0#
01
#1535000
1)
1#
11
#1540000
b10011010 6
0)
0#
01
#1545000
1)
1#
11
#1550000
b10011011 6
0)
0#
01
#1555000
1)
1#
11
#1560000
b10011100 6
0)
0#
01
#1565000
1)
1#
11
#1570000
b10011101 6
0)
0#
01
#1575000
1)
1#
11
#1580000
b10011110 6
0)
0#
01
#1585000
1)
1#
11
#1590000
b10011111 6
0)
0#
01
#1595000
1)
1#
11
#1600000
b10100000 6
0)
0#
01
#1605000
1)
1#
11
#1610000
b10100001 6
0)
0#
01
#1615000
1)
1#
11
#1620000
b10100010 6
0)
0#
01
#1625000
1)
1#
11
#1630000
b10100011 6
0)
0#
01
#1635000
1)
1#
11
#1640000
b10100100 6
0)
0#
01
#1645000
1)
1#
11
#1650000
b10100101 6
0)
0#
01
#1655000
1)
1#
11
#1660000
b10100110 6
0)
0#
01
#1665000
1)
1#
11
#1670000
b10100111 6
0)
0#
01
#1675000
1)
1#
11
#1680000
b10101000 6
0)
0#
01
#1685000
1)
1#
11
#1690000
b10101001 6
0)
0#
01
#1695000
1)
1#
11
#1700000
b10101010 6
0)
0#
01
#1705000
1)
1#
11
#1710000
b10101011 6
0)
0#
01
#1715000
1)
1#
11
#1720000
b10101100 6
0)
0#
01
#1725000
1)
1#
11
#1730000
b10101101 6
0)
0#
01
#1735000
1)
1#
11
#1740000
b10101110 6
0)
0#
01
#1745000
1)
1#
11
#1750000
b10101111 6
0)
0#
01
#1755000
1)
1#
11
#1760000
b10110000 6
0)
0#
01
#1765000
1)
1#
11
#1770000
b10110001 6
0)
0#
01
#1775000
1)
1#
11
#1780000
b10110010 6
0)
0#
01
#1785000
1)
1#
11
#1790000
b10110011 6
0)
0#
01
#1795000
1)
1#
11
#1800000
b10110100 6
0)
0#
01
#1805000
1)
1#
11
#1810000
b10110101 6
0)
0#
01
#1815000
1)
1#
11
#1820000
b10110110 6
0)
0#
01
#1825000
1)
1#
11
#1830000
b10110111 6
0)
0#
01
#1835000
1)
1#
11
#1840000
b10111000 6
0)
0#
01
#1845000
1)
1#
11
#1850000
b10111001 6
0)
0#
01
#1855000
1)
1#
11
#1860000
b10111010 6
0)
0#
01
#1865000
1)
1#
11
#1870000
b10111011 6
0)
0#
01
#1875000
1)
1#
11
#1880000
b10111100 6
0)
0#
01
#1885000
1)
1#
11
#1890000
b10111101 6
0)
0#
01
#1895000
1)
1#
11
#1900000
b10111110 6
0)
0#
01
#1905000
1)
1#
11
#1910000
b10111111 6
0)
0#
01
#1915000
1)
1#
11
#1920000
b11000000 6
0)
0#
01
#1925000
1)
1#
11
#1930000
b11000001 6
0)
0#
01
#1935000
1)
1#
11
#1940000
b11000010 6
0)
0#
01
#1945000
1)
1#
11
#1950000
b11000011 6
0)
0#
01
#1955000
1)
1#
11
#1960000
b11000100 6
0)
0#
01
#1965000
1)
1#
11
#1970000
b11000101 6
0)
0#
01
#1975000
1)
1#
11
#1980000
b11000110 6
0)
0#
01
#1985000
1)
1#
11
#1990000
b11000111 6
0)
0#
01
#1995000
1)
1#
11
#2000000
b11001000 6
0)
0#
01
#2005000
1)
1#
11
#2010000
b11001001 6
0)
0#
01
#2015000
1)
1#
11
#2020000
b11001010 6
0)
0#
01
#2025000
1)
1#
11
#2030000
b11001011 6
0)
0#
01
#2035000
1)
1#
11
#2040000
b11001100 6
0)
0#
01
#2045000
1)
1#
11
#2050000
b11001101 6
0)
0#
01
#2055000
1)
1#
11
#2060000
b11001110 6
0)
0#
01
#2065000
1)
1#
11
#2070000
b11001111 6
0)
0#
01
#2075000
1)
1#
11
#2080000
b11010000 6
0)
0#
01
#2085000
1)
1#
11
#2090000
b11010001 6
0)
0#
01
#2095000
1)
1#
11
#2100000
b11010010 6
0)
0#
01
#2105000
1)
1#
11
#2110000
b11010011 6
0)
0#
01
#2115000
1)
1#
11
#2120000
b11010100 6
0)
0#
01
#2125000
1)
1#
11
#2130000
b11010101 6
0)
0#
01
#2135000
1)
1#
11
#2140000
b11010110 6
0)
0#
01
#2145000
1)
1#
11
#2150000
b11010111 6
0)
0#
01
#2155000
1)
1#
11
#2160000
b11011000 6
0)
0#
01
#2165000
1)
1#
11
#2170000
b11011001 6
0)
0#
01
#2175000
1)
1#
11
#2180000
b11011010 6
0)
0#
01
#2185000
1)
1#
11
#2190000
b11011011 6
0)
0#
01
#2195000
1)
1#
11
#2200000
b11011100 6
0)
0#
01
#2205000
1)
1#
11
#2210000
b11011101 6
0)
0#
01
#2215000
1)
1#
11
#2220000
b11011110 6
0)
0#
01
#2225000
1)
1#
11
#2230000
b11011111 6
0)
0#
01
#2235000
1)
1#
11
#2240000
b11100000 6
0)
0#
01
#2245000
1)
1#
11
#2250000
b11100001 6
0)
0#
01
#2255000
1)
1#
11
#2260000
b11100010 6
0)
0#
01
#2265000
1)
1#
11
#2270000
b11100011 6
0)
0#
01
#2275000
1)
1#
11
#2280000
b11100100 6
0)
0#
01
#2285000
1)
1#
11
#2290000
b11100101 6
0)
0#
01
#2295000
1)
1#
11
#2300000
b11100110 6
0)
0#
01
#2305000
1)
1#
11
#2310000
b11100111 6
0)
0#
01
#2315000
1)
1#
11
#2320000
b11101000 6
0)
0#
01
#2325000
1)
1#
11
#2330000
b11101001 6
0)
0#
01
#2335000
1)
1#
11
#2340000
b11101010 6
0)
0#
01
#2345000
1)
1#
11
#2350000
b11101011 6
0)
0#
01
#2355000
1)
1#
11
#2360000
b11101100 6
0)
0#
01
#2365000
1)
1#
11
#2370000
b11101101 6
0)
0#
01
#2375000
1)
1#
11
#2380000
b11101110 6
0)
0#
01
#2385000
1)
1#
11
#2390000
b11101111 6
0)
0#
01
#2395000
1)
1#
11
#2400000
b11110000 6
0)
0#
01
#2405000
1)
1#
11
#2410000
b11110001 6
0)
0#
01
#2415000
1)
1#
11
#2420000
b11110010 6
0)
0#
01
#2425000
1)
1#
11
#2430000
b11110011 6
0)
0#
01
#2435000
1)
1#
11
#2440000
b11110100 6
0)
0#
01
#2445000
1)
1#
11
#2450000
b11110101 6
0)
0#
01
#2455000
1)
1#
11
#2460000
b11110110 6
0)
0#
01
#2465000
1)
1#
11
#2470000
b11110111 6
0)
0#
01
#2475000
1)
1#
11
#2480000
b11111000 6
0)
0#
01
#2485000
1)
1#
11
#2490000
b11111001 6
0)
0#
01
#2495000
1)
1#
11
#2500000
b11111010 6
0)
0#
01
#2505000
1)
1#
11
#2510000
b11111011 6
0)
0#
01
#2515000
1)
1#
11
#2520000
b11111100 6
0)
0#
01
#2525000
1)
1#
11
#2530000
b11111101 6
0)
0#
01
#2535000
1)
1#
11
#2540000
b11111110 6
0)
0#
01
#2545000
1)
1#
11
#2550000
b11111111 6
0)
0#
01
#2555000
1)
1#
11
#2560000
b100000000 6
0)
0#
01
#2565000
1)
1#
11
#2570000
b100000001 6
0)
0#
01
#2575000
1)
1#
11
#2580000
b100000010 6
0)
0#
01
#2585000
1)
1#
11
#2590000
b100000011 6
0)
0#
01
#2595000
1)
1#
11
#2600000
b100000100 6
0)
0#
01
#2605000
1)
1#
11
#2610000
b100000101 6
0)
0#
01
#2615000
1)
1#
11
#2620000
b100000110 6
0)
0#
01
#2625000
1)
1#
11
#2630000
b100000111 6
0)
0#
01
#2635000
1)
1#
11
#2640000
b100001000 6
0)
0#
01
#2645000
1)
1#
11
#2650000
b100001001 6
0)
0#
01
#2655000
1)
1#
11
#2660000
b100001010 6
0)
0#
01
#2665000
1)
1#
11
#2670000
b100001011 6
0)
0#
01
#2675000
1)
1#
11
#2680000
b100001100 6
0)
0#
01
#2685000
1)
1#
11
#2690000
b100001101 6
0)
0#
01
#2695000
1)
1#
11
#2700000
b100001110 6
0)
0#
01
#2705000
1)
1#
11
#2710000
b100001111 6
0)
0#
01
#2715000
1)
1#
11
#2720000
b100010000 6
0)
0#
01
#2725000
1)
1#
11
#2730000
b100010001 6
0)
0#
01
#2735000
1)
1#
11
#2740000
b100010010 6
0)
0#
01
#2745000
1)
1#
11
#2750000
b100010011 6
0)
0#
01
#2755000
1)
1#
11
#2760000
b100010100 6
0)
0#
01
#2765000
1)
1#
11
#2770000
b100010101 6
0)
0#
01
#2775000
1)
1#
11
#2780000
b100010110 6
0)
0#
01
#2785000
1)
1#
11
#2790000
b100010111 6
0)
0#
01
#2795000
1)
1#
11
#2800000
b100011000 6
0)
0#
01
#2805000
1)
1#
11
#2810000
b100011001 6
0)
0#
01
#2815000
1)
1#
11
#2820000
b100011010 6
0)
0#
01
#2825000
1)
1#
11
#2830000
b100011011 6
0)
0#
01
#2835000
1)
1#
11
#2840000
b100011100 6
0)
0#
01
#2845000
1)
1#
11
#2850000
b100011101 6
0)
0#
01
#2855000
1)
1#
11
#2860000
b100011110 6
0)
0#
01
#2865000
1)
1#
11
#2870000
b100011111 6
0)
0#
01
#2875000
1)
1#
11
#2880000
b100100000 6
0)
0#
01
#2885000
1)
1#
11
#2890000
b100100001 6
0)
0#
01
#2895000
1)
1#
11
#2900000
b100100010 6
0)
0#
01
#2905000
1)
1#
11
#2910000
b100100011 6
0)
0#
01
#2915000
1)
1#
11
#2920000
b100100100 6
0)
0#
01
#2925000
1)
1#
11
#2930000
b100100101 6
0)
0#
01
#2935000
1)
1#
11
#2940000
b100100110 6
0)
0#
01
#2945000
1)
1#
11
#2950000
b100100111 6
0)
0#
01
#2955000
1)
1#
11
#2960000
b100101000 6
0)
0#
01
#2965000
1)
1#
11
#2970000
b100101001 6
0)
0#
01
#2975000
1)
1#
11
#2980000
b100101010 6
0)
0#
01
#2985000
1)
1#
11
#2990000
b100101011 6
0)
0#
01
#2995000
1)
1#
11
#3000000
b100101100 6
0)
0#
01
#3005000
1)
1#
11
#3010000
b100101101 6
0)
0#
01
#3015000
1)
1#
11
#3020000
b100101110 6
0)
0#
01
#3025000
1)
1#
11
#3030000
b100101111 6
0)
0#
01
#3035000
1)
1#
11
#3040000
b100110000 6
0)
0#
01
#3045000
1)
1#
11
#3050000
b100110001 6
0)
0#
01
#3055000
1)
1#
11
#3060000
b100110010 6
0)
0#
01
#3065000
1)
1#
11
#3070000
b100110011 6
0)
0#
01
#3075000
1)
1#
11
#3080000
b100110100 6
0)
0#
01
#3085000
1)
1#
11
#3090000
b100110101 6
0)
0#
01
#3095000
1)
1#
11
#3100000
b100110110 6
0)
0#
01
#3105000
1)
1#
11
#3110000
b100110111 6
0)
0#
01
#3115000
1)
1#
11
#3120000
b100111000 6
0)
0#
01
#3125000
1)
1#
11
#3130000
b100111001 6
0)
0#
01
#3135000
1)
1#
11
#3140000
b100111010 6
0)
0#
01
#3145000
1)
1#
11
#3150000
b100111011 6
0)
0#
01
#3155000
1)
1#
11
#3160000
b100111100 6
0)
0#
01
#3165000
1)
1#
11
#3170000
b100111101 6
0)
0#
01
#3175000
1)
1#
11
#3180000
b100111110 6
0)
0#
01
#3185000
1)
1#
11
#3190000
b100111111 6
0)
0#
01
#3195000
1)
1#
11
#3200000
b101000000 6
0)
0#
01
#3205000
1)
1#
11
#3210000
b101000001 6
0)
0#
01
#3215000
1)
1#
11
#3220000
b101000010 6
0)
0#
01
#3225000
1)
1#
11
#3230000
b101000011 6
0)
0#
01
#3235000
1)
1#
11
#3240000
b101000100 6
0)
0#
01
#3245000
1)
1#
11
#3250000
b101000101 6
0)
0#
01
#3255000
1)
1#
11
#3260000
b101000110 6
0)
0#
01
#3265000
1)
1#
11
#3270000
b101000111 6
0)
0#
01
#3275000
1)
1#
11
#3280000
b101001000 6
0)
0#
01
#3285000
1)
1#
11
#3290000
b101001001 6
0)
0#
01
#3295000
1)
1#
11
#3300000
b101001010 6
0)
0#
01
#3305000
1)
1#
11
#3310000
b101001011 6
0)
0#
01
#3315000
1)
1#
11
#3320000
b101001100 6
0)
0#
01
#3325000
1)
1#
11
#3330000
b101001101 6
0)
0#
01
#3335000
1)
1#
11
#3340000
b101001110 6
0)
0#
01
#3345000
1)
1#
11
#3350000
b101001111 6
0)
0#
01
#3355000
1)
1#
11
#3360000
b101010000 6
0)
0#
01
#3365000
1)
1#
11
#3370000
b101010001 6
0)
0#
01
#3375000
1)
1#
11
#3380000
b101010010 6
0)
0#
01
#3385000
1)
1#
11
#3390000
b101010011 6
0)
0#
01
#3395000
1)
1#
11
#3400000
b101010100 6
0)
0#
01
#3405000
1)
1#
11
#3410000
b101010101 6
0)
0#
01
#3415000
1)
1#
11
#3420000
b101010110 6
0)
0#
01
#3425000
1)
1#
11
#3430000
b101010111 6
0)
0#
01
#3435000
1)
1#
11
#3440000
b101011000 6
0)
0#
01
#3445000
1)
1#
11
#3450000
b101011001 6
0)
0#
01
#3455000
1)
1#
11
#3460000
b101011010 6
0)
0#
01
#3465000
1)
1#
11
#3470000
b101011011 6
0)
0#
01
#3475000
1)
1#
11
#3480000
b101011100 6
0)
0#
01
#3485000
1)
1#
11
#3490000
b101011101 6
0)
0#
01
#3495000
1)
1#
11
#3500000
b101011110 6
0)
0#
01
#3505000
1)
1#
11
#3510000
b101011111 6
0)
0#
01
#3515000
1)
1#
11
#3520000
b101100000 6
0)
0#
01
#3525000
1)
1#
11
#3530000
b101100001 6
0)
0#
01
#3535000
1)
1#
11
#3540000
b101100010 6
0)
0#
01
#3545000
1)
1#
11
#3550000
b101100011 6
0)
0#
01
#3555000
1)
1#
11
#3560000
b101100100 6
0)
0#
01
#3565000
1)
1#
11
#3570000
b101100101 6
0)
0#
01
#3575000
1)
1#
11
#3580000
b101100110 6
0)
0#
01
#3585000
1)
1#
11
#3590000
b101100111 6
0)
0#
01
#3595000
1)
1#
11
#3600000
b101101000 6
0)
0#
01
#3605000
1)
1#
11
#3610000
b101101001 6
0)
0#
01
#3615000
1)
1#
11
#3620000
b101101010 6
0)
0#
01
#3625000
1)
1#
11
#3630000
b101101011 6
0)
0#
01
#3635000
1)
1#
11
#3640000
b101101100 6
0)
0#
01
#3645000
1)
1#
11
#3650000
b101101101 6
0)
0#
01
#3655000
1)
1#
11
#3660000
b101101110 6
0)
0#
01
#3665000
1)
1#
11
#3670000
b101101111 6
0)
0#
01
#3675000
1)
1#
11
#3680000
b101110000 6
0)
0#
01
#3685000
1)
1#
11
#3690000
b101110001 6
0)
0#
01
#3695000
1)
1#
11
#3700000
b101110010 6
0)
0#
01
#3705000
1)
1#
11
#3710000
b101110011 6
0)
0#
01
#3715000
1)
1#
11
#3720000
b101110100 6
0)
0#
01
#3725000
1)
1#
11
#3730000
b101110101 6
0)
0#
01
#3735000
1)
1#
11
#3740000
b101110110 6
0)
0#
01
#3745000
1)
1#
11
#3750000
b101110111 6
0)
0#
01
#3755000
1)
1#
11
#3760000
b101111000 6
0)
0#
01
#3765000
1)
1#
11
#3770000
b101111001 6
0)
0#
01
#3775000
1)
1#
11
#3780000
b101111010 6
0)
0#
01
#3785000
1)
1#
11
#3790000
b101111011 6
0)
0#
01
#3795000
1)
1#
11
#3800000
b101111100 6
0)
0#
01
#3805000
1)
1#
11
#3810000
b101111101 6
0)
0#
01
#3815000
1)
1#
11
#3820000
b101111110 6
0)
0#
01
#3825000
1)
1#
11
#3830000
b101111111 6
0)
0#
01
#3835000
1)
1#
11
#3840000
b110000000 6
0)
0#
01
#3845000
1)
1#
11
#3850000
b110000001 6
0)
0#
01
#3855000
1)
1#
11
#3860000
b110000010 6
0)
0#
01
#3865000
1)
1#
11
#3870000
b110000011 6
0)
0#
01
#3875000
1)
1#
11
#3880000
b110000100 6
0)
0#
01
#3885000
1)
1#
11
#3890000
b110000101 6
0)
0#
01
#3895000
1)
1#
11
#3900000
b110000110 6
0)
0#
01
#3905000
1)
1#
11
#3910000
b110000111 6
0)
0#
01
#3915000
1)
1#
11
#3920000
b110001000 6
0)
0#
01
#3925000
1)
1#
11
#3930000
b110001001 6
0)
0#
01
#3935000
1)
1#
11
#3940000
b110001010 6
0)
0#
01
#3945000
1)
1#
11
#3950000
b110001011 6
0)
0#
01
#3955000
1)
1#
11
#3960000
b110001100 6
0)
0#
01
#3965000
1)
1#
11
#3970000
b110001101 6
0)
0#
01
#3975000
1)
1#
11
#3980000
b110001110 6
0)
0#
01
#3985000
1)
1#
11
#3990000
b110001111 6
0)
0#
01
#3995000
1)
1#
11
#4000000
b110010000 6
0)
0#
01
#4005000
1)
1#
11
#4010000
b110010001 6
0)
0#
01
#4015000
1)
1#
11
#4020000
b110010010 6
0)
0#
01
#4025000
1)
1#
11
#4030000
b110010011 6
0)
0#
01
#4035000
1)
1#
11
#4040000
b110010100 6
0)
0#
01
#4045000
1)
1#
11
#4050000
b110010101 6
0)
0#
01
#4055000
1)
1#
11
#4060000
b110010110 6
0)
0#
01
#4065000
1)
1#
11
#4070000
b110010111 6
0)
0#
01
#4075000
1)
1#
11
#4080000
b110011000 6
0)
0#
01
#4085000
1)
1#
11
#4090000
b110011001 6
0)
0#
01
#4095000
1)
1#
11
#4100000
b110011010 6
0)
0#
01
#4105000
1)
1#
11
#4110000
b110011011 6
0)
0#
01
#4115000
1)
1#
11
#4120000
b110011100 6
0)
0#
01
#4125000
1)
1#
11
#4130000
b110011101 6
0)
0#
01
#4135000
1)
1#
11
#4140000
b110011110 6
0)
0#
01
#4145000
1)
1#
11
#4150000
b110011111 6
0)
0#
01
#4155000
1)
1#
11
#4160000
b110100000 6
0)
0#
01
#4165000
1)
1#
11
#4170000
b110100001 6
0)
0#
01
#4175000
1)
1#
11
#4180000
b110100010 6
0)
0#
01
#4185000
1)
1#
11
#4190000
b110100011 6
0)
0#
01
#4195000
1)
1#
11
#4200000
b110100100 6
0)
0#
01
#4205000
1)
1#
11
#4210000
b110100101 6
0)
0#
01
#4215000
1)
1#
11
#4220000
b110100110 6
0)
0#
01
#4225000
1)
1#
11
#4230000
b110100111 6
0)
0#
01
#4235000
1)
1#
11
#4240000
b110101000 6
0)
0#
01
#4245000
1)
1#
11
#4250000
b110101001 6
0)
0#
01
#4255000
1)
1#
11
#4260000
b110101010 6
0)
0#
01
#4265000
1)
1#
11
#4270000
b110101011 6
0)
0#
01
#4275000
1)
1#
11
#4280000
b110101100 6
0)
0#
01
#4285000
1)
1#
11
#4290000
b110101101 6
0)
0#
01
#4295000
1)
1#
11
#4300000
b110101110 6
0)
0#
01
#4305000
1)
1#
11
#4310000
b110101111 6
0)
0#
01
#4315000
1)
1#
11
#4320000
b110110000 6
0)
0#
01
#4325000
1)
1#
11
#4330000
b110110001 6
0)
0#
01
#4335000
1)
1#
11
#4340000
b110110010 6
0)
0#
01
#4345000
1)
1#
11
#4350000
b110110011 6
0)
0#
01
#4355000
1)
1#
11
#4360000
b110110100 6
0)
0#
01
#4365000
1)
1#
11
