OpenFPGA/Fabric/full_testbench_implicit_mapping/run001/k6_frac_N10_tileable_adder_chain_dpram8K_dsp36_fracff_40nm/mac_4/MIN_ROUTE_CHAN_WIDTH/mac_4_formal.vcd
$date
	Wed Jun 25 22:57:43 2025
$end
$version
	Icarus Verilog
$end
$timescale
	1ps
$end
$scope module mac_4_autocheck_top_tb $end
$var wire 1 ! __config_all_done__ $end
$var wire 1 " __op_clock__ $end
$var wire 1 # __prog_clock__ $end
$var wire 32 $ gfpga_pad_GPIO_PAD [0:31] $end
$var wire 1 % op_clk $end
$var wire 1 & op_reset $end
$var wire 1 ' op_set $end
$var wire 1 ( pReset $end
$var wire 1 ) prog_clk $end
$var wire 1 * out_3__fpga $end
$var wire 1 + out_3__benchmark $end
$var wire 1 , out_2__fpga $end
$var wire 1 - out_2__benchmark $end
$var wire 1 . out_1__fpga $end
$var wire 1 / out_1__benchmark $end
$var wire 1 0 out_0__fpga $end
$var wire 1 1 out_0__benchmark $end
$var wire 1 2 ccff_tail $end
$var reg 1 3 __config_done__ $end
$var reg 1 & __greset__ $end
$var reg 1 ' __gset__ $end
$var reg 1 4 __op_clock___reg__ $end
$var reg 1 5 __prog_clock___reg__ $end
$var reg 1 6 __prog_reset__ $end
$var reg 1 7 __prog_set_ $end
$var reg 1 8 a_0__shared_input $end
$var reg 1 9 a_1__shared_input $end
$var reg 1 : a_2__shared_input $end
$var reg 1 ; a_3__shared_input $end
$var reg 1 < b_0__shared_input $end
$var reg 1 = b_1__shared_input $end
$var reg 1 > b_2__shared_input $end
$var reg 1 ? b_3__shared_input $end
$var reg 13 @ bit_index [12:0] $end
$var reg 1 A c_0__shared_input $end
$var reg 1 B c_1__shared_input $end
$var reg 1 C c_2__shared_input $end
$var reg 1 D c_3__shared_input $end
$var reg 1 E ccff_head $end
$var reg 13 F ibit [12:0] $end
$var reg 1 G out_0__flag $end
$var reg 1 H out_1__flag $end
$var reg 1 I out_2__flag $end
$var reg 1 J out_3__flag $end
$var reg 1 K sim_start $end
$var reg 1 L skip_bits $end
$var integer 32 M nb_error [31:0] $end
$upscope $end
$enddefinitions $end
#0
$dumpvars
b1 M
0L
1K
0J
0I
0H
0G
b101000111111 F
0E
0D
0C
1B
1A
b0 @
1?
1>
1=
1<
1;
0:
19
08
17
16
05
04
03
02
11
00
0/
0.
0-
1,
1+
1*
0)
1(
0'
1&
0%
b1x1x00x0x000xx1xx1000x0xx000x1 $
0#
0"
0!
$end
#1667
15
#3333
1)
1#
07
0(
06
#3334
b1 @
0)
0#
05
#5001
1)
1#
15
#6668
b10 @
0)
0#
05
#8335
1)
1#
15
#10002
b11 @
0)
0#
05
#11669
1)
1#
15
#13336
b100 @
0)
0#
05
#15003
1)
1#
15
#16670
b101 @
1E
0)
0#
05
#18337
1)
1#
15
#20004
b110 @
0E
0)
0#
05
#21671
1)
1#
15
#23338
b111 @
0)
0#
05
#25005
1)
1#
15
#26672
b1000 @
0)
0#
05
#28339
1)
1#
15
#30006
b1001 @
0)
0#
05
#31673
1)
1#
15
#33340
b1010 @
0)
0#
05
#35007
1)
1#
15
#36674
b1011 @
0)
0#
05
#38341
1)
1#
15
#40008
b1100 @
0)
0#
05
#41675
1)
1#
15
#43342
b1101 @
0)
0#
05
#45009
1)
1#
15
#46676
b1110 @
0)
0#
05
#48343
1)
1#
15
#50010
b1111 @
1E
0)
0#
05
#51677
1)
1#
15
#53344
b10000 @
0E
0)
0#
05
#55011
1)
1#
15
#56678
b10001 @
0)
0#
05
#58345
1)
1#
15
#60012
b10010 @
0)
0#
05
#61679
1)
1#
15
#63346
b10011 @
0)
0#
05
#65013
1)
1#
15
#66680
b10100 @
0)
0#
05
#68347
1)
1#
15
#70014
b10101 @
1E
0)
0#
05
#71681
1)
1#
15
#73348
b10110 @
0E
0)
0#
05
#75015
1)
1#
15
#76682
b10111 @
0)
0#
05
#78349
1)
1#
15
#80016
b11000 @
0)
0#
05
#81683
1)
1#
15
#83350
b11001 @
0)
0#
05
#85017
1)
1#
15
#86684
b11010 @
1E
0)
0#
05
#88351
1)
1#
15
#90018
b11011 @
0E
0)
0#
05
#91685
1)
1#
15
#93352
b11100 @
0)
0#
05
#95019
1)
1#
15
#96686
b11101 @
0)
0#
05
#98353
1)
1#
15
#100020
b11110 @
0)
0#
05
#101687
1)
1#
15
#103354
b11111 @
0)
0#
05
#105021
1)
1#
15
#106688
b100000 @
0)
0#
05
#108355
1)
1#
15
#110022
b100001 @
0)
0#
05
#111689
1)
1#
15
#113356
b100010 @
0)
0#
05
#115023
1)
1#
15
#116690
b100011 @
0)
0#
05
#118357
1)
1#
15
#120024
b100100 @
0)
0#
05
#121691
1)
1#
15
#123358
b100101 @
1E
0)
0#
05
#125025
1)
1#
15
#126692
b100110 @
0E
0)
0#
05
#128359
1)
1#
15
#130026
b100111 @
0)
0#
05
#131693
1)
1#
15
#133360
b101000 @
0)
0#
05
#135027
1)
1#
15
#136694
b101001 @
0)
0#
05
#138361
1)
1#
15
#140028
b101010 @
0)
0#
05
#141695
1)
1#
15
#143362
b101011 @
0)
0#
05
#145029
1)
1#
15
#146696
b101100 @
0)
0#
05
#148363
1)
1#
15
#150030
b101101 @
0)
0#
05
#151697
1)
1#
15
#153364
b101110 @
0)
0#
05
#155031
1)
1#
15
#156698
b101111 @
0)
0#
05
#158365
1)
1#
15
#160032
b110000 @
1E
0)
0#
05
#161699
1)
1#
15
#163366
b110001 @
0E
0)
0#
05
#165033
1)
1#
15
#166700
b110010 @
0)
0#
05
#168367
1)
1#
15
#170034
b110011 @
0)
0#
05
#171701
1)
1#
15
#173368
b110100 @
0)
0#
05
#175035
1)
1#
15
#176702
b110101 @
0)
0#
05
#178369
1)
1#
15
#180036
b110110 @
1E
0)
0#
05
#181703
1)
1#
15
#183370
b110111 @
0E
0)
0#
05
#185037
1)
1#
15
#186704
b111000 @
0)
0#
05
#188371
1)
1#
15
#190038
b111001 @
1E
0)
0#
05
#191705
1)
1#
15
#193372
b111010 @
0E
0)
0#
05
#195039
1)
1#
15
#196706
b111011 @
0)
0#
05
#198373
1)
1#
15
#200040
b111100 @
0)
0#
05
#201707
1)
1#
15
#203374
b111101 @
0)
0#
05
#205041
1)
1#
15
#206708
b111110 @
0)
0#
05
#208375
1)
1#
15
#210042
b111111 @
0)
0#
05
#211709
1)
1#
15
#213376
b1000000 @
0)
0#
05
#215043
1)
1#
15
#216710
b1000001 @
0)
0#
05
#218377
1)
1#
15
#220044
b1000010 @
0)
0#
05
#221711
1)
1#
15
#223378
b1000011 @
0)
0#
05
#225045
1)
1#
15
#226712
b1000100 @
0)
0#
05
#228379
1)
1#
15
#230046
b1000101 @
0)
0#
05
#231713
1)
1#
15
#233380
b1000110 @
0)
0#
05
#235047
1)
1#
15
#236714
b1000111 @
0)
0#
05
#238381
1)
1#
15
#240048
b1001000 @
1E
0)
0#
05
#241715
1)
1#
15
#243382
b1001001 @
0E
0)
0#
05
#245049
1)
1#
15
#246716
b1001010 @
0)
0#
05
#248383
1)
1#
15
#250050
b1001011 @
1E
0)
0#
05
#251717
1)
1#
15
#253384
b1001100 @
0E
0)
0#
05
#255051
1)
1#
15
#256718
b1001101 @
0)
0#
05
#258385
1)
1#
15
#260052
b1001110 @
0)
0#
05
#261719
1)
1#
15
#263386
b1001111 @
0)
0#
05
#265053
1)
1#
15
#266720
b1010000 @
0)
0#
05
#268387
1)
1#
15
#270054
b1010001 @
0)
0#
05
#271721
1)
1#
15
#273388
b1010010 @
0)
0#
05
#275055
1)
1#
15
#276722
b1010011 @
0)
0#
05
#278389
1)
1#
15
#280056
b1010100 @
0)
0#
05
#281723
1)
1#
15
#283390
b1010101 @
0)
0#
05
#285057
1)
1#
15
#286724
b1010110 @
0)
0#
05
#288391
1)
1#
15
#290058
b1010111 @
0)
0#
05
#291725
1)
1#
15
#293392
b1011000 @
1E
0)
0#
05
#295059
1)
1#
15
#296726
b1011001 @
0E
0)
0#
05
#298393
1)
1#
15
#300060
b1011010 @
0)
0#
05
#301727
1)
1#
15
#303394
b1011011 @
0)
0#
05
#305061
1)
1#
15
#306728
b1011100 @
0)
0#
05
#308395
1)
1#
15
#310062
b1011101 @
0)
0#
05
#311729
1)
1#
15
#313396
b1011110 @
0)
0#
05
#315063
1)
1#
15
#316730
b1011111 @
1E
0)
0#
05
#318397
1)
1#
15
#320064
b1100000 @
0E
0)
0#
05
#321731
1)
1#
15
#323398
b1100001 @
1E
0)
0#
05
#325065
1)
1#
15
#326732
b1100010 @
0E
0)
0#
05
#328399
1)
1#
15
#330066
b1100011 @
0)
0#
05
#331733
1)
1#
15
#333400
b1100100 @
0)
0#
05
#335067
1)
1#
15
#336734
b1100101 @
0)
0#
05
#338401
1)
1#
15
#340068
b1100110 @
0)
0#
05
#341735
1)
1#
15
#343402
b1100111 @
0)
0#
05
#345069
1)
1#
15
#346736
b1101000 @
0)
0#
05
#348403
1)
1#
15
#350070
b1101001 @
0)
0#
05
#351737
1)
1#
15
#353404
b1101010 @
0)
0#
05
#355071
1)
1#
15
#356738
b1101011 @
0)
0#
05
#358405
1)
1#
15
#360072
b1101100 @
1E
0)
0#
05
#361739
1)
1#
15
#363406
b1101101 @
0E
0)
0#
05
#365073
1)
1#
15
#366740
b1101110 @
0)
0#
05
#368407
1)
1#
15
#370074
b1101111 @
0)
0#
05
#371741
1)
1#
15
#373408
b1110000 @
0)
0#
05
#375075
1)
1#
15
#376742
b1110001 @
1E
0)
0#
05
#378409
1)
1#
15
#380076
b1110010 @
0E
0)
0#
05
#381743
1)
1#
15
#383410
b1110011 @
0)
0#
05
#385077
1)
1#
15
#386744
b1110100 @
0)
0#
05
#388411
1)
1#
15
#390078
b1110101 @
0)
0#
05
#391745
1)
1#
15
#393412
b1110110 @
0)
0#
05
#395079
1)
1#
15
#396746
b1110111 @
0)
0#
05
#398413
1)
1#
15
#400080
b1111000 @
0)
0#
05
#401747
1)
1#
15
#403414
b1111001 @
0)
0#
05
#405081
1)
1#
15
#406748
b1111010 @
0)
0#
05
#408415
1)
1#
15
#410082
b1111011 @
0)
0#
05
#411749
1)
1#
15
#413416
b1111100 @
0)
0#
05
#415083
1)
1#
15
#416750
b1111101 @
0)
0#
05
#418417
1)
1#
15
#420084
b1111110 @
1E
0)
0#
05
#421751
1)
1#
15
#423418
b1111111 @
0E
0)
0#
05
#425085
1)
1#
15
#426752
b10000000 @
0)
0#
05
#428419
1)
1#
15
#430086
b10000001 @
0)
0#
05
#431753
1)
1#
15
#433420
b10000010 @
0)
0#
05
#435087
1)
1#
15
#436754
b10000011 @
0)
0#
05
#438421
1)
1#
15
#440088
b10000100 @
0)
0#
05
#441755
1)
1#
15
#443422
b10000101 @
1E
0)
0#
05
#445089
1)
1#
15
#446756
b10000110 @
0E
0)
0#
05
#448423
1)
1#
15
#450090
b10000111 @
0)
0#
05
#451757
1)
1#
15
#453424
b10001000 @
0)
0#
05
#455091
1)
1#
15
#456758
b10001001 @
0)
0#
05
#458425
1)
1#
15
#460092
b10001010 @
0)
0#
05
#461759
1)
1#
15
#463426
b10001011 @
0)
0#
05
#465093
1)
1#
15
#466760
b10001100 @
1E
0)
0#
05
#468427
1)
1#
15
#470094
b10001101 @
0E
0)
0#
05
#471761
1)
1#
15
#473428
b10001110 @
0)
0#
05
#475095
1)
1#
15
#476762
b10001111 @
0)
0#
05
#478429
1)
1#
15
#480096
b10010000 @
0)
0#
05
#481763
1)
1#
15
#483430
b10010001 @
0)
0#
05
#485097
1)
1#
15
#486764
b10010010 @
1E
0)
0#
05
#488431
1)
1#
15
#490098
b10010011 @
0E
0)
0#
05
#491765
1)
1#
15
#493432
b10010100 @
0)
0#
05
#495099
1)
1#
15
#496766
b10010101 @
0)
0#
05
#498433
1)
1#
15
#500100
b10010110 @
0)
0#
05
#501767
1)
1#
15
#503434
b10010111 @
0)
0#
05
#505101
1)
1#
15
#506768
b10011000 @
0)
0#
05
#508435
1)
1#
15
#510102
b10011001 @
0)
0#
05
#511769
1)
1#
15
#513436
b10011010 @
1E
0)
0#
05
#515103
1)
1#
15
#516770
b10011011 @
0E
0)
0#
05
#518437
1)
1#
15
#520104
b10011100 @
0)
0#
05
#521771
1)
1#
15
#523438
b10011101 @
0)
0#
05
#525105
1)
1#
15
#526772
b10011110 @
0)
0#
05
#528439
1)
1#
15
#530106
b10011111 @
0)
0#
05
#531773
1)
1#
15
#533440
b10100000 @
0)
0#
05
#535107
1)
1#
15
#536774
b10100001 @
0)
0#
05
#538441
1)
1#
15
#540108
b10100010 @
0)
0#
05
#541775
1)
1#
15
#543442
b10100011 @
0)
0#
05
#545109
1)
1#
15
#546776
b10100100 @
0)
0#
05
#548443
1)
1#
15
#550110
b10100101 @
0)
0#
05
#551777
1)
1#
15
#553444
b10100110 @
1E
0)
0#
05
#555111
1)
1#
15
#556778
b10100111 @
0E
0)
0#
05
#558445
1)
1#
15
#560112
b10101000 @
0)
0#
05
#561779
1)
1#
15
#563446
b10101001 @
0)
0#
05
#565113
1)
1#
15
#566780
b10101010 @
0)
0#
05
#568447
1)
1#
15
#570114
b10101011 @
0)
0#
05
#571781
1)
1#
15
#573448
b10101100 @
1E
0)
0#
05
#575115
1)
1#
15
#576782
b10101101 @
0E
0)
0#
05
#578449
1)
1#
15
#580116
b10101110 @
0)
0#
05
#581783
1)
1#
15
#583450
b10101111 @
0)
0#
05
#585117
1)
1#
15
#586784
b10110000 @
0)
0#
05
#588451
1)
1#
15
#590118
b10110001 @
0)
0#
05
#591785
1)
1#
15
#593452
b10110010 @
0)
0#
05
#595119
1)
1#
15
#596786
b10110011 @
0)
0#
05
#598453
1)
1#
15
#600120
b10110100 @
0)
0#
05
#601787
1)
1#
15
#603454
b10110101 @
1E
0)
0#
05
#605121
1)
1#
15
#606788
b10110110 @
0E
0)
0#
05
#608455
1)
1#
15
#610122
b10110111 @
0)
0#
05
#611789
1)
1#
15
#613456
b10111000 @
0)
0#
05
#615123
1)
1#
15
#616790
b10111001 @
0)
0#
05
#618457
1)
1#
15
#620124
b10111010 @
0)
0#
05
#621791
1)
1#
15
#623458
b10111011 @
1E
0)
0#
05
#625125
1)
1#
15
#626792
b10111100 @
0E
0)
0#
05
#628459
1)
1#
15
#630126
b10111101 @
0)
0#
05
#631793
1)
1#
15
#633460
b10111110 @
0)
0#
05
#635127
1)
1#
15
#636794
b10111111 @
0)
0#
05
#638461
1)
1#
15
#640128
b11000000 @
0)
0#
05
#641795
1)
1#
15
#643462
b11000001 @
0)
0#
05
#645129
1)
1#
15
#646796
b11000010 @
0)
0#
05
#648463
1)
1#
15
#650130
b11000011 @
0)
0#
05
#651797
1)
1#
15
#653464
b11000100 @
0)
0#
05
#655131
1)
1#
15
#656798
b11000101 @
1E
0)
0#
05
#658465
1)
1#
15
#660132
b11000110 @
0E
0)
0#
05
#661799
1)
1#
15
#663466
b11000111 @
0)
0#
05
#665133
1)
1#
15
#666800
b11001000 @
0)
0#
05
#668467
1)
1#
15
#670134
b11001001 @
0)
0#
05
#671801
1)
1#
15
#673468
b11001010 @
0)
0#
05
#675135
1)
1#
15
#676802
b11001011 @
1E
0)
0#
05
#678469
1)
1#
15
#680136
b11001100 @
0E
0)
0#
05
#681803
1)
1#
15
#683470
b11001101 @
0)
0#
05
#685137
1)
1#
15
#686804
b11001110 @
0)
0#
05
#688471
1)
1#
15
#690138
b11001111 @
0)
0#
05
#691805
1)
1#
15
#693472
b11010000 @
0)
0#
05
#695139
1)
1#
15
#696806
b11010001 @
0)
0#
05
#698473
1)
1#
15
#700140
b11010010 @
0)
0#
05
#701807
1)
1#
15
#703474
b11010011 @
0)
0#
05
#705141
1)
1#
15
#706808
b11010100 @
0)
0#
05
#708475
1)
1#
15
#710142
b11010101 @
0)
0#
05
#711809
1)
1#
15
#713476
b11010110 @
0)
0#
05
#715143
1)
1#
15
#716810
b11010111 @
0)
0#
05
#718477
1)
1#
15
#720144
b11011000 @
1E
0)
0#
05
#721811
1)
1#
15
#723478
b11011001 @
0E
0)
0#
05
#725145
1)
1#
15
#726812
b11011010 @
0)
0#
05
#728479
1)
1#
15
#730146
b11011011 @
1E
0)
0#
05
#731813
1)
1#
15
#733480
b11011100 @
0E
0)
0#
05
#735147
1)
1#
15
#736814
b11011101 @
0)
0#
05
#738481
1)
1#
15
#740148
b11011110 @
0)
0#
05
#741815
1)
1#
15
#743482
b11011111 @
0)
0#
05
#745149
1)
1#
15
#746816
b11100000 @
0)
0#
05
#748483
1)
1#
15
#750150
b11100001 @
0)
0#
05
#751817
1)
1#
15
#753484
b11100010 @
0)
0#
05
#755151
1)
1#
15
#756818
b11100011 @
0)
0#
05
#758485
1)
1#
15
#760152
b11100100 @
0)
0#
05
#761819
1)
1#
15
#763486
b11100101 @
0)
0#
05
#765153
1)
1#
15
#766820
b11100110 @
1E
0)
0#
05
#768487
1)
1#
15
#770154
b11100111 @
0E
0)
0#
05
#771821
1)
1#
15
#773488
b11101000 @
0)
0#
05
#775155
1)
1#
15
#776822
b11101001 @
1E
0)
0#
05
#778489
1)
1#
15
#780156
b11101010 @
0E
0)
0#
05
#781823
1)
1#
15
#783490
b11101011 @
0)
0#
05
#785157
1)
1#
15
#786824
b11101100 @
0)
0#
05
#788491
1)
1#
15
#790158
b11101101 @
0)
0#
05
#791825
1)
1#
15
#793492
b11101110 @
0)
0#
05
#795159
1)
1#
15
#796826
b11101111 @
0)
0#
05
#798493
1)
1#
15
#800160
b11110000 @
0)
0#
05
#801827
1)
1#
15
#803494
b11110001 @
0)
0#
05
#805161
1)
1#
15
#806828
b11110010 @
0)
0#
05
#808495
1)
1#
15
#810162
b11110011 @
0)
0#
05
#811829
1)
1#
15
#813496
b11110100 @
0)
0#
05
#815163
1)
1#
15
#816830
b11110101 @
1E
0)
0#
05
#818497
1)
1#
15
#820164
b11110110 @
0E
0)
0#
05
#821831
1)
1#
15
#823498
b11110111 @
0)
0#
05
#825165
1)
1#
15
#826832
b11111000 @
0)
0#
05
#828499
1)
1#
15
#830166
b11111001 @
0)
0#
05
#831833
1)
1#
15
#833500
b11111010 @
1E
0)
0#
05
#835167
1)
1#
15
#836834
b11111011 @
0E
0)
0#
05
#838501
1)
1#
15
#840168
b11111100 @
0)
0#
05
#841835
1)
1#
15
#843502
b11111101 @
0)
0#
05
#845169
1)
1#
15
#846836
b11111110 @
0)
0#
05
#848503
1)
1#
15
#850170
b11111111 @
0)
0#
05
#851837
1)
1#
15
#853504
b100000000 @
0)
0#
05
#855171
1)
1#
15
#856838
b100000001 @
0)
0#
05
#858505
1)
1#
15
#860172
b100000010 @
0)
0#
05
#861839
1)
1#
15
#863506
b100000011 @
0)
0#
05
#865173
1)
1#
15
#866840
b100000100 @
0)
0#
05
#868507
1)
1#
15
#870174
b100000101 @
0)
0#
05
#871841
1)
1#
15
#873508
b100000110 @
0)
0#
05
#875175
1)
1#
15
#876842
b100000111 @
0)
0#
05
#878509
1)
1#
15
#880176
b100001000 @
1E
0)
0#
05
#881843
1)
1#
15
#883510
b100001001 @
0E
0)
0#
05
#885177
1)
1#
15
#886844
b100001010 @
0)
0#
05
#888511
1)
1#
15
#890178
b100001011 @
0)
0#
05
#891845
1)
1#
15
#893512
b100001100 @
0)
0#
05
#895179
1)
1#
15
#896846
b100001101 @
0)
0#
05
#898513
1)
1#
15
#900180
b100001110 @
0)
0#
05
#901847
1)
1#
15
#903514
b100001111 @
1E
0)
0#
05
#905181
1)
1#
15
#906848
b100010000 @
0E
0)
0#
05
#908515
1)
1#
15
#910182
b100010001 @
0)
0#
05
#911849
1)
1#
15
#913516
b100010010 @
0)
0#
05
#915183
1)
1#
15
#916850
b100010011 @
0)
0#
05
#918517
1)
1#
15
#920184
b100010100 @
0)
0#
05
#921851
1)
1#
15
#923518
b100010101 @
1E
0)
0#
05
#925185
1)
1#
15
#926852
b100010110 @
0E
0)
0#
05
#928519
1)
1#
15
#930186
b100010111 @
0)
0#
05
#931853
1)
1#
15
#933520
b100011000 @
0)
0#
05
#935187
1)
1#
15
#936854
b100011001 @
0)
0#
05
#938521
1)
1#
15
#940188
b100011010 @
0)
0#
05
#941855
1)
1#
15
#943522
b100011011 @
0)
0#
05
#945189
1)
1#
15
#946856
b100011100 @
0)
0#
05
#948523
1)
1#
15
#950190
b100011101 @
0)
0#
05
#951857
1)
1#
15
#953524
b100011110 @
0)
0#
05
#955191
1)
1#
15
#956858
b100011111 @
0)
0#
05
#958525
1)
1#
15
#960192
b100100000 @
1E
0)
0#
05
#961859
1)
1#
15
#963526
b100100001 @
0)
0#
05
#965193
1)
1#
15
#966860
b100100010 @
0E
0)
0#
05
#968527
1)
1#
15
#970194
b100100011 @
0)
0#
05
#971861
1)
1#
15
#973528
b100100100 @
0)
0#
05
#975195
1)
1#
15
#976862
b100100101 @
0)
0#
05
#978529
1)
1#
15
#980196
b100100110 @
0)
0#
05
#981863
1)
1#
15
#983530
b100100111 @
0)
0#
05
#985197
1)
1#
15
#986864
b100101000 @
0)
0#
05
#988531
1)
1#
15
#990198
b100101001 @
0)
0#
05
#991865
1)
1#
15
#993532
b100101010 @
0)
0#
05
#995199
1)
1#
15
#996866
b100101011 @
0)
0#
05
#998533
1)
1#
15
#1000200
b100101100 @
1E
0)
0#
05
#1001867
1)
1#
15
#1003534
b100101101 @
0E
0)
0#
05
#1005201
1)
1#
15
#1006868
b100101110 @
0)
0#
05
#1008535
1)
1#
15
#1010202
b100101111 @
0)
0#
05
#1011869
1)
1#
15
#1013536
b100110000 @
0)
0#
05
#1015203
1)
1#
15
#1016870
b100110001 @
0)
0#
05
#1018537
1)
1#
15
#1020204
b100110010 @
0)
0#
05
#1021871
1)
1#
15
#1023538
b100110011 @
0)
0#
05
#1025205
1)
1#
15
#1026872
b100110100 @
0)
0#
05
#1028539
1)
1#
15
#1030206
b100110101 @
0)
0#
05
#1031873
1)
1#
15
#1033540
b100110110 @
1E
0)
0#
05
#1035207
1)
1#
15
#1036874
b100110111 @
0E
0)
0#
05
#1038541
1)
1#
15
#1040208
b100111000 @
0)
0#
05
#1041875
1)
1#
15
#1043542
b100111001 @
0)
0#
05
#1045209
1)
1#
15
#1046876
b100111010 @
0)
0#
05
#1048543
1)
1#
15
#1050210
b100111011 @
1E
0)
0#
05
#1051877
1)
1#
15
#1053544
b100111100 @
0E
0)
0#
05
#1055211
1)
1#
15
#1056878
b100111101 @
0)
0#
05
#1058545
1)
1#
15
#1060212
b100111110 @
0)
0#
05
#1061879
1)
1#
15
#1063546
b100111111 @
0)
0#
05
#1065213
1)
1#
15
#1066880
b101000000 @
0)
0#
05
#1068547
1)
1#
15
#1070214
b101000001 @
1E
0)
0#
05
#1071881
1)
1#
15
#1073548
b101000010 @
0E
0)
0#
05
#1075215
1)
1#
15
#1076882
b101000011 @
0)
0#
05
#1078549
1)
1#
15
#1080216
b101000100 @
0)
0#
05
#1081883
1)
1#
15
#1083550
b101000101 @
0)
0#
05
#1085217
1)
1#
15
#1086884
b101000110 @
0)
0#
05
#1088551
1)
1#
15
#1090218
b101000111 @
0)
0#
05
#1091885
1)
1#
15
#1093552
b101001000 @
0)
0#
05
#1095219
1)
1#
15
#1096886
b101001001 @
0)
0#
05
#1098553
1)
1#
15
#1100220
b101001010 @
0)
0#
05
#1101887
1)
1#
15
#1103554
b101001011 @
0)
0#
05
#1105221
1)
1#
15
#1106888
b101001100 @
0)
0#
05
#1108555
1)
1#
15
#1110222
b101001101 @
0)
0#
05
#1111889
1)
1#
15
#1113556
b101001110 @
0)
0#
05
#1115223
1)
1#
15
#1116890
b101001111 @
1E
0)
0#
05
#1118557
1)
1#
15
#1120224
b101010000 @
0E
0)
0#
05
#1121891
b1x1x00x0x000xx1xx1000x0xx000x1 $
1)
1#
15
#1123558
b101010001 @
0)
0#
05
#1125225
1)
1#
15
#1126892
b101010010 @
1E
0)
0#
05
#1128559
b1x1x00x0x000xxxxx1000x0xx000x1 $
1)
1#
15
#1130226
b101010011 @
0E
0)
0#
05
#1131893
b1x1x00x0x000xx1xx1000x0xx000x1 $
1)
1#
15
#1133560
b101010100 @
0)
0#
05
#1135227
1)
1#
15
#1136894
b101010101 @
0)
0#
05
#1138561
1)
1#
15
#1140228
b101010110 @
0)
0#
05
#1141895
1)
1#
15
#1143562
b101010111 @
0)
0#
05
#1145229
1)
1#
15
#1146896
b101011000 @
0)
0#
05
#1148563
1)
1#
15
#1150230
b101011001 @
0)
0#
05
#1151897
b1x1x00x0x000xx11x1000x0xx000x1 $
1)
1#
15
#1153564
b101011010 @
0)
0#
05
#1155231
b1x1x00x0x000xx11x1000x0xx000x1 $
1)
1#
15
#1156898
b101011011 @
0)
0#
05
#1158565
1)
1#
15
#1160232
b101011100 @
0)
0#
05
#1161899
b1x1x00x0x000xxx111000x0xx000x1 $
1)
1#
15
#1163566
b101011101 @
0)
0#
05
#1165233
b1x1x00x0x000xx1111000x0xx000x1 $
1)
1#
15
#1166900
b101011110 @
0)
0#
05
#1168567
b1x1x00x0x000xx11x1000x0xx000x1 $
1)
1#
15
#1170234
b101011111 @
0)
0#
05
#1171901
b1x1x00x0x000xx1111000x0xx000x1 $
1)
1#
15
#1173568
b101100000 @
1E
0)
0#
05
#1175235
b1x1x00x0x000xx1x11000x0xx000x1 $
1)
1#
15
#1176902
b101100001 @
0E
0)
0#
05
#1178569
1)
1#
15
#1180236
b101100010 @
1E
0)
0#
05
#1181903
1,
b1x1x00x0x000xxxx11000x0xx000x1 $
1)
1#
15
#1183570
b101100011 @
0E
0)
0#
05
#1185237
b1x1x00x0x000xx1x11000x0xx000x1 $
1)
1#
15
#1186904
b101100100 @
0)
0#
05
#1188571
0,
b1x1x00x0x000xx1x10000x0xx000x1 $
1)
1#
15
#1190238
b101100101 @
0)
0#
05
#1191905
0,
b1x1x00x0x000xxxx10000x0xx000x1 $
1)
1#
15
#1193572
b101100110 @
0)
0#
05
#1195239
b1x1x00x0x000xxx110000x0xx000x1 $
1)
1#
15
#1196906
b101100111 @
0)
0#
05
#1198573
1)
1#
15
#1200240
b101101000 @
0)
0#
05
#1201907
b1x1x00x0x000xxxxx0000x0xx000x1 $
1)
1#
15
#1203574
b101101001 @
0)
0#
05
#1205241
b1x1x00x0x000xxxxx0000x0xx000x1 $
1)
1#
15
#1206908
b101101010 @
0)
0#
05
#1208575
1)
1#
15
#1210242
b101101011 @
0)
0#
05
#1211909
b1x1x00x0x000xxx1x0x00x0xx000x1 $
1)
1#
15
#1213576
b101101100 @
0)
0#
05
#1215243
1,
b1x1x00x0x000xxx111x00x0xx000x1 $
1)
1#
15
#1216910
b101101101 @
0)
0#
05
#1218577
b1x1x00x0x000xxxx11x00x0xx000x1 $
1)
1#
15
#1220244
b101101110 @
1E
0)
0#
05
#1221911
0,
b1x1x00x0x000xxx1x0x00x0xx000x1 $
1)
1#
15
#1223578
b101101111 @
0E
0)
0#
05
#1225245
1,
b1x1x00x0x000xxx1x1x00x0xx000x1 $
1)
1#
15
#1226912
b101110000 @
0)
0#
05
#1228579
b1x1x00x0x000xxx1x1x00x0xx000x1 $
1)
1#
15
#1230246
b101110001 @
1E
0)
0#
05
#1231913
b1x1x00x0x000xxx1x1x00x0xx000x1 $
1)
1#
15
#1233580
b101110010 @
0E
0)
0#
05
#1235247
1,
b1x1x00x0x000xxx1x1x00x0xx000x1 $
1)
1#
15
#1236914
b101110011 @
0)
0#
05
#1238581
b1x1x00x0x000xxx1x1x00x0xx000x1 $
1)
1#
15
#1240248
b101110100 @
0)
0#
05
#1241915
0,
b1x1x00x0x000xxx110000x0xx000x1 $
1)
1#
15
#1243582
b101110101 @
0)
0#
05
#1245249
1,
b1x1x00x0x000xxx111x00x0xx000x1 $
1)
1#
15
#1246916
b101110110 @
0)
0#
05
#1248583
b1x1x00x0x000xxx111x00x0xx000x1 $
1)
1#
15
#1250250
b101110111 @
0)
0#
05
#1251917
1,
b1x1x00x0x000xxx111x00x0xx000x1 $
1)
1#
15
#1253584
b101111000 @
0)
0#
05
#1255251
b1x1x00x0x000xxxx110x0x0xx000x1 $
1)
1#
15
#1256918
b101111001 @
0)
0#
05
#1258585
0,
b1x1x00x0x000xxx1100x0x0xx000x1 $
1)
1#
15
#1260252
b101111010 @
0)
0#
05
#1261919
1,
b1x1x00x0x000xxx111000x0xx000x1 $
1)
1#
15
#1263586
b101111011 @
0)
0#
05
#1265253
b1x1x00x0x000xx1111000x0xx000x1 $
1)
1#
15
#1266920
b101111100 @
1E
0)
0#
05
#1268587
b1x1x00x0x000xx11x1000x0xx000x1 $
1)
1#
15
#1270254
b101111101 @
0E
0)
0#
05
#1271921
b1x1x00x0x000xx11x1x00x0xx000x1 $
1)
1#
15
#1273588
b101111110 @
0)
0#
05
#1275255
b1x1x00x0x000xx11x1xx0x0xx000x1 $
1)
1#
15
#1276922
b101111111 @
0)
0#
05
#1278589
b1x1x00x0x000xx11110x0x0xx000x1 $
1)
1#
15
#1280256
b110000000 @
0)
0#
05
#1281923
z,
b1x1x00x0x000xx111zx00x0xx000x1 $
1)
1#
15
#1283590
b110000001 @
0)
0#
05
#1285257
1,
b1x1x00x0x000xx1111000x0xx000x1 $
1)
1#
15
#1286924
b110000010 @
0)
0#
05
#1288591
0,
b1x1x00x0x000xxx110x00x0xx000x1 $
1)
1#
15
#1290258
b110000011 @
0)
0#
05
#1291925
b1x1x00x0x000xxxx10x00x0xx000x1 $
1)
1#
15
#1293592
b110000100 @
0)
0#
05
#1295259
b1x1x00x0x000xx1x10x0010xx000x1 $
1)
1#
15
#1296926
b110000101 @
0)
0#
05
#1298593
b1x1x0000x000xx1x10x00x0xx000x1 $
1)
1#
15
#1300260
b110000110 @
0)
0#
05
#1301927
b1x1x00x0x000xxxx10xx0x0xx000x1 $
1)
1#
15
